FAPMU20  DFHMSD TYPE=MAP,LANG=COBOL,TERM=3270,MODE=INOUT,              X
               TIOAPFX=YES,MAPATTS=(COLOR,HILIGHT),                    X
               DSATTS=(COLOR,HILIGHT)
FAPMU20  DFHMDI SIZE=(24,80),LINE=1,COLUMN=1,CTRL=FREEKB,TIOAPFX=YES
         DFHMDF POS=(01,01),LENGTH=0007,ATTRB=(PROT,ASKIP),            X
               INITIAL='FAPMU20',COLOR=BLUE,HILIGHT=OFF
* 'TRMNL-ID-SY00'
ZFLD002  DFHMDF POS=(01,10),LENGTH=0008,ATTRB=(PROT),COLOR=BLUE,       X
               HILIGHT=OFF
         DFHMDF POS=(01,19),LENGTH=0,ATTRB=(ASKIP,NORM)
* 'FULL-NAME-6001-SY00'
ZFLD003  DFHMDF POS=(01,23),LENGTH=0035,ATTRB=(PROT),COLOR=BLUE,       X
               HILIGHT=OFF
         DFHMDF POS=(01,59),LENGTH=0,ATTRB=(ASKIP,NORM)
* 'AGR-DATE'
ZFLD004  DFHMDF POS=(01,64),LENGTH=0008,ATTRB=(PROT),COLOR=BLUE,       X
               HILIGHT=OFF
* 'WORK-HH-MM-TIME-SY00'
ZFLD005  DFHMDF POS=(01,73),LENGTH=0005,ATTRB=(PROT),COLOR=BLUE,       X
               HILIGHT=OFF
* 'AM-PM-FLAG-SY00'
ZFLD006  DFHMDF POS=(01,79),LENGTH=0001,ATTRB=(PROT),COLOR=BLUE,       X
               HILIGHT=OFF
* 'AGR-USER-ID'
ZFLD007  DFHMDF POS=(02,01),LENGTH=0008,ATTRB=(PROT),COLOR=BLUE,       X
               HILIGHT=OFF
         DFHMDF POS=(02,10),LENGTH=0,ATTRB=(ASKIP,NORM)
* 'CURR-RSPNS-ID-SY00'
ZFLD008  DFHMDF POS=(02,21),LENGTH=0008,ATTRB=(PROT,BRT),              X
               COLOR=DEFAULT,HILIGHT=OFF
         DFHMDF POS=(02,30),LENGTH=0001,ATTRB=(PROT,ASKIP,BRT),        X
               INITIAL=':',COLOR=DEFAULT,HILIGHT=OFF
* 'AGR-FUNC-DESCRIPTION'
ZFLD009  DFHMDF POS=(02,32),LENGTH=0028,ATTRB=(PROT,BRT),              X
               COLOR=DEFAULT,HILIGHT=OFF
         DFHMDF POS=(02,61),LENGTH=0,ATTRB=(ASKIP,NORM)
* 'PAGE-STATUS-CODE-SY00'
ZFLD010  DFHMDF POS=(02,64),LENGTH=0010,ATTRB=(PROT,BRT),              X
               COLOR=DEFAULT,HILIGHT=OFF
         DFHMDF POS=(02,75),LENGTH=0,ATTRB=(ASKIP,NORM)
         DFHMDF POS=(04,07),LENGTH=0009,ATTRB=(PROT,ASKIP),            X
               INITIAL='VENDOR #:',COLOR=BLUE,HILIGHT=OFF
* 'WK-VNDR-ID-LAST-NINE-AP20'
ZFLD011  DFHMDF POS=(04,17),LENGTH=0009,ATTRB=(UNPROT,IC),             X
               COLOR=DEFAULT,HILIGHT=UNDERLINE
         DFHMDF POS=(04,27),LENGTH=0,ATTRB=(ASKIP,NORM)
         DFHMDF POS=(04,29),LENGTH=0005,ATTRB=(PROT,ASKIP),            X
               INITIAL='NAME:',COLOR=BLUE,HILIGHT=OFF
* 'NAME-KEY-6311-R-6117-AP20'
ZFLD012  DFHMDF POS=(04,35),LENGTH=0035,ATTRB=(UNPROT),COLOR=DEFAULT,  X
               HILIGHT=UNDERLINE
         DFHMDF POS=(04,71),LENGTH=0,ATTRB=(ASKIP,NORM)
         DFHMDF POS=(05,03),LENGTH=0013,ATTRB=(PROT,ASKIP),            X
               INITIAL='ADDRESS TYPE:',COLOR=BLUE,HILIGHT=OFF
* 'WK-ADR-TYPE-CODE-KEY-AP20'
ZFLD013  DFHMDF POS=(05,17),LENGTH=0002,ATTRB=(UNPROT),COLOR=DEFAULT,  X
               HILIGHT=UNDERLINE
         DFHMDF POS=(05,20),LENGTH=0,ATTRB=(ASKIP,NORM)
* 'ADR-TYPE-DESC-AP20'
ZFLD014  DFHMDF POS=(05,22),LENGTH=0030,ATTRB=(UNPROT),COLOR=DEFAULT,  X
               HILIGHT=UNDERLINE
         DFHMDF POS=(05,53),LENGTH=0,ATTRB=(ASKIP,NORM)
         DFHMDF POS=(05,54),LENGTH=0009,ATTRB=(PROT,ASKIP),            X
               INITIAL='ACH DATA:',COLOR=BLUE,HILIGHT=OFF
* 'ACH-DATA-FLAG-AP20'
ZFLD015  DFHMDF POS=(05,64),LENGTH=0001,ATTRB=(PROT),COLOR=TURQUOISE,  X
               HILIGHT=OFF
         DFHMDF POS=(05,66),LENGTH=0,ATTRB=(ASKIP,NORM)
         DFHMDF POS=(06,01),LENGTH=0015,ATTRB=(PROT,ASKIP),            X
               INITIAL='SELECTION DATE:',COLOR=BLUE,HILIGHT=OFF
* 'WK-END-DATE-KEY-DISP-AP20'
ZFLD016  DFHMDF POS=(06,17),LENGTH=0008,ATTRB=(UNPROT),COLOR=DEFAULT,  X
               HILIGHT=UNDERLINE
         DFHMDF POS=(06,26),LENGTH=0,ATTRB=(ASKIP,NORM)

         DFHMDF POS=(06,28),LENGTH=0017,ATTRB=(PROT,ASKIP),            X
               INITIAL='PYMT METHOD TYPE:',COLOR=BLUE,HILIGHT=OFF
* 'PYMT-METHOD-TYP-AP20'
ZFLD116  DFHMDF POS=(06,46),LENGTH=0004,ATTRB=(UNPROT),COLOR=DEFAULT,  X
               HILIGHT=UNDERLINE
         DFHMDF POS=(06,51),LENGTH=0,ATTRB=(ASKIP,NORM)
         DFHMDF POS=(06,52),LENGTH=11,INITIAL='UPDATED BY:',           X
               ATTRB=(ASKIP,NORM),COLOR=BLUE
* 'UPDT-USER-ID-AP20'
ZFLD161  DFHMDF POS=(06,64),LENGTH=8,INITIAL='MTMKLM',                 X
               ATTRB=(ASKIP,NORM),COLOR=TURQUOISE
         DFHMDF POS=(06,73),LENGTH=0,ATTRB=(ASKIP,NORM)
         DFHMDF POS=(08,02),LENGTH=0007,ATTRB=(PROT,ASKIP),            X
               INITIAL='ACTION:',COLOR=BLUE,HILIGHT=OFF
* 'ACTN-CODE-AP20'
ZFLD017  DFHMDF POS=(08,10),LENGTH=0001,ATTRB=(UNPROT),COLOR=DEFAULT,  X
               HILIGHT=UNDERLINE
         DFHMDF POS=(08,12),LENGTH=0,ATTRB=(ASKIP,NORM)
         DFHMDF POS=(09,04),LENGTH=0004,ATTRB=(PROT,ASKIP),            X
               INITIAL='(AC)',COLOR=BLUE,HILIGHT=OFF
         DFHMDF POS=(09,15),LENGTH=0015,ATTRB=(PROT,ASKIP),            X
               INITIAL='ADDRESS LINE 1:',COLOR=BLUE,HILIGHT=OFF
* 'LINE-ADR-6185-R-6139-AP20'
ZFLD018  DFHMDF POS=(09,31),LENGTH=0035,ATTRB=(UNPROT),COLOR=DEFAULT,  X
               HILIGHT=UNDERLINE
         DFHMDF POS=(09,67),LENGTH=0,ATTRB=(ASKIP,NORM)
         DFHMDF POS=(10,23),LENGTH=0007,ATTRB=(PROT,ASKIP),            X
               INITIAL='LINE 2:',COLOR=BLUE,HILIGHT=OFF
* 'LINE-ADR-6185-R-6139-AP20'
ZFLD019  DFHMDF POS=(10,31),LENGTH=0035,ATTRB=(UNPROT),COLOR=DEFAULT,  X
               HILIGHT=UNDERLINE
         DFHMDF POS=(10,67),LENGTH=0,ATTRB=(ASKIP,NORM)
         DFHMDF POS=(11,23),LENGTH=0007,ATTRB=(PROT,ASKIP),            X
               INITIAL='LINE 3:',COLOR=BLUE,HILIGHT=OFF
* 'LINE-ADR-6185-R-6139-AP20'
ZFLD020  DFHMDF POS=(11,31),LENGTH=0035,ATTRB=(UNPROT),COLOR=DEFAULT,  X
               HILIGHT=UNDERLINE
         DFHMDF POS=(11,67),LENGTH=0,ATTRB=(ASKIP,NORM)
         DFHMDF POS=(12,23),LENGTH=0007,ATTRB=(PROT,ASKIP),            X
               INITIAL='LINE 4:',COLOR=BLUE,HILIGHT=OFF
* 'LINE-ADR-6185-R-6139-AP20'
ZFLD021  DFHMDF POS=(12,31),LENGTH=0035,ATTRB=(UNPROT),COLOR=DEFAULT,  X
               HILIGHT=UNDERLINE
         DFHMDF POS=(12,67),LENGTH=0,ATTRB=(ASKIP,NORM)
         DFHMDF POS=(13,25),LENGTH=0005,ATTRB=(PROT,ASKIP),            X
               INITIAL='CITY:',COLOR=BLUE,HILIGHT=OFF
* 'CITY-NAME-6185-R-6139-AP20'
ZFLD022  DFHMDF POS=(13,31),LENGTH=0018,ATTRB=(UNPROT),COLOR=DEFAULT,  X
               HILIGHT=UNDERLINE
         DFHMDF POS=(13,50),LENGTH=0,ATTRB=(ASKIP,NORM)
         DFHMDF POS=(13,51),LENGTH=0006,ATTRB=(PROT,ASKIP),            X
               INITIAL='STATE:',COLOR=BLUE,HILIGHT=OFF
* 'STATE-CODE-6151-AP20'
ZFLD023  DFHMDF POS=(13,58),LENGTH=0002,ATTRB=(UNPROT),COLOR=DEFAULT,  X
               HILIGHT=UNDERLINE
         DFHMDF POS=(13,61),LENGTH=0,ATTRB=(ASKIP,NORM)
         DFHMDF POS=(13,63),LENGTH=0004,ATTRB=(PROT,ASKIP),            X
               INITIAL='ZIP:',COLOR=BLUE,HILIGHT=OFF
* 'ZIP-CODE-6152-AP20'
ZFLD024  DFHMDF POS=(13,68),LENGTH=0010,ATTRB=(UNPROT),COLOR=DEFAULT,  X
               HILIGHT=UNDERLINE
         DFHMDF POS=(13,79),LENGTH=0,ATTRB=(ASKIP,NORM)
         DFHMDF POS=(14,22),LENGTH=0008,ATTRB=(PROT,ASKIP),            X
               INITIAL='COUNTRY:',COLOR=BLUE,HILIGHT=OFF
* 'CNTRY-CODE-6153-AP20'
ZFLD025  DFHMDF POS=(14,31),LENGTH=0002,ATTRB=(UNPROT),COLOR=DEFAULT,  X
               HILIGHT=UNDERLINE
* 'FULL-NAME-6153-AP20'
ZFLD026  DFHMDF POS=(14,34),LENGTH=0024,ATTRB=(UNPROT),COLOR=DEFAULT,  X
               HILIGHT=UNDERLINE
         DFHMDF POS=(14,59),LENGTH=0,ATTRB=(ASKIP,NORM)
         DFHMDF POS=(14,60),LENGTH=0007,ATTRB=(PROT,ASKIP),            X
               INITIAL='POSTAL:',COLOR=BLUE,HILIGHT=OFF
* 'POSTAL-CODE-AP20'
ZFLD26A  DFHMDF POS=(14,68),LENGTH=0010,ATTRB=(UNPROT),COLOR=DEFAULT,  X
               HILIGHT=UNDERLINE
         DFHMDF POS=(14,79),LENGTH=0,ATTRB=(ASKIP,NORM)
         DFHMDF POS=(15,12),LENGTH=0018,ATTRB=(PROT,ASKIP),            X
               INITIAL='CANADIAN PROVINCE:',COLOR=BLUE,HILIGHT=OFF
* 'FOREIGN-PROV-CD-AP20'
ZFLD051  DFHMDF POS=(15,31),LENGTH=0002,ATTRB=(UNPROT),COLOR=DEFAULT,  X
               HILIGHT=UNDERLINE
* 'FOREIGN-PROV-NAME-AP20'
ZFLD052  DFHMDF POS=(15,34),LENGTH=0035,ATTRB=(UNPROT),COLOR=DEFAULT,  X
               HILIGHT=UNDERLINE
         DFHMDF POS=(15,70),LENGTH=0,ATTRB=(ASKIP,NORM)
         DFHMDF POS=(16,24),LENGTH=0006,ATTRB=(PROT,ASKIP),            X
               INITIAL='PHONE:',COLOR=BLUE,HILIGHT=OFF
* 'TLPHN-AREA-CODE-AP20'
ZFLD027  DFHMDF POS=(16,31),LENGTH=0003,ATTRB=(UNPROT),COLOR=DEFAULT,  X
               HILIGHT=UNDERLINE
* 'TLPHN-XCHNG-ID-AP20'
ZFLD028  DFHMDF POS=(16,35),LENGTH=0003,ATTRB=(UNPROT),COLOR=DEFAULT,  X
               HILIGHT=UNDERLINE
* 'TLPHN-SEQ-ID-AP20'
ZFLD029  DFHMDF POS=(16,39),LENGTH=0004,ATTRB=(UNPROT),COLOR=DEFAULT,  X
               HILIGHT=UNDERLINE
* 'TLPHN-XTNSN-ID-AP20'
ZFLD030  DFHMDF POS=(16,44),LENGTH=0004,ATTRB=(UNPROT),COLOR=DEFAULT,  X
               HILIGHT=UNDERLINE
         DFHMDF POS=(16,49),LENGTH=0,ATTRB=(ASKIP,NORM)
         DFHMDF POS=(17,20),LENGTH=0010,ATTRB=(PROT,ASKIP),            X
               INITIAL='FAX PHONE:',COLOR=BLUE,HILIGHT=OFF
* 'FAX-AREA-CODE-AP20'
ZFLD031  DFHMDF POS=(17,31),LENGTH=0003,ATTRB=(UNPROT),COLOR=DEFAULT,  X
               HILIGHT=UNDERLINE
* 'FAX-XCHNG-ID-AP20'
ZFLD032  DFHMDF POS=(17,35),LENGTH=0003,ATTRB=(UNPROT),COLOR=DEFAULT,  X
               HILIGHT=UNDERLINE
* 'FAX-SEQ-ID-AP20'
ZFLD033  DFHMDF POS=(17,39),LENGTH=0004,ATTRB=(UNPROT),COLOR=DEFAULT,  X
               HILIGHT=UNDERLINE
         DFHMDF POS=(17,44),LENGTH=0,ATTRB=(ASKIP,NORM)
         DFHMDF POS=(18,15),LENGTH=0015,ATTRB=(PROT,ASKIP),            X
               INITIAL='E-MAIL ADDRESS:',COLOR=BLUE,HILIGHT=OFF
* 'EMADR-LINE-6185-R-6139-AP20'
ZFLD034  DFHMDF POS=(18,31),LENGTH=0048,ATTRB=(PROT),COLOR=DEFAULT,    X
               HILIGHT=UNDERLINE
         DFHMDF POS=(18,80),LENGTH=0,ATTRB=(ASKIP,NORM)
         DFHMDF POS=(19,22),LENGTH=0008,ATTRB=(PROT,ASKIP),            X
               INITIAL='COMMENT:',COLOR=BLUE,HILIGHT=OFF
* 'COMMENT-LINE-AP20'
ZFLD041  DFHMDF POS=(19,31),LENGTH=0048,ATTRB=(UNPROT),COLOR=DEFAULT,  X
               HILIGHT=UNDERLINE
         DFHMDF POS=(19,80),LENGTH=0,ATTRB=(ASKIP,NORM)
         DFHMDF POS=(20,19),LENGTH=0011,ATTRB=(PROT,ASKIP),            X
               INITIAL='START DATE:',COLOR=BLUE,HILIGHT=OFF
* 'MAP-START-DATE-AP20'
ZFLD035  DFHMDF POS=(20,31),LENGTH=0008,ATTRB=(UNPROT),COLOR=DEFAULT,  X
               HILIGHT=UNDERLINE
         DFHMDF POS=(20,40),LENGTH=0,ATTRB=(ASKIP,NORM)
         DFHMDF POS=(21,19),LENGTH=0011,ATTRB=(PROT,ASKIP),            X
               INITIAL='  END DATE:',COLOR=BLUE,HILIGHT=OFF
* 'MAP-END-DATE-AP20'
ZFLD036  DFHMDF POS=(21,31),LENGTH=0008,ATTRB=(UNPROT),COLOR=DEFAULT,  X
               HILIGHT=OFF
         DFHMDF POS=(21,40),LENGTH=0,ATTRB=(ASKIP,NORM)
* 'DCLINK-MESSAGE'
ZFLD037  DFHMDF POS=(21,80),LENGTH=0160,ATTRB=(PROT,BRT),              X
               COLOR=DEFAULT,HILIGHT=OFF
         DFHMDF POS=(24,01),LENGTH=0012,ATTRB=(PROT,ASKIP,NUM),        X
               INITIAL='NEXT SCREEN:',COLOR=BLUE,HILIGHT=OFF
* 'AGR-PASSED-ONE'
ZFLD038  DFHMDF POS=(24,14),LENGTH=0030,ATTRB=(UNPROT),COLOR=DEFAULT,  X
               HILIGHT=UNDERLINE
         DFHMDF POS=(24,45),LENGTH=0009,ATTRB=(PROT,ASKIP),            X
               INITIAL='RESPONSE:',COLOR=BLUE,HILIGHT=OFF
* 'AGR-MAP-RESPONSE'
ZFLD039  DFHMDF POS=(24,55),LENGTH=0008,ATTRB=(UNPROT),COLOR=DEFAULT,  X
               HILIGHT=UNDERLINE
         DFHMDF POS=(24,64),LENGTH=0,ATTRB=(ASKIP,NORM)
* 'ERROR-TEXT-SY00'
ZFLD040  DFHMDF POS=(24,65),LENGTH=0014,ATTRB=(PROT,DRK),              X
               COLOR=DEFAULT,HILIGHT=OFF
         DFHMSD TYPE=FINAL
         END
