FAPMU29  DFHMSD TYPE=MAP,LANG=COBOL,TERM=3270,MODE=INOUT,              X
               TIOAPFX=YES,MAPATTS=(COLOR,HILIGHT),                    X
               DSATTS=(COLOR,HILIGHT)
FAPMU29  DFHMDI SIZE=(24,80),LINE=1,COLUMN=1,CTRL=FREEKB,TIOAPFX=YES
         DFHMDF POS=(01,01),LENGTH=0007,ATTRB=(PROT,ASKIP),            X
               INITIAL='FAPMU29',COLOR=BLUE,HILIGHT=OFF
* 'TRMNL-ID-SY00'
ZFLD002  DFHMDF POS=(01,10),LENGTH=0008,ATTRB=(PROT),COLOR=BLUE,       X
               HILIGHT=OFF
         DFHMDF POS=(01,19),LENGTH=0,ATTRB=(ASKIP,NORM)
* 'FULL-NAME-6001-SY00'
ZFLD003  DFHMDF POS=(01,23),LENGTH=0035,ATTRB=(PROT),COLOR=BLUE,       X
               HILIGHT=OFF
         DFHMDF POS=(01,59),LENGTH=0,ATTRB=(ASKIP,NORM)
* 'AGR-DATE'
ZFLD004  DFHMDF POS=(01,64),LENGTH=0008,ATTRB=(PROT),COLOR=BLUE,       X
               HILIGHT=OFF
* 'WORK-HH-MM-TIME-SY00'
ZFLD005  DFHMDF POS=(01,73),LENGTH=0005,ATTRB=(PROT),COLOR=BLUE,       X
               HILIGHT=OFF
* 'AM-PM-FLAG-SY00'
ZFLD006  DFHMDF POS=(01,79),LENGTH=0001,ATTRB=(PROT),COLOR=BLUE,       X
               HILIGHT=OFF
* 'AGR-USER-ID'
ZFLD007  DFHMDF POS=(02,01),LENGTH=0008,ATTRB=(PROT),COLOR=BLUE,       X
               HILIGHT=OFF
         DFHMDF POS=(02,10),LENGTH=0,ATTRB=(ASKIP,NORM)
* 'CURR-RSPNS-ID-SY00'
ZFLD008  DFHMDF POS=(02,21),LENGTH=0008,ATTRB=(PROT,BRT),              X
               COLOR=DEFAULT,HILIGHT=OFF
         DFHMDF POS=(02,30),LENGTH=0001,ATTRB=(PROT,ASKIP,BRT),        X
               INITIAL=':',COLOR=DEFAULT,HILIGHT=OFF
* 'AGR-FUNC-DESCRIPTION'
ZFLD009  DFHMDF POS=(02,32),LENGTH=0028,ATTRB=(PROT,BRT),              X
               COLOR=DEFAULT,HILIGHT=OFF
         DFHMDF POS=(02,61),LENGTH=0,ATTRB=(ASKIP,NORM)
* 'PAGE-STATUS-CODE-SY00'
ZFLD010  DFHMDF POS=(02,64),LENGTH=0010,ATTRB=(PROT,BRT),              X
               COLOR=DEFAULT,HILIGHT=OFF
         DFHMDF POS=(02,75),LENGTH=0,ATTRB=(ASKIP,NORM)
* 'DCSD-TEXT-SY01'
ZFLD011  DFHMDF POS=(03,52),LENGTH=0008,ATTRB=(PROT,DRK),              X
               COLOR=DEFAULT,HILIGHT=OFF
         DFHMDF POS=(03,61),LENGTH=0,ATTRB=(ASKIP,NORM)
* 'CNFDL-TEXT-SY01'
ZFLD012  DFHMDF POS=(03,62),LENGTH=0011,ATTRB=(PROT,DRK),              X
               COLOR=DEFAULT,HILIGHT=OFF
         DFHMDF POS=(03,74),LENGTH=0,ATTRB=(ASKIP,NORM)
* 'HOLDS-TEXT-SY01'
ZFLD013  DFHMDF POS=(03,75),LENGTH=0005,ATTRB=(PROT,DRK),              X
               COLOR=DEFAULT,HILIGHT=OFF
         DFHMDF POS=(04,01),LENGTH=0,ATTRB=(ASKIP,NORM)
         DFHMDF POS=(06,01),LENGTH=0010,ATTRB=(PROT,ASKIP),            X
               INITIAL='ACT (ACD):',COLOR=BLUE,HILIGHT=OFF
* 'ACTN-CODE-AP29'
ZFLD014  DFHMDF POS=(06,12),LENGTH=0001,ATTRB=(UNPROT),COLOR=DEFAULT,  X
               HILIGHT=OFF
         DFHMDF POS=(06,14),LENGTH=0,ATTRB=(ASKIP,NORM)
         DFHMDF POS=(08,18),LENGTH=0007,ATTRB=(PROT,ASKIP),            X
               INITIAL='ORIGIN:',COLOR=BLUE,HILIGHT=OFF
* 'ORGN-CODE-4162-AP29'
ZFLD015  DFHMDF POS=(08,26),LENGTH=0004,ATTRB=(UNPROT),COLOR=DEFAULT,  X
               HILIGHT=UNDERLINE
         DFHMDF POS=(08,31),LENGTH=0,ATTRB=(ASKIP,NORM)
* 'ORGN-CODE-DESC-L-4012-AP29'
ZFLD016  DFHMDF POS=(08,33),LENGTH=0030,ATTRB=(PROT,ASKIP),            X
               COLOR=TURQUOISE,HILIGHT=OFF
         DFHMDF POS=(08,64),LENGTH=0,ATTRB=(ASKIP,NORM)
         DFHMDF POS=(10,20),LENGTH=0005,ATTRB=(PROT,ASKIP),            X
               INITIAL='BANK:',COLOR=BLUE,HILIGHT=OFF
* 'BANK-ACCT-CODE-4162-AP29'
ZFLD017  DFHMDF POS=(10,26),LENGTH=0002,ATTRB=(UNPROT),COLOR=DEFAULT,  X
               HILIGHT=UNDERLINE
         DFHMDF POS=(10,29),LENGTH=0,ATTRB=(ASKIP,NORM)
* 'BANK-CODE-DESC-4062-AP29'
ZFLD018  DFHMDF POS=(10,33),LENGTH=0035,ATTRB=(PROT,ASKIP),            X
               COLOR=TURQUOISE,HILIGHT=OFF
         DFHMDF POS=(10,69),LENGTH=0,ATTRB=(ASKIP,NORM)
         DFHMDF POS=(12,14),LENGTH=0011,ATTRB=(PROT,ASKIP),            X
               INITIAL='SEQ NUMBER:',COLOR=BLUE,HILIGHT=OFF
* 'SEQ-NMBR-4162-AP29'
ZFLD019  DFHMDF POS=(12,26),LENGTH=0004,ATTRB=(UNPROT),COLOR=DEFAULT,  X
               HILIGHT=UNDERLINE
         DFHMDF POS=(12,31),LENGTH=0,ATTRB=(ASKIP,NORM)
         DFHMDF POS=(15,10),LENGTH=0015,ATTRB=(PROT,ASKIP),            X
               INITIAL='CHECK RUN DATE:',COLOR=BLUE,HILIGHT=OFF
* 'CHECK-RUN-DATE-4162-AP29'
ZFLD020  DFHMDF POS=(15,26),LENGTH=0008,ATTRB=(UNPROT),COLOR=DEFAULT,  X
               HILIGHT=UNDERLINE
         DFHMDF POS=(15,35),LENGTH=0,ATTRB=(ASKIP,NORM)
         DFHMDF POS=(17,06),LENGTH=0019,ATTRB=(PROT,ASKIP),            X
               INITIAL='START CHECK NUMBER:',COLOR=BLUE,HILIGHT=OFF
* 'START-CHECK-NMBR-4162-AP29'
ZFLD021  DFHMDF POS=(17,26),LENGTH=0008,ATTRB=(UNPROT),COLOR=DEFAULT,  X
               HILIGHT=UNDERLINE
         DFHMDF POS=(17,35),LENGTH=0,ATTRB=(ASKIP,NORM)
         DFHMDF POS=(19,06),LENGTH=0019,ATTRB=(PROT,ASKIP),            X
               INITIAL='  END CHECK NUMBER:',COLOR=BLUE,HILIGHT=OFF
* 'END-CHECK-NMBR-AP29'
ZFLD022  DFHMDF POS=(19,26),LENGTH=0008,ATTRB=(PROT),COLOR=TURQUOISE,  X
               HILIGHT=OFF
         DFHMDF POS=(19,35),LENGTH=0,ATTRB=(ASKIP,NORM)
* 'DCLINK-MESSAGE'
ZFLD023  DFHMDF POS=(21,80),LENGTH=0160,ATTRB=(PROT,BRT),              X
               COLOR=DEFAULT,HILIGHT=OFF
         DFHMDF POS=(24,01),LENGTH=0012,ATTRB=(PROT,ASKIP,NUM),        X
               INITIAL='NEXT SCREEN:',COLOR=BLUE,HILIGHT=OFF
* 'AGR-PASSED-ONE'
ZFLD024  DFHMDF POS=(24,14),LENGTH=0030,ATTRB=(UNPROT,IC),             X
               COLOR=DEFAULT,HILIGHT=UNDERLINE
         DFHMDF POS=(24,45),LENGTH=0009,ATTRB=(PROT,ASKIP),            X
               INITIAL='RESPONSE:',COLOR=BLUE,HILIGHT=OFF
* 'AGR-MAP-RESPONSE'
ZFLD025  DFHMDF POS=(24,55),LENGTH=0008,ATTRB=(UNPROT),COLOR=DEFAULT,  X
               HILIGHT=UNDERLINE
         DFHMDF POS=(24,64),LENGTH=0,ATTRB=(ASKIP,NORM)
* 'ERROR-TEXT-SY00'
ZFLD026  DFHMDF POS=(24,65),LENGTH=0014,ATTRB=(PROT,DRK),              X
               COLOR=DEFAULT,HILIGHT=OFF
         DFHMSD TYPE=FINAL
         END
