FAPMU30  DFHMSD TYPE=MAP,LANG=COBOL,TERM=3270,MODE=INOUT,              X
               TIOAPFX=YES,MAPATTS=(COLOR,HILIGHT),                    X
               DSATTS=(COLOR,HILIGHT)
FAPMU30  DFHMDI SIZE=(24,80),LINE=1,COLUMN=1,CTRL=FREEKB,TIOAPFX=YES
         DFHMDF POS=(01,01),LENGTH=0007,ATTRB=(PROT,ASKIP),            X
               INITIAL='FAPMU30',COLOR=BLUE,HILIGHT=OFF
* 'TRMNL-ID-SY00'
ZFLD002  DFHMDF POS=(01,10),LENGTH=0008,ATTRB=(PROT),COLOR=BLUE,       X
               HILIGHT=OFF
         DFHMDF POS=(01,19),LENGTH=0,ATTRB=(ASKIP,NORM)
* 'FULL-NAME-6001-SY00'
ZFLD003  DFHMDF POS=(01,23),LENGTH=0035,ATTRB=(PROT),COLOR=BLUE,       X
               HILIGHT=OFF
         DFHMDF POS=(01,59),LENGTH=0,ATTRB=(ASKIP,NORM)
* 'AGR-DATE'
ZFLD004  DFHMDF POS=(01,64),LENGTH=0008,ATTRB=(PROT),COLOR=BLUE,       X
               HILIGHT=OFF
* 'WORK-HH-MM-TIME-SY00'
ZFLD005  DFHMDF POS=(01,73),LENGTH=0005,ATTRB=(PROT),COLOR=BLUE,       X
               HILIGHT=OFF
* 'AM-PM-FLAG-SY00'
ZFLD006  DFHMDF POS=(01,79),LENGTH=0001,ATTRB=(PROT),COLOR=BLUE,       X
               HILIGHT=OFF
* 'AGR-USER-ID'
ZFLD007  DFHMDF POS=(02,01),LENGTH=0008,ATTRB=(PROT),COLOR=BLUE,       X
               HILIGHT=OFF
         DFHMDF POS=(02,10),LENGTH=0,ATTRB=(ASKIP,NORM)
* 'CURR-RSPNS-ID-SY00'
ZFLD008  DFHMDF POS=(02,21),LENGTH=0008,ATTRB=(PROT,BRT),              X
               COLOR=DEFAULT,HILIGHT=OFF
         DFHMDF POS=(02,30),LENGTH=0001,ATTRB=(PROT,ASKIP,BRT),        X
               INITIAL=':',COLOR=DEFAULT,HILIGHT=OFF
* 'AGR-FUNC-DESCRIPTION'
ZFLD009  DFHMDF POS=(02,32),LENGTH=0028,ATTRB=(PROT,BRT),              X
               COLOR=DEFAULT,HILIGHT=OFF
         DFHMDF POS=(02,61),LENGTH=0,ATTRB=(ASKIP,NORM)
* 'PAGE-STATUS-CODE-SY00'
ZFLD010  DFHMDF POS=(02,64),LENGTH=0010,ATTRB=(PROT,BRT),              X
               COLOR=DEFAULT,HILIGHT=OFF
         DFHMDF POS=(02,75),LENGTH=0,ATTRB=(ASKIP,NORM)
* 'DCSD-TEXT-SY01'
ZFLD011  DFHMDF POS=(03,52),LENGTH=0008,ATTRB=(PROT,DRK),              X
               COLOR=DEFAULT,HILIGHT=OFF
         DFHMDF POS=(03,61),LENGTH=0,ATTRB=(ASKIP,NORM)
* 'CNFDL-TEXT-SY01'
ZFLD012  DFHMDF POS=(03,62),LENGTH=0011,ATTRB=(PROT,DRK),              X
               COLOR=DEFAULT,HILIGHT=OFF
         DFHMDF POS=(03,74),LENGTH=0,ATTRB=(ASKIP,NORM)
* 'HOLDS-TEXT-SY01'
ZFLD013  DFHMDF POS=(03,75),LENGTH=0005,ATTRB=(PROT,DRK),              X
               COLOR=DEFAULT,HILIGHT=OFF
         DFHMDF POS=(04,01),LENGTH=0,ATTRB=(ASKIP,NORM)
         DFHMDF POS=(05,01),LENGTH=0007,ATTRB=(PROT,ASKIP),            X
               INITIAL='ACT(C):',COLOR=BLUE,HILIGHT=OFF
* 'ACTN-CODE-AP30'
ZFLD014  DFHMDF POS=(05,09),LENGTH=0001,ATTRB=(UNPROT,IC),             X
               COLOR=DEFAULT,HILIGHT=OFF
         DFHMDF POS=(05,11),LENGTH=0,ATTRB=(ASKIP,NORM)
         DFHMDF POS=(05,14),LENGTH=0008,ATTRB=(PROT,ASKIP),            X
               INITIAL='CHECK #:',COLOR=BLUE,HILIGHT=OFF
* 'CHECK-NMBR-4158-AP30'
ZFLD015  DFHMDF POS=(05,23),LENGTH=0008,ATTRB=(UNPROT),COLOR=DEFAULT,  X
               HILIGHT=UNDERLINE
         DFHMDF POS=(05,32),LENGTH=0,ATTRB=(ASKIP,NORM)
         DFHMDF POS=(05,34),LENGTH=0005,ATTRB=(PROT,ASKIP),            X
               INITIAL='BANK:',COLOR=BLUE,HILIGHT=OFF
* 'BANK-ACCT-CODE-4158-AP30'
ZFLD016  DFHMDF POS=(05,40),LENGTH=0002,ATTRB=(UNPROT),COLOR=DEFAULT,  X
               HILIGHT=UNDERLINE
         DFHMDF POS=(05,43),LENGTH=0,ATTRB=(ASKIP,NORM)
* 'BANK-CODE-DESC-4062-AP30'
ZFLD017  DFHMDF POS=(05,45),LENGTH=0035,ATTRB=(PROT,ASKIP),            X
               COLOR=TURQUOISE,HILIGHT=OFF
         DFHMDF POS=(06,01),LENGTH=0007,ATTRB=(PROT,ASKIP),            X
               INITIAL='CANCEL:',COLOR=BLUE,HILIGHT=OFF
* 'CNCL-IND-AP30'
ZFLD018  DFHMDF POS=(06,09),LENGTH=0001,ATTRB=(UNPROT),COLOR=DEFAULT,  X
               HILIGHT=UNDERLINE
         DFHMDF POS=(06,11),LENGTH=0,ATTRB=(ASKIP,NORM)
         DFHMDF POS=(06,14),LENGTH=0010,ATTRB=(PROT,ASKIP),            X
               INITIAL='STOP PAID:',COLOR=BLUE,HILIGHT=OFF
* 'STOP-PAID-IND-AP30'
ZFLD019  DFHMDF POS=(06,25),LENGTH=0001,ATTRB=(UNPROT),COLOR=DEFAULT,  X
               HILIGHT=UNDERLINE
         DFHMDF POS=(06,27),LENGTH=0,ATTRB=(ASKIP,NORM)
         DFHMDF POS=(06,30),LENGTH=0007,ATTRB=(PROT,ASKIP),            X
               INITIAL='ORIGIN:',COLOR=BLUE,HILIGHT=OFF
* 'ORGN-CODE-4157-AP30'
ZFLD020  DFHMDF POS=(06,38),LENGTH=0004,ATTRB=(PROT),COLOR=TURQUOISE,  X
               HILIGHT=OFF
         DFHMDF POS=(06,43),LENGTH=0,ATTRB=(ASKIP,NORM)
* 'ORGN-CODE-DESC-L-4012-AP30'
ZFLD021  DFHMDF POS=(06,45),LENGTH=0035,ATTRB=(PROT,ASKIP),            X
               COLOR=TURQUOISE,HILIGHT=OFF
         DFHMDF POS=(7,1),LENGTH=7,INITIAL='UNCLAIM',ATTRB=(ASKIP,NORM)*00000960
               ,COLOR=BLUE                                              00000970
         DFHMDF POS=(7,9),LENGTH=6,INITIAL='CHECK:',ATTRB=(ASKIP,NORM),*00000980
               COLOR=BLUE                                               00000990
* 'UNCLAIM-ACNT-CODE-AP30'                                              00001000
ZFLD102  DFHMDF POS=(7,16),LENGTH=1,ATTRB=(UNPROT,NORM),               *00001010
               HILIGHT=UNDERLINE                                        00001020
         DFHMDF POS=(7,18),LENGTH=1,ATTRB=(ASKIP,NORM)                  00001030
         DFHMDF POS=(7,28),LENGTH=9,INITIAL='1099 IND:'                X00000550
               ATTRB=(ASKIP,NORM),COLOR=BLUE,HILIGHT=OFF                00000550
* 1099-IND-AP30                                                         00000570
ZFL592I  DFHMDF POS=(7,38),LENGTH=1,JUSTIFY=(LEFT,BLANK),INITIAL='N',  X00001330
               ATTRB=(PROT,ASKIP),COLOR=TURQUOISE,HILIGHT=OFF           00001340
         DFHMDF POS=(7,40),LENGTH=0,ATTRB=(ASKIP,NORM)
         DFHMDF POS=(7,42),LENGTH=8,INITIAL='592 IND:',                X00000550
               ATTRB=(ASKIP,NORM),COLOR=BLUE,HILIGHT=OFF                00000550
* 592-IND-AP30                                                          00000570
ZFL592S  DFHMDF POS=(7,51),LENGTH=1,JUSTIFY=(LEFT,BLANK),INITIAL='N',  X00001330
               ATTRB=(PROT,ASKIP),COLOR=TURQUOISE,HILIGHT=OFF           00001340
         DFHMDF POS=(7,53),LENGTH=0,ATTRB=(ASKIP,NORM)
         DFHMDF POS=(08,01),LENGTH=0013,ATTRB=(PROT,ASKIP),            X
               INITIAL='CHECK DATE  :',COLOR=BLUE,HILIGHT=OFF
* 'CHECK-DATE-4158-AP30'
ZFLD022  DFHMDF POS=(08,15),LENGTH=0008,ATTRB=(PROT,ASKIP),            X
               COLOR=TURQUOISE,HILIGHT=OFF
         DFHMDF POS=(08,24),LENGTH=0,ATTRB=(ASKIP,NORM)
         DFHMDF POS=(08,26),LENGTH=0006,ATTRB=(PROT,ASKIP),            X
               INITIAL='PAYEE:',COLOR=BLUE,HILIGHT=OFF
* 'RQSTR-ID-4157-AP30'
ZFLD023  DFHMDF POS=(08,33),LENGTH=0010,ATTRB=(PROT,ASKIP),            X
               COLOR=TURQUOISE,HILIGHT=OFF
         DFHMDF POS=(08,44),LENGTH=0,ATTRB=(ASKIP,NORM)
* 'RQSTR-NAME-6117-6311-AP30'
ZFLD024  DFHMDF POS=(08,45),LENGTH=0035,ATTRB=(PROT,ASKIP),            X
               COLOR=TURQUOISE,HILIGHT=OFF
         DFHMDF POS=(09,01),LENGTH=0013,ATTRB=(PROT,ASKIP),            X
               INITIAL='CHECK REGSTR:',COLOR=BLUE,HILIGHT=OFF
* 'CHECK-RUN-DATE-4158-AP30'
ZFLD025  DFHMDF POS=(09,15),LENGTH=0008,ATTRB=(PROT,ASKIP),            X
               COLOR=TURQUOISE,HILIGHT=OFF
         DFHMDF POS=(09,24),LENGTH=0,ATTRB=(ASKIP,NORM)
* 'RQSTR-ADDR-6139-6185-AP30'
ZFLD026  DFHMDF POS=(09,45),LENGTH=0035,ATTRB=(PROT,ASKIP),            X
               COLOR=TURQUOISE,HILIGHT=OFF
         DFHMDF POS=(10,01),LENGTH=0013,ATTRB=(PROT,ASKIP),            X
               INITIAL='CHECK STATUS:',COLOR=BLUE,HILIGHT=OFF
* 'CHECK-STATUS-AP30'
ZFLD027  DFHMDF POS=(10,15),LENGTH=0010,ATTRB=(PROT,ASKIP),            X
               COLOR=TURQUOISE,HILIGHT=OFF
* 'CNCL-DATE-AP30'
ZFLD028  DFHMDF POS=(10,26),LENGTH=0008,ATTRB=(PROT,ASKIP),            X
               COLOR=TURQUOISE,HILIGHT=OFF
* 'CHECK-TYPE-CODE-4158-AP30'
ZFLD029  DFHMDF POS=(10,35),LENGTH=0006,ATTRB=(PROT),COLOR=TURQUOISE,  X
               HILIGHT=OFF
* 'CHK-CNCL-CODE-AP30'
ZFLD030  DFHMDF POS=(10,42),LENGTH=0001,ATTRB=(PROT),COLOR=TURQUOISE,  X
               HILIGHT=OFF
         DFHMDF POS=(10,44),LENGTH=0,ATTRB=(ASKIP,NORM)
* 'RQSTR-ADDR-6139-6185-AP30'
ZFLD031  DFHMDF POS=(10,45),LENGTH=0035,ATTRB=(PROT,ASKIP),            X
               COLOR=TURQUOISE,HILIGHT=OFF
         DFHMDF POS=(11,01),LENGTH=0013,ATTRB=(PROT,ASKIP),            X
               INITIAL='CHECK AMOUNT:',COLOR=BLUE,HILIGHT=OFF
* 'CHECK-AMT-4158-AP30'
ZFLD032  DFHMDF POS=(11,15),LENGTH=0017,ATTRB=(PROT,ASKIP),            X
               COLOR=TURQUOISE,HILIGHT=OFF
         DFHMDF POS=(11,33),LENGTH=0,ATTRB=(ASKIP,NORM)
* 'RQSTR-ADDR-6139-6185-AP30'
ZFLD033  DFHMDF POS=(11,45),LENGTH=0035,ATTRB=(PROT,ASKIP),            X
               COLOR=TURQUOISE,HILIGHT=OFF
* 'RCNCLTN-IND-AP30'
ZFLD034  DFHMDF POS=(12,01),LENGTH=0020,ATTRB=(PROT),COLOR=TURQUOISE,  X
               HILIGHT=OFF
         DFHMDF POS=(12,22),LENGTH=0,ATTRB=(ASKIP,NORM)
* 'RCNCLTN-DATE-AP30'
ZFLD035  DFHMDF POS=(12,26),LENGTH=0008,ATTRB=(PROT,ASKIP),            X
               COLOR=TURQUOISE,HILIGHT=OFF
         DFHMDF POS=(12,35),LENGTH=0,ATTRB=(ASKIP,NORM)
* 'CITY-NAME-6139-6185-AP30'
ZFLD036  DFHMDF POS=(12,45),LENGTH=0018,ATTRB=(PROT,ASKIP),            X
               COLOR=TURQUOISE,HILIGHT=OFF
         DFHMDF POS=(12,64),LENGTH=0,ATTRB=(ASKIP,NORM)
* 'STATE-CODE-6151-AP30'
ZFLD037  DFHMDF POS=(12,65),LENGTH=0002,ATTRB=(PROT,ASKIP),            X
               COLOR=TURQUOISE,HILIGHT=OFF
         DFHMDF POS=(12,68),LENGTH=0,ATTRB=(ASKIP,NORM)
* 'ZIP-CODE-6152-AP30'
ZFLD038  DFHMDF POS=(12,69),LENGTH=0010,ATTRB=(PROT,ASKIP),            X
               COLOR=TURQUOISE,HILIGHT=OFF
         DFHMDF POS=(12,80),LENGTH=0,ATTRB=(ASKIP,NORM)
         DFHMDF POS=(13,01),LENGTH=0013,ATTRB=(PROT,ASKIP),            X
               INITIAL='DISCREPANCY :',COLOR=BLUE,HILIGHT=OFF
* 'DISCREPANCY-IND-AP30'
ZFLD039  DFHMDF POS=(13,15),LENGTH=0001,ATTRB=(UNPROT),COLOR=DEFAULT,  X
               HILIGHT=UNDERLINE
         DFHMDF POS=(13,17),LENGTH=0,ATTRB=(ASKIP,NORM)
* 'RQSTR-ADDR-6139-6185-AP30'
ZFLD040  DFHMDF POS=(13,45),LENGTH=0035,ATTRB=(PROT,ASKIP),            X
               COLOR=TURQUOISE,HILIGHT=OFF
         DFHMDF POS=(14,01),LENGTH=0013,ATTRB=(PROT,ASKIP),            X
               INITIAL='TEXT        :',COLOR=BLUE,HILIGHT=OFF
* 'TEXT-FLAG-AP30'
ZFLD041  DFHMDF POS=(14,15),LENGTH=0001,ATTRB=(PROT),COLOR=TURQUOISE,  X
               HILIGHT=OFF
         DFHMDF POS=(14,17),LENGTH=0,ATTRB=(ASKIP,NORM)
         DFHMDF POS=(14,20),LENGTH=0013,ATTRB=(PROT,ASKIP),            X
               INITIAL='REPORTED THRU',COLOR=BLUE,HILIGHT=OFF
* 'BANK-END-DATE-AP30'
ZFLD042  DFHMDF POS=(14,34),LENGTH=0008,ATTRB=(PROT,ASKIP),            X
               COLOR=TURQUOISE,HILIGHT=OFF
         DFHMDF POS=(14,43),LENGTH=0,ATTRB=(ASKIP,NORM)
         DFHMDF POS=(15,01),LENGTH=0078,ATTRB=(PROT,ASKIP),            X
               INITIAL='   DOCUMENT ITEM  SEQ COA FUND   ORGZ   ACCT   X
               PRGM   USE TAX AMT  A M O U N T',COLOR=BLUE,            X
               HILIGHT=OFF
* 'SEL-IND-AP30'
ZFLD043  DFHMDF POS=(16,01),LENGTH=0001,ATTRB=(UNPROT),COLOR=DEFAULT,  X
               HILIGHT=OFF
         DFHMDF POS=(16,03),LENGTH=0,ATTRB=(ASKIP,NORM)
* 'DCMNT-NMBR-AP30'
ZFLD044  DFHMDF POS=(16,04),LENGTH=0008,ATTRB=(PROT,ASKIP),            X
               COLOR=TURQUOISE,HILIGHT=OFF
* 'ITEM-NMBR-AP30'
ZFLD045  DFHMDF POS=(16,13),LENGTH=0004,ATTRB=(PROT,ASKIP),            X
               COLOR=TURQUOISE,HILIGHT=OFF
* 'SEQ-NMBR-AP30'
ZFLD046  DFHMDF POS=(16,18),LENGTH=0004,ATTRB=(PROT,ASKIP),            X
               COLOR=TURQUOISE,HILIGHT=OFF
         DFHMDF POS=(16,23),LENGTH=0,ATTRB=(ASKIP,NORM)
* 'COA-CODE-AP30'
ZFLD047  DFHMDF POS=(16,24),LENGTH=0001,ATTRB=(PROT,ASKIP),            X
               COLOR=TURQUOISE,HILIGHT=OFF
* 'FUND-CODE-AP30'
ZFLD048  DFHMDF POS=(16,26),LENGTH=0006,ATTRB=(PROT,ASKIP),            X
               COLOR=TURQUOISE,HILIGHT=OFF
* 'ORGZN-CODE-AP30'
ZFLD049  DFHMDF POS=(16,33),LENGTH=0006,ATTRB=(PROT,ASKIP),            X
               COLOR=TURQUOISE,HILIGHT=OFF
* 'ACCT-CODE-AP30'
ZFLD050  DFHMDF POS=(16,40),LENGTH=0006,ATTRB=(PROT,ASKIP),            X
               COLOR=TURQUOISE,HILIGHT=OFF
* 'PRGRM-CODE-AP30'
ZFLD051  DFHMDF POS=(16,47),LENGTH=0006,ATTRB=(PROT,ASKIP),            X
               COLOR=TURQUOISE,HILIGHT=OFF
         DFHMDF POS=(16,54),LENGTH=0,ATTRB=(ASKIP,NORM)
* 'TAX-AMT-AP30'
ZFLD052  DFHMDF POS=(16,55),LENGTH=0012,ATTRB=(PROT,ASKIP),            X
               COLOR=TURQUOISE,HILIGHT=OFF
* 'CHK-PAID-AMT-AP30'
ZFLD053  DFHMDF POS=(16,68),LENGTH=0012,ATTRB=(PROT,ASKIP),            X
               COLOR=TURQUOISE,HILIGHT=OFF
* 'SEL-IND-AP30'
ZFLD054  DFHMDF POS=(17,01),LENGTH=0001,ATTRB=(UNPROT),COLOR=DEFAULT,  X
               HILIGHT=OFF
         DFHMDF POS=(17,03),LENGTH=0,ATTRB=(ASKIP,NORM)
* 'DCMNT-NMBR-AP30'
ZFLD055  DFHMDF POS=(17,04),LENGTH=0008,ATTRB=(PROT,ASKIP),            X
               COLOR=TURQUOISE,HILIGHT=OFF
* 'ITEM-NMBR-AP30'
ZFLD056  DFHMDF POS=(17,13),LENGTH=0004,ATTRB=(PROT,ASKIP),            X
               COLOR=TURQUOISE,HILIGHT=OFF
* 'SEQ-NMBR-AP30'
ZFLD057  DFHMDF POS=(17,18),LENGTH=0004,ATTRB=(PROT,ASKIP),            X
               COLOR=TURQUOISE,HILIGHT=OFF
         DFHMDF POS=(17,23),LENGTH=0,ATTRB=(ASKIP,NORM)
* 'COA-CODE-AP30'
ZFLD058  DFHMDF POS=(17,24),LENGTH=0001,ATTRB=(PROT,ASKIP),            X
               COLOR=TURQUOISE,HILIGHT=OFF
* 'FUND-CODE-AP30'
ZFLD059  DFHMDF POS=(17,26),LENGTH=0006,ATTRB=(PROT,ASKIP),            X
               COLOR=TURQUOISE,HILIGHT=OFF
* 'ORGZN-CODE-AP30'
ZFLD060  DFHMDF POS=(17,33),LENGTH=0006,ATTRB=(PROT,ASKIP),            X
               COLOR=TURQUOISE,HILIGHT=OFF
* 'ACCT-CODE-AP30'
ZFLD061  DFHMDF POS=(17,40),LENGTH=0006,ATTRB=(PROT,ASKIP),            X
               COLOR=TURQUOISE,HILIGHT=OFF
* 'PRGRM-CODE-AP30'
ZFLD062  DFHMDF POS=(17,47),LENGTH=0006,ATTRB=(PROT,ASKIP),            X
               COLOR=TURQUOISE,HILIGHT=OFF
         DFHMDF POS=(17,54),LENGTH=0,ATTRB=(ASKIP,NORM)
* 'TAX-AMT-AP30'
ZFLD063  DFHMDF POS=(17,55),LENGTH=0012,ATTRB=(PROT,ASKIP),            X
               COLOR=TURQUOISE,HILIGHT=OFF
* 'CHK-PAID-AMT-AP30'
ZFLD064  DFHMDF POS=(17,68),LENGTH=0012,ATTRB=(PROT,ASKIP),            X
               COLOR=TURQUOISE,HILIGHT=OFF
* 'SEL-IND-AP30'
ZFLD065  DFHMDF POS=(18,01),LENGTH=0001,ATTRB=(UNPROT),COLOR=DEFAULT,  X
               HILIGHT=OFF
         DFHMDF POS=(18,03),LENGTH=0,ATTRB=(ASKIP,NORM)
* 'DCMNT-NMBR-AP30'
ZFLD066  DFHMDF POS=(18,04),LENGTH=0008,ATTRB=(PROT,ASKIP),            X
               COLOR=TURQUOISE,HILIGHT=OFF
* 'ITEM-NMBR-AP30'
ZFLD067  DFHMDF POS=(18,13),LENGTH=0004,ATTRB=(PROT,ASKIP),            X
               COLOR=TURQUOISE,HILIGHT=OFF
* 'SEQ-NMBR-AP30'
ZFLD068  DFHMDF POS=(18,18),LENGTH=0004,ATTRB=(PROT,ASKIP),            X
               COLOR=TURQUOISE,HILIGHT=OFF
         DFHMDF POS=(18,23),LENGTH=0,ATTRB=(ASKIP,NORM)
* 'COA-CODE-AP30'
ZFLD069  DFHMDF POS=(18,24),LENGTH=0001,ATTRB=(PROT,ASKIP),            X
               COLOR=TURQUOISE,HILIGHT=OFF
* 'FUND-CODE-AP30'
ZFLD070  DFHMDF POS=(18,26),LENGTH=0006,ATTRB=(PROT,ASKIP),            X
               COLOR=TURQUOISE,HILIGHT=OFF
* 'ORGZN-CODE-AP30'
ZFLD071  DFHMDF POS=(18,33),LENGTH=0006,ATTRB=(PROT,ASKIP),            X
               COLOR=TURQUOISE,HILIGHT=OFF
* 'ACCT-CODE-AP30'
ZFLD072  DFHMDF POS=(18,40),LENGTH=0006,ATTRB=(PROT,ASKIP),            X
               COLOR=TURQUOISE,HILIGHT=OFF
* 'PRGRM-CODE-AP30'
ZFLD073  DFHMDF POS=(18,47),LENGTH=0006,ATTRB=(PROT,ASKIP),            X
               COLOR=TURQUOISE,HILIGHT=OFF
         DFHMDF POS=(18,54),LENGTH=0,ATTRB=(ASKIP,NORM)
* 'TAX-AMT-AP30'
ZFLD074  DFHMDF POS=(18,55),LENGTH=0012,ATTRB=(PROT,ASKIP),            X
               COLOR=TURQUOISE,HILIGHT=OFF
* 'CHK-PAID-AMT-AP30'
ZFLD075  DFHMDF POS=(18,68),LENGTH=0012,ATTRB=(PROT,ASKIP),            X
               COLOR=TURQUOISE,HILIGHT=OFF
* 'SEL-IND-AP30'
ZFLD076  DFHMDF POS=(19,01),LENGTH=0001,ATTRB=(UNPROT),COLOR=DEFAULT,  X
               HILIGHT=OFF
         DFHMDF POS=(19,03),LENGTH=0,ATTRB=(ASKIP,NORM)
* 'DCMNT-NMBR-AP30'
ZFLD077  DFHMDF POS=(19,04),LENGTH=0008,ATTRB=(PROT,ASKIP),            X
               COLOR=TURQUOISE,HILIGHT=OFF
* 'ITEM-NMBR-AP30'
ZFLD078  DFHMDF POS=(19,13),LENGTH=0004,ATTRB=(PROT,ASKIP),            X
               COLOR=TURQUOISE,HILIGHT=OFF
* 'SEQ-NMBR-AP30'
ZFLD079  DFHMDF POS=(19,18),LENGTH=0004,ATTRB=(PROT,ASKIP),            X
               COLOR=TURQUOISE,HILIGHT=OFF
         DFHMDF POS=(19,23),LENGTH=0,ATTRB=(ASKIP,NORM)
* 'COA-CODE-AP30'
ZFLD080  DFHMDF POS=(19,24),LENGTH=0001,ATTRB=(PROT,ASKIP),            X
               COLOR=TURQUOISE,HILIGHT=OFF
* 'FUND-CODE-AP30'
ZFLD081  DFHMDF POS=(19,26),LENGTH=0006,ATTRB=(PROT,ASKIP),            X
               COLOR=TURQUOISE,HILIGHT=OFF
* 'ORGZN-CODE-AP30'
ZFLD082  DFHMDF POS=(19,33),LENGTH=0006,ATTRB=(PROT,ASKIP),            X
               COLOR=TURQUOISE,HILIGHT=OFF
* 'ACCT-CODE-AP30'
ZFLD083  DFHMDF POS=(19,40),LENGTH=0006,ATTRB=(PROT,ASKIP),            X
               COLOR=TURQUOISE,HILIGHT=OFF
* 'PRGRM-CODE-AP30'
ZFLD084  DFHMDF POS=(19,47),LENGTH=0006,ATTRB=(PROT,ASKIP),            X
               COLOR=TURQUOISE,HILIGHT=OFF
         DFHMDF POS=(19,54),LENGTH=0,ATTRB=(ASKIP,NORM)
* 'TAX-AMT-AP30'
ZFLD085  DFHMDF POS=(19,55),LENGTH=0012,ATTRB=(PROT,ASKIP),            X
               COLOR=TURQUOISE,HILIGHT=OFF
* 'CHK-PAID-AMT-AP30'
ZFLD086  DFHMDF POS=(19,68),LENGTH=0012,ATTRB=(PROT,ASKIP),            X
               COLOR=TURQUOISE,HILIGHT=OFF
* 'SEL-IND-AP30'
ZFLD087  DFHMDF POS=(20,01),LENGTH=0001,ATTRB=(UNPROT),COLOR=DEFAULT,  X
               HILIGHT=OFF
         DFHMDF POS=(20,03),LENGTH=0,ATTRB=(ASKIP,NORM)
* 'DCMNT-NMBR-AP30'
ZFLD088  DFHMDF POS=(20,04),LENGTH=0008,ATTRB=(PROT,ASKIP),            X
               COLOR=TURQUOISE,HILIGHT=OFF
* 'ITEM-NMBR-AP30'
ZFLD089  DFHMDF POS=(20,13),LENGTH=0004,ATTRB=(PROT,ASKIP),            X
               COLOR=TURQUOISE,HILIGHT=OFF
* 'SEQ-NMBR-AP30'
ZFLD090  DFHMDF POS=(20,18),LENGTH=0004,ATTRB=(PROT,ASKIP),            X
               COLOR=TURQUOISE,HILIGHT=OFF
         DFHMDF POS=(20,23),LENGTH=0,ATTRB=(ASKIP,NORM)
* 'COA-CODE-AP30'
ZFLD091  DFHMDF POS=(20,24),LENGTH=0001,ATTRB=(PROT,ASKIP),            X
               COLOR=TURQUOISE,HILIGHT=OFF
* 'FUND-CODE-AP30'
ZFLD092  DFHMDF POS=(20,26),LENGTH=0006,ATTRB=(PROT,ASKIP),            X
               COLOR=TURQUOISE,HILIGHT=OFF
* 'ORGZN-CODE-AP30'
ZFLD093  DFHMDF POS=(20,33),LENGTH=0006,ATTRB=(PROT,ASKIP),            X
               COLOR=TURQUOISE,HILIGHT=OFF
* 'ACCT-CODE-AP30'
ZFLD094  DFHMDF POS=(20,40),LENGTH=0006,ATTRB=(PROT,ASKIP),            X
               COLOR=TURQUOISE,HILIGHT=OFF
* 'PRGRM-CODE-AP30'
ZFLD095  DFHMDF POS=(20,47),LENGTH=0006,ATTRB=(PROT,ASKIP),            X
               COLOR=TURQUOISE,HILIGHT=OFF
         DFHMDF POS=(20,54),LENGTH=0,ATTRB=(ASKIP,NORM)
* 'TAX-AMT-AP30'
ZFLD096  DFHMDF POS=(20,55),LENGTH=0012,ATTRB=(PROT,ASKIP),            X
               COLOR=TURQUOISE,HILIGHT=OFF
* 'CHK-PAID-AMT-AP30'
ZFLD097  DFHMDF POS=(20,68),LENGTH=0012,ATTRB=(PROT,ASKIP),            X
               COLOR=TURQUOISE,HILIGHT=OFF
         DFHMDF POS=(21,01),LENGTH=0,ATTRB=(ASKIP,NORM)
* 'DCLINK-MESSAGE'
ZFLD098  DFHMDF POS=(21,80),LENGTH=0160,ATTRB=(PROT,BRT),              X
               COLOR=DEFAULT,HILIGHT=OFF
         DFHMDF POS=(24,01),LENGTH=0012,ATTRB=(PROT,ASKIP,NUM),        X
               INITIAL='NEXT SCREEN:',COLOR=BLUE,HILIGHT=OFF
* 'AGR-PASSED-ONE'
ZFLD099  DFHMDF POS=(24,14),LENGTH=0030,ATTRB=(UNPROT),COLOR=DEFAULT,  X
               HILIGHT=UNDERLINE
         DFHMDF POS=(24,45),LENGTH=0009,ATTRB=(PROT,ASKIP),            X
               INITIAL='RESPONSE:',COLOR=BLUE,HILIGHT=OFF
* 'AGR-MAP-RESPONSE'
ZFLD100  DFHMDF POS=(24,55),LENGTH=0008,ATTRB=(UNPROT),COLOR=DEFAULT,  X
               HILIGHT=UNDERLINE
         DFHMDF POS=(24,64),LENGTH=0,ATTRB=(ASKIP,NORM)
* 'ERROR-TEXT-SY00'
ZFLD101  DFHMDF POS=(24,65),LENGTH=0014,ATTRB=(PROT,DRK),              X
               COLOR=DEFAULT,HILIGHT=OFF
         DFHMSD TYPE=FINAL
         END
