FCHMI81  DFHMSD TYPE=MAP,LANG=COBOL,TERM=3270,MODE=INOUT,              X
               TIOAPFX=YES,MAPATTS=(COLOR,HILIGHT),                    X
               DSATTS=(COLOR,HILIGHT)
FCHMI81  DFHMDI SIZE=(24,80),LINE=1,COLUMN=1,CTRL=FREEKB,TIOAPFX=YES
         DFHMDF POS=(01,01),LENGTH=0007,ATTRB=(PROT,ASKIP),            X
               INITIAL='FCHMI81',COLOR=BLUE,HILIGHT=OFF
* 'TRMNL-ID-SY00'
ZFLD002  DFHMDF POS=(01,10),LENGTH=0008,ATTRB=(PROT),COLOR=BLUE,       X
               HILIGHT=OFF
         DFHMDF POS=(01,19),LENGTH=0,ATTRB=(ASKIP,NORM)
* 'FULL-NAME-6001-SY00'
ZFLD003  DFHMDF POS=(01,23),LENGTH=0035,ATTRB=(PROT),COLOR=BLUE,       X
               HILIGHT=OFF
         DFHMDF POS=(01,59),LENGTH=0,ATTRB=(ASKIP,NORM)
* 'AGR-DATE'
ZFLD004  DFHMDF POS=(01,64),LENGTH=0008,ATTRB=(PROT),COLOR=BLUE,       X
               HILIGHT=OFF
* 'WORK-HH-MM-TIME-SY00'
ZFLD005  DFHMDF POS=(01,73),LENGTH=0005,ATTRB=(PROT),COLOR=BLUE,       X
               HILIGHT=OFF
* 'AM-PM-FLAG-SY00'
ZFLD006  DFHMDF POS=(01,79),LENGTH=0001,ATTRB=(PROT),COLOR=BLUE,       X
               HILIGHT=OFF
* 'AGR-USER-ID'
ZFLD007  DFHMDF POS=(02,01),LENGTH=0008,ATTRB=(PROT),COLOR=BLUE,       X
               HILIGHT=OFF
         DFHMDF POS=(02,10),LENGTH=0,ATTRB=(ASKIP,NORM)
* 'CURR-RSPNS-ID-SY00'
ZFLD008  DFHMDF POS=(02,21),LENGTH=0008,ATTRB=(PROT,BRT),              X
               COLOR=DEFAULT,HILIGHT=OFF
         DFHMDF POS=(02,30),LENGTH=0001,ATTRB=(PROT,ASKIP,BRT),        X
               INITIAL=':',COLOR=DEFAULT,HILIGHT=OFF
* 'AGR-FUNC-DESCRIPTION'
ZFLD009  DFHMDF POS=(02,32),LENGTH=0028,ATTRB=(PROT,BRT),              X
               COLOR=DEFAULT,HILIGHT=OFF
         DFHMDF POS=(02,61),LENGTH=0,ATTRB=(ASKIP,NORM)
* 'PAGE-STATUS-CODE-SY00'
ZFLD010  DFHMDF POS=(02,64),LENGTH=0010,ATTRB=(PROT,BRT),              X
               COLOR=DEFAULT,HILIGHT=OFF
         DFHMDF POS=(02,75),LENGTH=0,ATTRB=(ASKIP,NORM)
         DFHMDF POS=(04,01),LENGTH=0015,ATTRB=(PROT,ASKIP),            X
               INITIAL='SELECTION DATE:',COLOR=BLUE,HILIGHT=OFF
* 'SLCTN-DATE-CH81'
ZFLD011  DFHMDF POS=(04,17),LENGTH=0008,ATTRB=(UNPROT,IC),             X
               COLOR=DEFAULT,HILIGHT=UNDERLINE
         DFHMDF POS=(04,26),LENGTH=0,ATTRB=(ASKIP,NORM)
         DFHMDF POS=(04,32),LENGTH=0025,ATTRB=(PROT,ASKIP),            X
               INITIAL='SELECTION STATUS (A,B,I):',COLOR=BLUE,         X
               HILIGHT=OFF
* 'SLCTN-STATUS-CH81'
ZFLD012  DFHMDF POS=(04,58),LENGTH=0001,ATTRB=(UNPROT),COLOR=DEFAULT,  X
               HILIGHT=UNDERLINE
         DFHMDF POS=(04,60),LENGTH=0,ATTRB=(ASKIP,NORM)
         DFHMDF POS=(06,01),LENGTH=0079,ATTRB=(PROT,ASKIP),            X
               INITIAL=' ACT COA  ACCOUNT               TITLE          X
                     STATUS EFFECTIVE TERMINATE',COLOR=BLUE,           X
               HILIGHT=OFF
         DFHMDF POS=(07,01),LENGTH=0076,ATTRB=(PROT,ASKIP),            X
               INITIAL='(AL)       TYPE                                X
                              DATE      DATE',COLOR=BLUE,HILIGHT=OFF
* 'ACTN-CODE-CH81'
ZFLD013  DFHMDF POS=(08,03),LENGTH=0001,ATTRB=(UNPROT),COLOR=DEFAULT,  X
               HILIGHT=OFF
         DFHMDF POS=(08,05),LENGTH=0,ATTRB=(ASKIP,NORM)
* 'COA-CODE-4014-CH81'
ZFLD014  DFHMDF POS=(08,07),LENGTH=0001,ATTRB=(PROT,ASKIP),            X
               COLOR=TURQUOISE,HILIGHT=OFF
         DFHMDF POS=(08,09),LENGTH=0,ATTRB=(ASKIP,NORM)
* 'ACCT-TYPE-CODE-4014-CH81'
ZFLD015  DFHMDF POS=(08,13),LENGTH=0002,ATTRB=(PROT),COLOR=TURQUOISE,  X
               HILIGHT=OFF
         DFHMDF POS=(08,16),LENGTH=0,ATTRB=(ASKIP,NORM)
* 'ACCT-TYPE-DESC-4015-CH81'
ZFLD016  DFHMDF POS=(08,19),LENGTH=0035,ATTRB=(PROT,ASKIP),            X
               COLOR=TURQUOISE,HILIGHT=OFF
         DFHMDF POS=(08,55),LENGTH=0,ATTRB=(ASKIP,NORM)
* 'STATUS-4015-CH81'
ZFLD017  DFHMDF POS=(08,57),LENGTH=0001,ATTRB=(PROT,ASKIP),            X
               COLOR=TURQUOISE,HILIGHT=OFF
         DFHMDF POS=(08,59),LENGTH=0,ATTRB=(ASKIP,NORM)
* 'START-DATE-4015-CH81'
ZFLD018  DFHMDF POS=(08,62),LENGTH=0008,ATTRB=(PROT,ASKIP),            X
               COLOR=TURQUOISE,HILIGHT=OFF
         DFHMDF POS=(08,71),LENGTH=0,ATTRB=(ASKIP,NORM)
* 'END-DATE-4015-CH81'
ZFLD019  DFHMDF POS=(08,72),LENGTH=0008,ATTRB=(PROT,ASKIP),            X
               COLOR=TURQUOISE,HILIGHT=OFF
         DFHMDF POS=(09,01),LENGTH=0,ATTRB=(ASKIP,NORM)
* 'ACTN-CODE-CH81'
ZFLD020  DFHMDF POS=(09,03),LENGTH=0001,ATTRB=(UNPROT),COLOR=DEFAULT,  X
               HILIGHT=OFF
         DFHMDF POS=(09,05),LENGTH=0,ATTRB=(ASKIP,NORM)
* 'COA-CODE-4014-CH81'
ZFLD021  DFHMDF POS=(09,07),LENGTH=0001,ATTRB=(PROT,ASKIP),            X
               COLOR=TURQUOISE,HILIGHT=OFF
         DFHMDF POS=(09,09),LENGTH=0,ATTRB=(ASKIP,NORM)
* 'ACCT-TYPE-CODE-4014-CH81'
ZFLD022  DFHMDF POS=(09,13),LENGTH=0002,ATTRB=(PROT),COLOR=TURQUOISE,  X
               HILIGHT=OFF
         DFHMDF POS=(09,16),LENGTH=0,ATTRB=(ASKIP,NORM)
* 'ACCT-TYPE-DESC-4015-CH81'
ZFLD023  DFHMDF POS=(09,19),LENGTH=0035,ATTRB=(PROT,ASKIP),            X
               COLOR=TURQUOISE,HILIGHT=OFF
         DFHMDF POS=(09,55),LENGTH=0,ATTRB=(ASKIP,NORM)
* 'STATUS-4015-CH81'
ZFLD024  DFHMDF POS=(09,57),LENGTH=0001,ATTRB=(PROT,ASKIP),            X
               COLOR=TURQUOISE,HILIGHT=OFF
         DFHMDF POS=(09,59),LENGTH=0,ATTRB=(ASKIP,NORM)
* 'START-DATE-4015-CH81'
ZFLD025  DFHMDF POS=(09,62),LENGTH=0008,ATTRB=(PROT,ASKIP),            X
               COLOR=TURQUOISE,HILIGHT=OFF
         DFHMDF POS=(09,71),LENGTH=0,ATTRB=(ASKIP,NORM)
* 'END-DATE-4015-CH81'
ZFLD026  DFHMDF POS=(09,72),LENGTH=0008,ATTRB=(PROT,ASKIP),            X
               COLOR=TURQUOISE,HILIGHT=OFF
         DFHMDF POS=(10,01),LENGTH=0,ATTRB=(ASKIP,NORM)
* 'ACTN-CODE-CH81'
ZFLD027  DFHMDF POS=(10,03),LENGTH=0001,ATTRB=(UNPROT),COLOR=DEFAULT,  X
               HILIGHT=OFF
         DFHMDF POS=(10,05),LENGTH=0,ATTRB=(ASKIP,NORM)
* 'COA-CODE-4014-CH81'
ZFLD028  DFHMDF POS=(10,07),LENGTH=0001,ATTRB=(PROT,ASKIP),            X
               COLOR=TURQUOISE,HILIGHT=OFF
         DFHMDF POS=(10,09),LENGTH=0,ATTRB=(ASKIP,NORM)
* 'ACCT-TYPE-CODE-4014-CH81'
ZFLD029  DFHMDF POS=(10,13),LENGTH=0002,ATTRB=(PROT),COLOR=TURQUOISE,  X
               HILIGHT=OFF
         DFHMDF POS=(10,16),LENGTH=0,ATTRB=(ASKIP,NORM)
* 'ACCT-TYPE-DESC-4015-CH81'
ZFLD030  DFHMDF POS=(10,19),LENGTH=0035,ATTRB=(PROT,ASKIP),            X
               COLOR=TURQUOISE,HILIGHT=OFF
         DFHMDF POS=(10,55),LENGTH=0,ATTRB=(ASKIP,NORM)
* 'STATUS-4015-CH81'
ZFLD031  DFHMDF POS=(10,57),LENGTH=0001,ATTRB=(PROT,ASKIP),            X
               COLOR=TURQUOISE,HILIGHT=OFF
         DFHMDF POS=(10,59),LENGTH=0,ATTRB=(ASKIP,NORM)
* 'START-DATE-4015-CH81'
ZFLD032  DFHMDF POS=(10,62),LENGTH=0008,ATTRB=(PROT,ASKIP),            X
               COLOR=TURQUOISE,HILIGHT=OFF
         DFHMDF POS=(10,71),LENGTH=0,ATTRB=(ASKIP,NORM)
* 'END-DATE-4015-CH81'
ZFLD033  DFHMDF POS=(10,72),LENGTH=0008,ATTRB=(PROT,ASKIP),            X
               COLOR=TURQUOISE,HILIGHT=OFF
         DFHMDF POS=(11,01),LENGTH=0,ATTRB=(ASKIP,NORM)
* 'ACTN-CODE-CH81'
ZFLD034  DFHMDF POS=(11,03),LENGTH=0001,ATTRB=(UNPROT),COLOR=DEFAULT,  X
               HILIGHT=OFF
         DFHMDF POS=(11,05),LENGTH=0,ATTRB=(ASKIP,NORM)
* 'COA-CODE-4014-CH81'
ZFLD035  DFHMDF POS=(11,07),LENGTH=0001,ATTRB=(PROT,ASKIP),            X
               COLOR=TURQUOISE,HILIGHT=OFF
         DFHMDF POS=(11,09),LENGTH=0,ATTRB=(ASKIP,NORM)
* 'ACCT-TYPE-CODE-4014-CH81'
ZFLD036  DFHMDF POS=(11,13),LENGTH=0002,ATTRB=(PROT),COLOR=TURQUOISE,  X
               HILIGHT=OFF
         DFHMDF POS=(11,16),LENGTH=0,ATTRB=(ASKIP,NORM)
* 'ACCT-TYPE-DESC-4015-CH81'
ZFLD037  DFHMDF POS=(11,19),LENGTH=0035,ATTRB=(PROT,ASKIP),            X
               COLOR=TURQUOISE,HILIGHT=OFF
         DFHMDF POS=(11,55),LENGTH=0,ATTRB=(ASKIP,NORM)
* 'STATUS-4015-CH81'
ZFLD038  DFHMDF POS=(11,57),LENGTH=0001,ATTRB=(PROT,ASKIP),            X
               COLOR=TURQUOISE,HILIGHT=OFF
         DFHMDF POS=(11,59),LENGTH=0,ATTRB=(ASKIP,NORM)
* 'START-DATE-4015-CH81'
ZFLD039  DFHMDF POS=(11,62),LENGTH=0008,ATTRB=(PROT,ASKIP),            X
               COLOR=TURQUOISE,HILIGHT=OFF
         DFHMDF POS=(11,71),LENGTH=0,ATTRB=(ASKIP,NORM)
* 'END-DATE-4015-CH81'
ZFLD040  DFHMDF POS=(11,72),LENGTH=0008,ATTRB=(PROT,ASKIP),            X
               COLOR=TURQUOISE,HILIGHT=OFF
         DFHMDF POS=(12,01),LENGTH=0,ATTRB=(ASKIP,NORM)
* 'ACTN-CODE-CH81'
ZFLD041  DFHMDF POS=(12,03),LENGTH=0001,ATTRB=(UNPROT),COLOR=DEFAULT,  X
               HILIGHT=OFF
         DFHMDF POS=(12,05),LENGTH=0,ATTRB=(ASKIP,NORM)
* 'COA-CODE-4014-CH81'
ZFLD042  DFHMDF POS=(12,07),LENGTH=0001,ATTRB=(PROT,ASKIP),            X
               COLOR=TURQUOISE,HILIGHT=OFF
         DFHMDF POS=(12,09),LENGTH=0,ATTRB=(ASKIP,NORM)
* 'ACCT-TYPE-CODE-4014-CH81'
ZFLD043  DFHMDF POS=(12,13),LENGTH=0002,ATTRB=(PROT),COLOR=TURQUOISE,  X
               HILIGHT=OFF
         DFHMDF POS=(12,16),LENGTH=0,ATTRB=(ASKIP,NORM)
* 'ACCT-TYPE-DESC-4015-CH81'
ZFLD044  DFHMDF POS=(12,19),LENGTH=0035,ATTRB=(PROT,ASKIP),            X
               COLOR=TURQUOISE,HILIGHT=OFF
         DFHMDF POS=(12,55),LENGTH=0,ATTRB=(ASKIP,NORM)
* 'STATUS-4015-CH81'
ZFLD045  DFHMDF POS=(12,57),LENGTH=0001,ATTRB=(PROT,ASKIP),            X
               COLOR=TURQUOISE,HILIGHT=OFF
         DFHMDF POS=(12,59),LENGTH=0,ATTRB=(ASKIP,NORM)
* 'START-DATE-4015-CH81'
ZFLD046  DFHMDF POS=(12,62),LENGTH=0008,ATTRB=(PROT,ASKIP),            X
               COLOR=TURQUOISE,HILIGHT=OFF
         DFHMDF POS=(12,71),LENGTH=0,ATTRB=(ASKIP,NORM)
* 'END-DATE-4015-CH81'
ZFLD047  DFHMDF POS=(12,72),LENGTH=0008,ATTRB=(PROT,ASKIP),            X
               COLOR=TURQUOISE,HILIGHT=OFF
         DFHMDF POS=(13,01),LENGTH=0,ATTRB=(ASKIP,NORM)
* 'ACTN-CODE-CH81'
ZFLD048  DFHMDF POS=(13,03),LENGTH=0001,ATTRB=(UNPROT),COLOR=DEFAULT,  X
               HILIGHT=OFF
         DFHMDF POS=(13,05),LENGTH=0,ATTRB=(ASKIP,NORM)
* 'COA-CODE-4014-CH81'
ZFLD049  DFHMDF POS=(13,07),LENGTH=0001,ATTRB=(PROT,ASKIP),            X
               COLOR=TURQUOISE,HILIGHT=OFF
         DFHMDF POS=(13,09),LENGTH=0,ATTRB=(ASKIP,NORM)
* 'ACCT-TYPE-CODE-4014-CH81'
ZFLD050  DFHMDF POS=(13,13),LENGTH=0002,ATTRB=(PROT),COLOR=TURQUOISE,  X
               HILIGHT=OFF
         DFHMDF POS=(13,16),LENGTH=0,ATTRB=(ASKIP,NORM)
* 'ACCT-TYPE-DESC-4015-CH81'
ZFLD051  DFHMDF POS=(13,19),LENGTH=0035,ATTRB=(PROT,ASKIP),            X
               COLOR=TURQUOISE,HILIGHT=OFF
         DFHMDF POS=(13,55),LENGTH=0,ATTRB=(ASKIP,NORM)
* 'STATUS-4015-CH81'
ZFLD052  DFHMDF POS=(13,57),LENGTH=0001,ATTRB=(PROT,ASKIP),            X
               COLOR=TURQUOISE,HILIGHT=OFF
         DFHMDF POS=(13,59),LENGTH=0,ATTRB=(ASKIP,NORM)
* 'START-DATE-4015-CH81'
ZFLD053  DFHMDF POS=(13,62),LENGTH=0008,ATTRB=(PROT,ASKIP),            X
               COLOR=TURQUOISE,HILIGHT=OFF
         DFHMDF POS=(13,71),LENGTH=0,ATTRB=(ASKIP,NORM)
* 'END-DATE-4015-CH81'
ZFLD054  DFHMDF POS=(13,72),LENGTH=0008,ATTRB=(PROT,ASKIP),            X
               COLOR=TURQUOISE,HILIGHT=OFF
         DFHMDF POS=(14,01),LENGTH=0,ATTRB=(ASKIP,NORM)
* 'ACTN-CODE-CH81'
ZFLD055  DFHMDF POS=(14,03),LENGTH=0001,ATTRB=(UNPROT),COLOR=DEFAULT,  X
               HILIGHT=OFF
         DFHMDF POS=(14,05),LENGTH=0,ATTRB=(ASKIP,NORM)
* 'COA-CODE-4014-CH81'
ZFLD056  DFHMDF POS=(14,07),LENGTH=0001,ATTRB=(PROT,ASKIP),            X
               COLOR=TURQUOISE,HILIGHT=OFF
         DFHMDF POS=(14,09),LENGTH=0,ATTRB=(ASKIP,NORM)
* 'ACCT-TYPE-CODE-4014-CH81'
ZFLD057  DFHMDF POS=(14,13),LENGTH=0002,ATTRB=(PROT),COLOR=TURQUOISE,  X
               HILIGHT=OFF
         DFHMDF POS=(14,16),LENGTH=0,ATTRB=(ASKIP,NORM)
* 'ACCT-TYPE-DESC-4015-CH81'
ZFLD058  DFHMDF POS=(14,19),LENGTH=0035,ATTRB=(PROT,ASKIP),            X
               COLOR=TURQUOISE,HILIGHT=OFF
         DFHMDF POS=(14,55),LENGTH=0,ATTRB=(ASKIP,NORM)
* 'STATUS-4015-CH81'
ZFLD059  DFHMDF POS=(14,57),LENGTH=0001,ATTRB=(PROT,ASKIP),            X
               COLOR=TURQUOISE,HILIGHT=OFF
         DFHMDF POS=(14,59),LENGTH=0,ATTRB=(ASKIP,NORM)
* 'START-DATE-4015-CH81'
ZFLD060  DFHMDF POS=(14,62),LENGTH=0008,ATTRB=(PROT,ASKIP),            X
               COLOR=TURQUOISE,HILIGHT=OFF
         DFHMDF POS=(14,71),LENGTH=0,ATTRB=(ASKIP,NORM)
* 'END-DATE-4015-CH81'
ZFLD061  DFHMDF POS=(14,72),LENGTH=0008,ATTRB=(PROT,ASKIP),            X
               COLOR=TURQUOISE,HILIGHT=OFF
         DFHMDF POS=(15,01),LENGTH=0,ATTRB=(ASKIP,NORM)
* 'ACTN-CODE-CH81'
ZFLD062  DFHMDF POS=(15,03),LENGTH=0001,ATTRB=(UNPROT),COLOR=DEFAULT,  X
               HILIGHT=OFF
         DFHMDF POS=(15,05),LENGTH=0,ATTRB=(ASKIP,NORM)
* 'COA-CODE-4014-CH81'
ZFLD063  DFHMDF POS=(15,07),LENGTH=0001,ATTRB=(PROT,ASKIP),            X
               COLOR=TURQUOISE,HILIGHT=OFF
         DFHMDF POS=(15,09),LENGTH=0,ATTRB=(ASKIP,NORM)
* 'ACCT-TYPE-CODE-4014-CH81'
ZFLD064  DFHMDF POS=(15,13),LENGTH=0002,ATTRB=(PROT),COLOR=TURQUOISE,  X
               HILIGHT=OFF
         DFHMDF POS=(15,16),LENGTH=0,ATTRB=(ASKIP,NORM)
* 'ACCT-TYPE-DESC-4015-CH81'
ZFLD065  DFHMDF POS=(15,19),LENGTH=0035,ATTRB=(PROT,ASKIP),            X
               COLOR=TURQUOISE,HILIGHT=OFF
         DFHMDF POS=(15,55),LENGTH=0,ATTRB=(ASKIP,NORM)
* 'STATUS-4015-CH81'
ZFLD066  DFHMDF POS=(15,57),LENGTH=0001,ATTRB=(PROT,ASKIP),            X
               COLOR=TURQUOISE,HILIGHT=OFF
         DFHMDF POS=(15,59),LENGTH=0,ATTRB=(ASKIP,NORM)
* 'START-DATE-4015-CH81'
ZFLD067  DFHMDF POS=(15,62),LENGTH=0008,ATTRB=(PROT,ASKIP),            X
               COLOR=TURQUOISE,HILIGHT=OFF
         DFHMDF POS=(15,71),LENGTH=0,ATTRB=(ASKIP,NORM)
* 'END-DATE-4015-CH81'
ZFLD068  DFHMDF POS=(15,72),LENGTH=0008,ATTRB=(PROT,ASKIP),            X
               COLOR=TURQUOISE,HILIGHT=OFF
         DFHMDF POS=(16,01),LENGTH=0,ATTRB=(ASKIP,NORM)
* 'ACTN-CODE-CH81'
ZFLD069  DFHMDF POS=(16,03),LENGTH=0001,ATTRB=(UNPROT),COLOR=DEFAULT,  X
               HILIGHT=OFF
         DFHMDF POS=(16,05),LENGTH=0,ATTRB=(ASKIP,NORM)
* 'COA-CODE-4014-CH81'
ZFLD070  DFHMDF POS=(16,07),LENGTH=0001,ATTRB=(PROT,ASKIP),            X
               COLOR=TURQUOISE,HILIGHT=OFF
         DFHMDF POS=(16,09),LENGTH=0,ATTRB=(ASKIP,NORM)
* 'ACCT-TYPE-CODE-4014-CH81'
ZFLD071  DFHMDF POS=(16,13),LENGTH=0002,ATTRB=(PROT),COLOR=TURQUOISE,  X
               HILIGHT=OFF
         DFHMDF POS=(16,16),LENGTH=0,ATTRB=(ASKIP,NORM)
* 'ACCT-TYPE-DESC-4015-CH81'
ZFLD072  DFHMDF POS=(16,19),LENGTH=0035,ATTRB=(PROT,ASKIP),            X
               COLOR=TURQUOISE,HILIGHT=OFF
         DFHMDF POS=(16,55),LENGTH=0,ATTRB=(ASKIP,NORM)
* 'STATUS-4015-CH81'
ZFLD073  DFHMDF POS=(16,57),LENGTH=0001,ATTRB=(PROT,ASKIP),            X
               COLOR=TURQUOISE,HILIGHT=OFF
         DFHMDF POS=(16,59),LENGTH=0,ATTRB=(ASKIP,NORM)
* 'START-DATE-4015-CH81'
ZFLD074  DFHMDF POS=(16,62),LENGTH=0008,ATTRB=(PROT,ASKIP),            X
               COLOR=TURQUOISE,HILIGHT=OFF
         DFHMDF POS=(16,71),LENGTH=0,ATTRB=(ASKIP,NORM)
* 'END-DATE-4015-CH81'
ZFLD075  DFHMDF POS=(16,72),LENGTH=0008,ATTRB=(PROT,ASKIP),            X
               COLOR=TURQUOISE,HILIGHT=OFF
         DFHMDF POS=(17,01),LENGTH=0,ATTRB=(ASKIP,NORM)
* 'ACTN-CODE-CH81'
ZFLD076  DFHMDF POS=(17,03),LENGTH=0001,ATTRB=(UNPROT),COLOR=DEFAULT,  X
               HILIGHT=OFF
         DFHMDF POS=(17,05),LENGTH=0,ATTRB=(ASKIP,NORM)
* 'COA-CODE-4014-CH81'
ZFLD077  DFHMDF POS=(17,07),LENGTH=0001,ATTRB=(PROT,ASKIP),            X
               COLOR=TURQUOISE,HILIGHT=OFF
         DFHMDF POS=(17,09),LENGTH=0,ATTRB=(ASKIP,NORM)
* 'ACCT-TYPE-CODE-4014-CH81'
ZFLD078  DFHMDF POS=(17,13),LENGTH=0002,ATTRB=(PROT),COLOR=TURQUOISE,  X
               HILIGHT=OFF
         DFHMDF POS=(17,16),LENGTH=0,ATTRB=(ASKIP,NORM)
* 'ACCT-TYPE-DESC-4015-CH81'
ZFLD079  DFHMDF POS=(17,19),LENGTH=0035,ATTRB=(PROT,ASKIP),            X
               COLOR=TURQUOISE,HILIGHT=OFF
         DFHMDF POS=(17,55),LENGTH=0,ATTRB=(ASKIP,NORM)
* 'STATUS-4015-CH81'
ZFLD080  DFHMDF POS=(17,57),LENGTH=0001,ATTRB=(PROT,ASKIP),            X
               COLOR=TURQUOISE,HILIGHT=OFF
         DFHMDF POS=(17,59),LENGTH=0,ATTRB=(ASKIP,NORM)
* 'START-DATE-4015-CH81'
ZFLD081  DFHMDF POS=(17,62),LENGTH=0008,ATTRB=(PROT,ASKIP),            X
               COLOR=TURQUOISE,HILIGHT=OFF
         DFHMDF POS=(17,71),LENGTH=0,ATTRB=(ASKIP,NORM)
* 'END-DATE-4015-CH81'
ZFLD082  DFHMDF POS=(17,72),LENGTH=0008,ATTRB=(PROT,ASKIP),            X
               COLOR=TURQUOISE,HILIGHT=OFF
         DFHMDF POS=(18,01),LENGTH=0,ATTRB=(ASKIP,NORM)
* 'ACTN-CODE-CH81'
ZFLD083  DFHMDF POS=(18,03),LENGTH=0001,ATTRB=(UNPROT),COLOR=DEFAULT,  X
               HILIGHT=OFF
         DFHMDF POS=(18,05),LENGTH=0,ATTRB=(ASKIP,NORM)
* 'COA-CODE-4014-CH81'
ZFLD084  DFHMDF POS=(18,07),LENGTH=0001,ATTRB=(PROT,ASKIP),            X
               COLOR=TURQUOISE,HILIGHT=OFF
         DFHMDF POS=(18,09),LENGTH=0,ATTRB=(ASKIP,NORM)
* 'ACCT-TYPE-CODE-4014-CH81'
ZFLD085  DFHMDF POS=(18,13),LENGTH=0002,ATTRB=(PROT),COLOR=TURQUOISE,  X
               HILIGHT=OFF
         DFHMDF POS=(18,16),LENGTH=0,ATTRB=(ASKIP,NORM)
* 'ACCT-TYPE-DESC-4015-CH81'
ZFLD086  DFHMDF POS=(18,19),LENGTH=0035,ATTRB=(PROT,ASKIP),            X
               COLOR=TURQUOISE,HILIGHT=OFF
         DFHMDF POS=(18,55),LENGTH=0,ATTRB=(ASKIP,NORM)
* 'STATUS-4015-CH81'
ZFLD087  DFHMDF POS=(18,57),LENGTH=0001,ATTRB=(PROT,ASKIP),            X
               COLOR=TURQUOISE,HILIGHT=OFF
         DFHMDF POS=(18,59),LENGTH=0,ATTRB=(ASKIP,NORM)
* 'START-DATE-4015-CH81'
ZFLD088  DFHMDF POS=(18,62),LENGTH=0008,ATTRB=(PROT,ASKIP),            X
               COLOR=TURQUOISE,HILIGHT=OFF
         DFHMDF POS=(18,71),LENGTH=0,ATTRB=(ASKIP,NORM)
* 'END-DATE-4015-CH81'
ZFLD089  DFHMDF POS=(18,72),LENGTH=0008,ATTRB=(PROT,ASKIP),            X
               COLOR=TURQUOISE,HILIGHT=OFF
         DFHMDF POS=(19,01),LENGTH=0,ATTRB=(ASKIP,NORM)
         DFHMDF POS=(20,01),LENGTH=0012,ATTRB=(PROT,ASKIP),            X
               INITIAL='COA REQUEST:',COLOR=BLUE,HILIGHT=OFF
* 'RQST-COA-CODE-CH81'
ZFLD090  DFHMDF POS=(20,14),LENGTH=0001,ATTRB=(UNPROT),COLOR=DEFAULT,  X
               HILIGHT=UNDERLINE
         DFHMDF POS=(20,16),LENGTH=0,ATTRB=(ASKIP,NORM)
         DFHMDF POS=(20,17),LENGTH=0021,ATTRB=(PROT,ASKIP),            X
               INITIAL='ACCOUNT TYPE REQUEST:',COLOR=BLUE,HILIGHT=OFF
* 'RQST-ACCT-TYPE-CODE-CH81'
ZFLD091  DFHMDF POS=(20,39),LENGTH=0002,ATTRB=(UNPROT),COLOR=DEFAULT,  X
               HILIGHT=UNDERLINE
         DFHMDF POS=(20,42),LENGTH=0,ATTRB=(ASKIP,NORM)
* 'DCLINK-MESSAGE'
ZFLD092  DFHMDF POS=(21,80),LENGTH=0160,ATTRB=(PROT,BRT),              X
               COLOR=DEFAULT,HILIGHT=OFF
         DFHMDF POS=(24,01),LENGTH=0012,ATTRB=(PROT,ASKIP,NUM),        X
               INITIAL='NEXT SCREEN:',COLOR=BLUE,HILIGHT=OFF
* 'AGR-PASSED-ONE'
ZFLD093  DFHMDF POS=(24,14),LENGTH=0030,ATTRB=(UNPROT),COLOR=DEFAULT,  X
               HILIGHT=UNDERLINE
         DFHMDF POS=(24,45),LENGTH=0009,ATTRB=(PROT,ASKIP),            X
               INITIAL='RESPONSE:',COLOR=BLUE,HILIGHT=OFF
* 'AGR-MAP-RESPONSE'
ZFLD094  DFHMDF POS=(24,55),LENGTH=0008,ATTRB=(UNPROT),COLOR=DEFAULT,  X
               HILIGHT=UNDERLINE
         DFHMDF POS=(24,64),LENGTH=0,ATTRB=(ASKIP,NORM)
* 'ERROR-TEXT-SY00'
ZFLD095  DFHMDF POS=(24,65),LENGTH=0014,ATTRB=(PROT,DRK),              X
               COLOR=DEFAULT,HILIGHT=OFF
         DFHMSD TYPE=FINAL
         END
