FCHMI93  DFHMSD TYPE=MAP,LANG=COBOL,TERM=3270,MODE=INOUT,              X
               TIOAPFX=YES,MAPATTS=(COLOR,HILIGHT),                    X
               DSATTS=(COLOR,HILIGHT)
FCHMI93  DFHMDI SIZE=(24,80),LINE=1,COLUMN=1,CTRL=FREEKB,TIOAPFX=YES
         DFHMDF POS=(01,01),LENGTH=0007,ATTRB=(PROT,ASKIP),            X
               INITIAL='FCHMI93',COLOR=BLUE,HILIGHT=OFF
* 'TRMNL-ID-SY00'
ZFLD002  DFHMDF POS=(01,10),LENGTH=0008,ATTRB=(PROT),COLOR=BLUE,       X
               HILIGHT=OFF
         DFHMDF POS=(01,19),LENGTH=0,ATTRB=(ASKIP,NORM)
* 'FULL-NAME-6001-SY00'
ZFLD003  DFHMDF POS=(01,23),LENGTH=0035,ATTRB=(PROT),COLOR=BLUE,       X
               HILIGHT=OFF
         DFHMDF POS=(01,59),LENGTH=0,ATTRB=(ASKIP,NORM)
* 'AGR-DATE'
ZFLD004  DFHMDF POS=(01,64),LENGTH=0008,ATTRB=(PROT),COLOR=BLUE,       X
               HILIGHT=OFF
* 'WORK-HH-MM-TIME-SY00'
ZFLD005  DFHMDF POS=(01,73),LENGTH=0005,ATTRB=(PROT),COLOR=BLUE,       X
               HILIGHT=OFF
* 'AM-PM-FLAG-SY00'
ZFLD006  DFHMDF POS=(01,79),LENGTH=0001,ATTRB=(PROT),COLOR=BLUE,       X
               HILIGHT=OFF
* 'AGR-USER-ID'
ZFLD007  DFHMDF POS=(02,01),LENGTH=0008,ATTRB=(PROT),COLOR=BLUE,       X
               HILIGHT=OFF
         DFHMDF POS=(02,10),LENGTH=0,ATTRB=(ASKIP,NORM)
* 'CURR-RSPNS-ID-SY00'
ZFLD008  DFHMDF POS=(02,21),LENGTH=0008,ATTRB=(PROT,BRT),              X
               COLOR=DEFAULT,HILIGHT=OFF
         DFHMDF POS=(02,30),LENGTH=0001,ATTRB=(PROT,ASKIP,BRT),        X
               INITIAL=':',COLOR=DEFAULT,HILIGHT=OFF
* 'AGR-FUNC-DESCRIPTION'
ZFLD009  DFHMDF POS=(02,32),LENGTH=0028,ATTRB=(PROT,BRT),              X
               COLOR=DEFAULT,HILIGHT=OFF
         DFHMDF POS=(02,61),LENGTH=0,ATTRB=(ASKIP,NORM)
* 'PAGE-STATUS-CODE-SY00'
ZFLD010  DFHMDF POS=(02,64),LENGTH=0010,ATTRB=(PROT,BRT),              X
               COLOR=DEFAULT,HILIGHT=OFF
         DFHMDF POS=(02,75),LENGTH=0,ATTRB=(ASKIP,NORM)
         DFHMDF POS=(05,14),LENGTH=0004,ATTRB=(PROT,ASKIP),            X
               INITIAL='COA:',COLOR=BLUE,HILIGHT=OFF
* 'COA-CODE-4006-CH93'
ZFLD011  DFHMDF POS=(05,19),LENGTH=0001,ATTRB=(PROT,ASKIP),            X
               COLOR=TURQUOISE,HILIGHT=OFF
         DFHMDF POS=(05,21),LENGTH=0,ATTRB=(ASKIP,NORM)
         DFHMDF POS=(05,24),LENGTH=0009,ATTRB=(PROT,ASKIP),            X
               INITIAL='LOCATION:',COLOR=BLUE,HILIGHT=OFF
* 'LCTN-CODE-4006-CH93'
ZFLD012  DFHMDF POS=(05,34),LENGTH=0006,ATTRB=(PROT),COLOR=TURQUOISE,  X
               HILIGHT=OFF
         DFHMDF POS=(05,41),LENGTH=0,ATTRB=(ASKIP,NORM)
* 'LCTN-TITLE-4007-CH93'
ZFLD013  DFHMDF POS=(05,43),LENGTH=0035,ATTRB=(PROT),COLOR=TURQUOISE,  X
               HILIGHT=OFF
         DFHMDF POS=(05,79),LENGTH=0,ATTRB=(ASKIP,NORM)
         DFHMDF POS=(07,12),LENGTH=0021,ATTRB=(PROT,ASKIP),            X
               INITIAL='PREDECESSOR LOCATION:',COLOR=BLUE,HILIGHT=OFF
* 'PREDCSR-CODE-4007-CH93'
ZFLD014  DFHMDF POS=(07,34),LENGTH=0006,ATTRB=(PROT),COLOR=TURQUOISE,  X
               HILIGHT=OFF
         DFHMDF POS=(07,41),LENGTH=0,ATTRB=(ASKIP,NORM)
* 'PREDCSR-TITLE-4007-CH93'
ZFLD015  DFHMDF POS=(07,43),LENGTH=0035,ATTRB=(PROT),COLOR=TURQUOISE,  X
               HILIGHT=OFF
         DFHMDF POS=(07,79),LENGTH=0,ATTRB=(ASKIP,NORM)
* 'HRCHY-TITLE-4012-CH93'
ZFLD016  DFHMDF POS=(10,06),LENGTH=0020,ATTRB=(PROT,ASKIP),            X
               COLOR=TURQUOISE,HILIGHT=OFF
         DFHMDF POS=(10,27),LENGTH=0,ATTRB=(ASKIP,NORM)
* 'HRCHY-LCTN-CODE-4006-CH93'
ZFLD017  DFHMDF POS=(10,30),LENGTH=0006,ATTRB=(PROT,ASKIP),            X
               COLOR=TURQUOISE,HILIGHT=OFF
         DFHMDF POS=(10,37),LENGTH=0,ATTRB=(ASKIP,NORM)
* 'HRCHY-LCTN-TITLE-4007-CH93'
ZFLD018  DFHMDF POS=(10,40),LENGTH=0035,ATTRB=(PROT,ASKIP),            X
               COLOR=TURQUOISE,HILIGHT=OFF
         DFHMDF POS=(10,76),LENGTH=0,ATTRB=(ASKIP,NORM)
* 'HRCHY-TITLE-4012-CH93'
ZFLD019  DFHMDF POS=(11,06),LENGTH=0020,ATTRB=(PROT,ASKIP),            X
               COLOR=TURQUOISE,HILIGHT=OFF
         DFHMDF POS=(11,27),LENGTH=0,ATTRB=(ASKIP,NORM)
* 'HRCHY-LCTN-CODE-4006-CH93'
ZFLD020  DFHMDF POS=(11,31),LENGTH=0006,ATTRB=(PROT,ASKIP),            X
               COLOR=TURQUOISE,HILIGHT=OFF
         DFHMDF POS=(11,38),LENGTH=0,ATTRB=(ASKIP,NORM)
* 'HRCHY-LCTN-TITLE-4007-CH93'
ZFLD021  DFHMDF POS=(11,41),LENGTH=0035,ATTRB=(PROT,ASKIP),            X
               COLOR=TURQUOISE,HILIGHT=OFF
         DFHMDF POS=(11,77),LENGTH=0,ATTRB=(ASKIP,NORM)
* 'HRCHY-TITLE-4012-CH93'
ZFLD022  DFHMDF POS=(12,06),LENGTH=0020,ATTRB=(PROT,ASKIP),            X
               COLOR=TURQUOISE,HILIGHT=OFF
         DFHMDF POS=(12,27),LENGTH=0,ATTRB=(ASKIP,NORM)
* 'HRCHY-LCTN-CODE-4006-CH93'
ZFLD023  DFHMDF POS=(12,32),LENGTH=0006,ATTRB=(PROT,ASKIP),            X
               COLOR=TURQUOISE,HILIGHT=OFF
         DFHMDF POS=(12,39),LENGTH=0,ATTRB=(ASKIP,NORM)
* 'HRCHY-LCTN-TITLE-4007-CH93'
ZFLD024  DFHMDF POS=(12,42),LENGTH=0035,ATTRB=(PROT,ASKIP),            X
               COLOR=TURQUOISE,HILIGHT=OFF
         DFHMDF POS=(12,78),LENGTH=0,ATTRB=(ASKIP,NORM)
* 'HRCHY-TITLE-4012-CH93'
ZFLD025  DFHMDF POS=(13,06),LENGTH=0020,ATTRB=(PROT,ASKIP),            X
               COLOR=TURQUOISE,HILIGHT=OFF
         DFHMDF POS=(13,27),LENGTH=0,ATTRB=(ASKIP,NORM)
* 'HRCHY-LCTN-CODE-4006-CH93'
ZFLD026  DFHMDF POS=(13,33),LENGTH=0006,ATTRB=(PROT,ASKIP),            X
               COLOR=TURQUOISE,HILIGHT=OFF
         DFHMDF POS=(13,40),LENGTH=0,ATTRB=(ASKIP,NORM)
* 'HRCHY-LCTN-TITLE-4007-CH93'
ZFLD027  DFHMDF POS=(13,43),LENGTH=0035,ATTRB=(PROT,ASKIP),            X
               COLOR=TURQUOISE,HILIGHT=OFF
         DFHMDF POS=(13,79),LENGTH=0,ATTRB=(ASKIP,NORM)
* 'HRCHY-TITLE-4012-CH93'
ZFLD028  DFHMDF POS=(14,06),LENGTH=0020,ATTRB=(PROT,ASKIP),            X
               COLOR=TURQUOISE,HILIGHT=OFF
         DFHMDF POS=(14,27),LENGTH=0,ATTRB=(ASKIP,NORM)
* 'HRCHY-LCTN-CODE-4006-CH93'
ZFLD029  DFHMDF POS=(14,34),LENGTH=0006,ATTRB=(PROT,ASKIP),            X
               COLOR=TURQUOISE,HILIGHT=OFF
         DFHMDF POS=(14,41),LENGTH=0,ATTRB=(ASKIP,NORM)
* 'HRCHY-LCTN-TITLE-4007-CH93'
ZFLD030  DFHMDF POS=(14,44),LENGTH=0035,ATTRB=(PROT,ASKIP),            X
               COLOR=TURQUOISE,HILIGHT=OFF
         DFHMDF POS=(14,80),LENGTH=0,ATTRB=(ASKIP,NORM)
* 'DCLINK-MESSAGE'
ZFLD031  DFHMDF POS=(21,80),LENGTH=0160,ATTRB=(PROT,BRT),              X
               COLOR=DEFAULT,HILIGHT=OFF
         DFHMDF POS=(24,01),LENGTH=0012,ATTRB=(PROT,ASKIP,NUM),        X
               INITIAL='NEXT SCREEN:',COLOR=BLUE,HILIGHT=OFF
* 'AGR-PASSED-ONE'
ZFLD032  DFHMDF POS=(24,14),LENGTH=0030,ATTRB=(UNPROT,IC),             X
               COLOR=DEFAULT,HILIGHT=UNDERLINE
         DFHMDF POS=(24,45),LENGTH=0009,ATTRB=(PROT,ASKIP),            X
               INITIAL='RESPONSE:',COLOR=BLUE,HILIGHT=OFF
* 'AGR-MAP-RESPONSE'
ZFLD033  DFHMDF POS=(24,55),LENGTH=0008,ATTRB=(UNPROT),COLOR=DEFAULT,  X
               HILIGHT=UNDERLINE
         DFHMDF POS=(24,64),LENGTH=0,ATTRB=(ASKIP,NORM)
* 'ERROR-TEXT-SY00'
ZFLD034  DFHMDF POS=(24,65),LENGTH=0014,ATTRB=(PROT,DRK),              X
               COLOR=DEFAULT,HILIGHT=OFF
         DFHMSD TYPE=FINAL
         END
