FCHMU16  DFHMSD TYPE=MAP,LANG=COBOL,TERM=3270,MODE=INOUT,              X
               TIOAPFX=YES,MAPATTS=(COLOR,HILIGHT),                    X
               DSATTS=(COLOR,HILIGHT)
FCHMU16  DFHMDI SIZE=(24,80),LINE=1,COLUMN=1,CTRL=FREEKB,TIOAPFX=YES
         DFHMDF POS=(01,01),LENGTH=0007,ATTRB=(PROT,ASKIP),            X
               INITIAL='FCHMU16',COLOR=BLUE,HILIGHT=OFF
* 'TRMNL-ID-SY00'
ZFLD002  DFHMDF POS=(01,10),LENGTH=0008,ATTRB=(PROT),COLOR=BLUE,       X
               HILIGHT=OFF
         DFHMDF POS=(01,19),LENGTH=0,ATTRB=(ASKIP,NORM)
* 'FULL-NAME-6001-SY00'
ZFLD003  DFHMDF POS=(01,23),LENGTH=0035,ATTRB=(PROT),COLOR=BLUE,       X
               HILIGHT=OFF
         DFHMDF POS=(01,59),LENGTH=0,ATTRB=(ASKIP,NORM)
* 'AGR-DATE'
ZFLD004  DFHMDF POS=(01,64),LENGTH=0008,ATTRB=(PROT),COLOR=BLUE,       X
               HILIGHT=OFF
* 'WORK-HH-MM-TIME-SY00'
ZFLD005  DFHMDF POS=(01,73),LENGTH=0005,ATTRB=(PROT),COLOR=BLUE,       X
               HILIGHT=OFF
* 'AM-PM-FLAG-SY00'
ZFLD006  DFHMDF POS=(01,79),LENGTH=0001,ATTRB=(PROT),COLOR=BLUE,       X
               HILIGHT=OFF
* 'AGR-USER-ID'
ZFLD007  DFHMDF POS=(02,01),LENGTH=0008,ATTRB=(PROT),COLOR=BLUE,       X
               HILIGHT=OFF
         DFHMDF POS=(02,10),LENGTH=0,ATTRB=(ASKIP,NORM)
* 'CURR-RSPNS-ID-SY00'
ZFLD008  DFHMDF POS=(02,21),LENGTH=0008,ATTRB=(PROT,BRT),              X
               COLOR=DEFAULT,HILIGHT=OFF
         DFHMDF POS=(02,30),LENGTH=0001,ATTRB=(PROT,ASKIP,BRT),        X
               INITIAL=':',COLOR=DEFAULT,HILIGHT=OFF
* 'AGR-FUNC-DESCRIPTION'
ZFLD009  DFHMDF POS=(02,32),LENGTH=0028,ATTRB=(PROT,BRT),              X
               COLOR=DEFAULT,HILIGHT=OFF
         DFHMDF POS=(02,61),LENGTH=0,ATTRB=(ASKIP,NORM)
* 'PAGE-STATUS-CODE-SY00'
ZFLD010  DFHMDF POS=(02,64),LENGTH=0010,ATTRB=(PROT,BRT),              X
               COLOR=DEFAULT,HILIGHT=OFF
         DFHMDF POS=(02,75),LENGTH=0,ATTRB=(ASKIP,NORM)
* 'DCSD-TEXT-SY01'
ZFLD011  DFHMDF POS=(03,52),LENGTH=0008,ATTRB=(PROT,DRK),              X
               COLOR=DEFAULT,HILIGHT=OFF
         DFHMDF POS=(03,61),LENGTH=0,ATTRB=(ASKIP,NORM)
* 'CNFDL-TEXT-SY01'
ZFLD012  DFHMDF POS=(03,62),LENGTH=0011,ATTRB=(PROT,DRK),              X
               COLOR=DEFAULT,HILIGHT=OFF
         DFHMDF POS=(03,74),LENGTH=0,ATTRB=(ASKIP,NORM)
* 'HOLDS-TEXT-SY01'
ZFLD013  DFHMDF POS=(03,75),LENGTH=0005,ATTRB=(PROT,DRK),              X
               COLOR=DEFAULT,HILIGHT=OFF
         DFHMDF POS=(04,01),LENGTH=0017,ATTRB=(PROT,ASKIP),            X
               INITIAL='             COA:',COLOR=BLUE,HILIGHT=OFF
* 'COA-CODE-4001-CH16'
ZFLD014  DFHMDF POS=(04,19),LENGTH=0001,ATTRB=(PROT),COLOR=TURQUOISE,  X
               HILIGHT=OFF
         DFHMDF POS=(04,21),LENGTH=0,ATTRB=(ASKIP,NORM)
         DFHMDF POS=(04,23),LENGTH=0005,ATTRB=(PROT,ASKIP),            X
               INITIAL='FUND:',COLOR=BLUE,HILIGHT=OFF
* 'FUND-CODE-4001-CH16'
ZFLD015  DFHMDF POS=(04,29),LENGTH=0006,ATTRB=(PROT),COLOR=TURQUOISE,  X
               HILIGHT=OFF
         DFHMDF POS=(04,36),LENGTH=0,ATTRB=(ASKIP,NORM)
* 'FUND-TITLE-4005-CH16'
ZFLD016  DFHMDF POS=(04,38),LENGTH=0035,ATTRB=(PROT),COLOR=TURQUOISE,  X
               HILIGHT=OFF
         DFHMDF POS=(04,74),LENGTH=0,ATTRB=(ASKIP,NORM)
         DFHMDF POS=(05,01),LENGTH=0017,ATTRB=(PROT,ASKIP),            X
               INITIAL='      EFCTV DATE:',COLOR=BLUE,HILIGHT=OFF
* 'START-DATE-4005-CH16'
ZFLD017  DFHMDF POS=(05,19),LENGTH=0008,ATTRB=(PROT),COLOR=TURQUOISE,  X
               HILIGHT=OFF
         DFHMDF POS=(05,28),LENGTH=0,ATTRB=(ASKIP,NORM)
         DFHMDF POS=(05,29),LENGTH=0019,ATTRB=(PROT,ASKIP),            X
               INITIAL='LAST ACTIVITY DATE:',COLOR=BLUE,HILIGHT=OFF
* 'ACTVY-DATE-4001-CH16'
ZFLD018  DFHMDF POS=(05,49),LENGTH=0008,ATTRB=(PROT),COLOR=TURQUOISE,  X
               HILIGHT=OFF
         DFHMDF POS=(05,58),LENGTH=0,ATTRB=(ASKIP,NORM)
         DFHMDF POS=(05,59),LENGTH=0011,ATTRB=(PROT,ASKIP),            X
               INITIAL='EFCTV TIME:',COLOR=BLUE,HILIGHT=OFF
* 'TIME-STAMP-4005-CH16'
ZFLD019  DFHMDF POS=(05,71),LENGTH=0005,ATTRB=(PROT),COLOR=TURQUOISE,  X
               HILIGHT=OFF
         DFHMDF POS=(05,77),LENGTH=0,ATTRB=(ASKIP,NORM)
* 'AM-PM-FLAG-CH16'
ZFLD020  DFHMDF POS=(05,78),LENGTH=0001,ATTRB=(PROT),COLOR=TURQUOISE,  X
               HILIGHT=OFF
         DFHMDF POS=(05,80),LENGTH=0,ATTRB=(ASKIP,NORM)
         DFHMDF POS=(06,01),LENGTH=0021,ATTRB=(PROT,ASKIP),            X
               INITIAL='      PROJECT PERIOD:',COLOR=BLUE,HILIGHT=OFF
* 'FROM-GRANT-DATE-4005-CH16'
ZFLD021  DFHMDF POS=(06,23),LENGTH=0008,ATTRB=(UNPROT,IC),             X
               COLOR=DEFAULT,HILIGHT=UNDERLINE
         DFHMDF POS=(06,32),LENGTH=0,ATTRB=(ASKIP,NORM)
         DFHMDF POS=(06,33),LENGTH=0002,ATTRB=(PROT,ASKIP),            X
               INITIAL='TO',COLOR=BLUE,HILIGHT=OFF
* 'TO-GRANT-DATE-4005-CH16'
ZFLD022  DFHMDF POS=(06,37),LENGTH=0008,ATTRB=(UNPROT),COLOR=DEFAULT,  X
               HILIGHT=UNDERLINE
         DFHMDF POS=(06,46),LENGTH=0,ATTRB=(ASKIP,NORM)
         DFHMDF POS=(07,01),LENGTH=0021,ATTRB=(PROT,ASKIP),            X
               INITIAL='   UCSD AWARD NUMBER:',COLOR=BLUE,HILIGHT=OFF
* 'GRANT-CNTRCT-NMBR-4005-CH16'
ZFLD023  DFHMDF POS=(07,23),LENGTH=0020,ATTRB=(UNPROT),COLOR=DEFAULT,  X
               HILIGHT=UNDERLINE
         DFHMDF POS=(07,44),LENGTH=0,ATTRB=(ASKIP,NORM)
         DFHMDF POS=(08,01),LENGTH=0021,ATTRB=(PROT,ASKIP),            X
               INITIAL='       BUDGET PERIOD:',COLOR=BLUE,HILIGHT=OFF
* 'FROM-BDGT-DATE-4005-CH16'
ZFLD024  DFHMDF POS=(08,23),LENGTH=0008,ATTRB=(UNPROT),COLOR=DEFAULT,  X
               HILIGHT=UNDERLINE
         DFHMDF POS=(08,32),LENGTH=0,ATTRB=(ASKIP,NORM)
         DFHMDF POS=(08,33),LENGTH=0002,ATTRB=(PROT,ASKIP),            X
               INITIAL='TO',COLOR=BLUE,HILIGHT=OFF
* 'TO-BDGT-DATE-4005-CH16'
ZFLD025  DFHMDF POS=(08,37),LENGTH=0008,ATTRB=(UNPROT),COLOR=DEFAULT,  X
               HILIGHT=UNDERLINE
         DFHMDF POS=(08,46),LENGTH=0,ATTRB=(ASKIP,NORM)
         DFHMDF POS=(09,01),LENGTH=0021,ATTRB=(PROT,ASKIP),            X
               INITIAL='        INVESTIGATOR:',COLOR=BLUE,HILIGHT=OFF
* 'INVGR-CODE-4005-CH16'
ZFLD026  DFHMDF POS=(09,23),LENGTH=0009,ATTRB=(UNPROT),COLOR=DEFAULT,  X
               HILIGHT=UNDERLINE
         DFHMDF POS=(09,33),LENGTH=0,ATTRB=(ASKIP,NORM)
* 'INVGR-NAME-4005-CH16'
ZFLD027  DFHMDF POS=(09,37),LENGTH=0035,ATTRB=(PROT),COLOR=TURQUOISE,  X
               HILIGHT=OFF
         DFHMDF POS=(09,73),LENGTH=0,ATTRB=(ASKIP,NORM)
         DFHMDF POS=(10,01),LENGTH=0021,ATTRB=(PROT,ASKIP),            X
               INITIAL='         PRIMARY ORG:',COLOR=BLUE,HILIGHT=OFF
* 'PRIMARY-ORG-4005-CH16'
ZFLD028  DFHMDF POS=(10,23),LENGTH=0006,ATTRB=(UNPROT),COLOR=DEFAULT,  X
               HILIGHT=UNDERLINE
         DFHMDF POS=(10,35),LENGTH=0,ATTRB=(ASKIP,NORM)
* 'PRI-ORG-DESC-4005-CH16'
ZFLD029  DFHMDF POS=(10,37),LENGTH=0035,ATTRB=(PROT),COLOR=TURQUOISE,  X
               HILIGHT=OFF
         DFHMDF POS=(10,73),LENGTH=0,ATTRB=(ASKIP,NORM)
         DFHMDF POS=(11,01),LENGTH=0021,ATTRB=(PROT,ASKIP),            X
               INITIAL='   COST SHARE METHOD:',COLOR=BLUE,HILIGHT=OFF
* 'COST-SHARE-CODE-4005-CH16'
ZFLD030  DFHMDF POS=(11,23),LENGTH=0006,ATTRB=(UNPROT),COLOR=DEFAULT,  X
               HILIGHT=UNDERLINE
         DFHMDF POS=(11,30),LENGTH=0,ATTRB=(ASKIP,NORM)
* 'COST-SHARE-DESC-4005-CH16'
ZFLD031  DFHMDF POS=(11,37),LENGTH=0035,ATTRB=(PROT),COLOR=TURQUOISE,  X
               HILIGHT=OFF
         DFHMDF POS=(11,73),LENGTH=0,ATTRB=(ASKIP,NORM)
         DFHMDF POS=(12,01),LENGTH=0021,ATTRB=(PROT,ASKIP),            X
               INITIAL='  MAX COST SHARE AMT:',COLOR=BLUE,HILIGHT=OFF
* 'COST-SHARE-AMT-4005-CH16'
ZFLD032  DFHMDF POS=(12,23),LENGTH=0017,ATTRB=(UNPROT),COLOR=DEFAULT,  X
               HILIGHT=UNDERLINE
         DFHMDF POS=(12,41),LENGTH=0,ATTRB=(ASKIP,NORM)
         DFHMDF POS=(13,01),LENGTH=0021,ATTRB=(PROT,ASKIP),            X
               INITIAL='INDIRECT COST METHOD:',COLOR=BLUE,HILIGHT=OFF
* 'INDRT-COST-CODE-4005-CH16'
ZFLD033  DFHMDF POS=(13,23),LENGTH=0006,ATTRB=(UNPROT),COLOR=DEFAULT,  X
               HILIGHT=UNDERLINE
         DFHMDF POS=(13,30),LENGTH=0,ATTRB=(ASKIP,NORM)
* 'INDRT-COST-DESC-4005-CH16'
ZFLD034  DFHMDF POS=(13,37),LENGTH=0035,ATTRB=(PROT),COLOR=TURQUOISE,  X
               HILIGHT=OFF
         DFHMDF POS=(13,73),LENGTH=0,ATTRB=(ASKIP,NORM)
         DFHMDF POS=(14,01),LENGTH=0021,ATTRB=(PROT,ASKIP),            X
               INITIAL='          PAY METHOD:',COLOR=BLUE,HILIGHT=OFF
* 'PAY-MTHD-CODE-4005-CH16'
ZFLD035  DFHMDF POS=(14,23),LENGTH=0004,ATTRB=(UNPROT),COLOR=DEFAULT,  X
               HILIGHT=UNDERLINE
         DFHMDF POS=(14,28),LENGTH=0,ATTRB=(ASKIP,NORM)
* 'PAY-MTHD-DESC-4005-CH16'
ZFLD036  DFHMDF POS=(14,37),LENGTH=0035,ATTRB=(PROT),COLOR=TURQUOISE,  X
               HILIGHT=OFF
         DFHMDF POS=(14,73),LENGTH=0,ATTRB=(ASKIP,NORM)
         DFHMDF POS=(15,01),LENGTH=0021,ATTRB=(PROT,ASKIP),            X
               INITIAL='      FUNDING AGENCY:',COLOR=BLUE,HILIGHT=OFF
* 'AGNCY-LAST-NINE-4005-CH16'
ZFLD037  DFHMDF POS=(15,23),LENGTH=0011,ATTRB=(UNPROT),COLOR=DEFAULT,  X
               HILIGHT=UNDERLINE
         DFHMDF POS=(15,35),LENGTH=0,ATTRB=(ASKIP,NORM)
* 'AGNCY-NAME-4005-CH16'
ZFLD038  DFHMDF POS=(15,37),LENGTH=0035,ATTRB=(PROT),COLOR=TURQUOISE,  X
               HILIGHT=OFF
         DFHMDF POS=(15,73),LENGTH=0,ATTRB=(ASKIP,NORM)
         DFHMDF POS=(16,01),LENGTH=0021,ATTRB=(PROT,ASKIP),            X
               INITIAL='    AUTH FUNDING AMT:',COLOR=BLUE,HILIGHT=OFF
* 'ATHRD-FNDNG-AMT-4005-CH16'
ZFLD039  DFHMDF POS=(16,23),LENGTH=0018,ATTRB=(UNPROT),COLOR=DEFAULT,  X
               HILIGHT=UNDERLINE
         DFHMDF POS=(16,42),LENGTH=0,ATTRB=(ASKIP,NORM)
         DFHMDF POS=(17,01),LENGTH=0021,ATTRB=(PROT,ASKIP),            X
               INITIAL='        CUM AUTH AMT:',COLOR=BLUE,HILIGHT=OFF
* 'CUM-AUTH-AMT-4005-CH16'
ZFLD040  DFHMDF POS=(17,23),LENGTH=0018,ATTRB=(UNPROT),COLOR=DEFAULT,  X
               HILIGHT=UNDERLINE
         DFHMDF POS=(17,42),LENGTH=0,ATTRB=(ASKIP,NORM)
         DFHMDF POS=(18,01),LENGTH=0021,ATTRB=(PROT,ASKIP),            X
               INITIAL='            PMS CODE:',COLOR=BLUE,HILIGHT=OFF
* 'PMS-CODE-4005-CH16'
ZFLD041  DFHMDF POS=(18,23),LENGTH=0015,ATTRB=(UNPROT),COLOR=DEFAULT,  X
               HILIGHT=UNDERLINE
         DFHMDF POS=(18,39),LENGTH=0,ATTRB=(ASKIP,NORM)
         DFHMDF POS=(19,01),LENGTH=0021,ATTRB=(PROT,ASKIP),            X
               INITIAL='        REPORT CYCLE:',COLOR=BLUE,HILIGHT=OFF
* 'RPRT-CYCLE-4005-CH16'
ZFLD042  DFHMDF POS=(19,23),LENGTH=0001,ATTRB=(UNPROT),COLOR=DEFAULT,  X
               HILIGHT=UNDERLINE
         DFHMDF POS=(19,25),LENGTH=0,ATTRB=(ASKIP,NORM)
* 'RPRT-CYCLE-DESC-4005-CH16'
ZFLD043  DFHMDF POS=(19,28),LENGTH=0035,ATTRB=(PROT),COLOR=TURQUOISE,  X
               HILIGHT=OFF
         DFHMDF POS=(19,64),LENGTH=0,ATTRB=(ASKIP,NORM)
         DFHMDF POS=(20,01),LENGTH=0021,ATTRB=(PROT,ASKIP),            X
               INITIAL='      BILLING FORMAT:',COLOR=BLUE,HILIGHT=OFF
* 'BLLNG-FRMT-4005-CH16'
ZFLD044  DFHMDF POS=(20,23),LENGTH=0001,ATTRB=(UNPROT),COLOR=DEFAULT,  X
               HILIGHT=UNDERLINE
         DFHMDF POS=(20,25),LENGTH=0,ATTRB=(ASKIP,NORM)
* 'BLLNG-FRMT-DESC-4005-CH16'
ZFLD045  DFHMDF POS=(20,28),LENGTH=0035,ATTRB=(PROT),COLOR=TURQUOISE,  X
               HILIGHT=OFF
         DFHMDF POS=(20,64),LENGTH=0,ATTRB=(ASKIP,NORM)
         DFHMDF POS=(21,01),LENGTH=0021,ATTRB=(PROT,ASKIP),            X
               INITIAL='  FUND COMPLETE(Y/N):',COLOR=BLUE,HILIGHT=OFF
* 'CMPLT-IND-4005-CH16'
ZFLD046  DFHMDF POS=(21,23),LENGTH=0001,ATTRB=(UNPROT),COLOR=DEFAULT,  X
               HILIGHT=UNDERLINE
         DFHMDF POS=(21,25),LENGTH=0,ATTRB=(ASKIP,NORM)
* 'DCLINK-MESSAGE'
ZFLD047  DFHMDF POS=(21,80),LENGTH=0160,ATTRB=(PROT,BRT),              X
               COLOR=DEFAULT,HILIGHT=OFF
         DFHMDF POS=(24,01),LENGTH=0012,ATTRB=(PROT,ASKIP,NUM),        X
               INITIAL='NEXT SCREEN:',COLOR=BLUE,HILIGHT=OFF
* 'AGR-PASSED-ONE'
ZFLD048  DFHMDF POS=(24,14),LENGTH=0030,ATTRB=(UNPROT),COLOR=DEFAULT,  X
               HILIGHT=UNDERLINE
         DFHMDF POS=(24,45),LENGTH=0009,ATTRB=(PROT,ASKIP),            X
               INITIAL='RESPONSE:',COLOR=BLUE,HILIGHT=OFF
* 'AGR-MAP-RESPONSE'
ZFLD049  DFHMDF POS=(24,55),LENGTH=0008,ATTRB=(UNPROT),COLOR=DEFAULT,  X
               HILIGHT=UNDERLINE
         DFHMDF POS=(24,64),LENGTH=0,ATTRB=(ASKIP,NORM)
* 'ERROR-TEXT-SY00'
ZFLD050  DFHMDF POS=(24,65),LENGTH=0014,ATTRB=(PROT,DRK),              X
               COLOR=DEFAULT,HILIGHT=OFF
         DFHMSD TYPE=FINAL
         END
