FCHMU54  DFHMSD TYPE=MAP,LANG=COBOL,TERM=3270,MODE=INOUT,              X
               TIOAPFX=YES,MAPATTS=(COLOR,HILIGHT),                    X
               DSATTS=(COLOR,HILIGHT)
FCHMU54  DFHMDI SIZE=(24,80),LINE=1,COLUMN=1,CTRL=FREEKB,TIOAPFX=YES
         DFHMDF POS=(01,01),LENGTH=0007,ATTRB=(PROT,ASKIP),            X
               INITIAL='FCHMU54',COLOR=BLUE,HILIGHT=OFF
* 'TRMNL-ID-SY00'
ZFLD002  DFHMDF POS=(01,10),LENGTH=0008,ATTRB=(PROT),COLOR=BLUE,       X
               HILIGHT=OFF
         DFHMDF POS=(01,19),LENGTH=0,ATTRB=(ASKIP,NORM)
* 'FULL-NAME-6001-SY00'
ZFLD003  DFHMDF POS=(01,23),LENGTH=0035,ATTRB=(PROT),COLOR=BLUE,       X
               HILIGHT=OFF
         DFHMDF POS=(01,59),LENGTH=0,ATTRB=(ASKIP,NORM)
* 'AGR-DATE'
ZFLD004  DFHMDF POS=(01,64),LENGTH=0008,ATTRB=(PROT),COLOR=BLUE,       X
               HILIGHT=OFF
* 'WORK-HH-MM-TIME-SY00'
ZFLD005  DFHMDF POS=(01,73),LENGTH=0005,ATTRB=(PROT),COLOR=BLUE,       X
               HILIGHT=OFF
* 'AM-PM-FLAG-SY00'
ZFLD006  DFHMDF POS=(01,79),LENGTH=0001,ATTRB=(PROT),COLOR=BLUE,       X
               HILIGHT=OFF
* 'AGR-USER-ID'
ZFLD007  DFHMDF POS=(02,01),LENGTH=0008,ATTRB=(PROT),COLOR=BLUE,       X
               HILIGHT=OFF
         DFHMDF POS=(02,10),LENGTH=0,ATTRB=(ASKIP,NORM)
* 'CURR-RSPNS-ID-SY00'
ZFLD008  DFHMDF POS=(02,21),LENGTH=0008,ATTRB=(PROT,BRT),              X
               COLOR=DEFAULT,HILIGHT=OFF
         DFHMDF POS=(02,30),LENGTH=0001,ATTRB=(PROT,ASKIP,BRT),        X
               INITIAL=':',COLOR=DEFAULT,HILIGHT=OFF
* 'AGR-FUNC-DESCRIPTION'
ZFLD009  DFHMDF POS=(02,32),LENGTH=0028,ATTRB=(PROT,BRT),              X
               COLOR=DEFAULT,HILIGHT=OFF
         DFHMDF POS=(02,61),LENGTH=0,ATTRB=(ASKIP,NORM)
* 'PAGE-STATUS-CODE-SY00'
ZFLD010  DFHMDF POS=(02,64),LENGTH=0010,ATTRB=(PROT,BRT),              X
               COLOR=DEFAULT,HILIGHT=OFF
         DFHMDF POS=(02,75),LENGTH=0,ATTRB=(ASKIP,NORM)
* 'DCSD-TEXT-SY01'
ZFLD011  DFHMDF POS=(03,52),LENGTH=0008,ATTRB=(PROT,DRK),              X
               COLOR=DEFAULT,HILIGHT=OFF
         DFHMDF POS=(03,61),LENGTH=0,ATTRB=(ASKIP,NORM)
* 'CNFDL-TEXT-SY01'
ZFLD012  DFHMDF POS=(03,62),LENGTH=0011,ATTRB=(PROT,DRK),              X
               COLOR=DEFAULT,HILIGHT=OFF
         DFHMDF POS=(03,74),LENGTH=0,ATTRB=(ASKIP,NORM)
* 'HOLDS-TEXT-SY01'
ZFLD013  DFHMDF POS=(03,75),LENGTH=0005,ATTRB=(PROT,DRK),              X
               COLOR=DEFAULT,HILIGHT=OFF
         DFHMDF POS=(04,01),LENGTH=0,ATTRB=(ASKIP,NORM)
         DFHMDF POS=(05,01),LENGTH=0016,ATTRB=(PROT,ASKIP),            X
               INITIAL='       ACT(ACD):',COLOR=BLUE,HILIGHT=OFF
* 'ACTN-CODE-CH54'
ZFLD014  DFHMDF POS=(05,18),LENGTH=0001,ATTRB=(UNPROT,IC),             X
               COLOR=DEFAULT,HILIGHT=OFF
         DFHMDF POS=(05,20),LENGTH=0,ATTRB=(ASKIP,NORM)
         DFHMDF POS=(5,27),LENGTH=21,INITIAL='COPY FROM RULE CLASS:',  *00000610
               ATTRB=(ASKIP,NORM),COLOR=BLUE                            00000620
* RULE-CLASS-CODE-COPY-CH54       COPY-RULE-CLASS-CODE                  00000630
COPY-RULE-CLASS-CODE DFHMDF POS=(5,49),LENGTH=4,ATTRB=(UNPROT,NORM),   *00000640
               HILIGHT=UNDERLINE                                        00000650
         DFHMDF POS=(5,54),LENGTH=1,ATTRB=(ASKIP,NORM)                  00000660
         DFHMDF POS=(06,01),LENGTH=0016,ATTRB=(PROT,ASKIP),            X
               INITIAL='     RULE CLASS:',COLOR=BLUE,HILIGHT=OFF
* 'RULE-CLASS-CODE-4180-CH54'
ZFLD015  DFHMDF POS=(06,18),LENGTH=0004,ATTRB=(UNPROT),COLOR=DEFAULT,  X
               HILIGHT=UNDERLINE
         DFHMDF POS=(06,23),LENGTH=0,ATTRB=(ASKIP,NORM)
* 'RULE-CLASS-DESC-4181-CH54'
ZFLD016  DFHMDF POS=(06,27),LENGTH=0035,ATTRB=(UNPROT),COLOR=DEFAULT,  X
               HILIGHT=UNDERLINE
         DFHMDF POS=(06,63),LENGTH=0,ATTRB=(ASKIP,NORM)
         DFHMDF POS=(07,01),LENGTH=0016,ATTRB=(PROT,ASKIP),            X
               INITIAL='     CLASS TYPE:',COLOR=BLUE,HILIGHT=OFF
* 'RULE-CLASS-TYPE-4181-CH54'
ZFLD017  DFHMDF POS=(07,18),LENGTH=0001,ATTRB=(UNPROT),COLOR=DEFAULT,  X
               HILIGHT=UNDERLINE
         DFHMDF POS=(07,20),LENGTH=0,ATTRB=(ASKIP,NORM)
* 'RULE-CLASS-TYPE-DESC-4181-CH54'
ZFLD018  DFHMDF POS=(07,27),LENGTH=0035,ATTRB=(PROT),COLOR=TURQUOISE,  X
               HILIGHT=OFF
         DFHMDF POS=(07,63),LENGTH=0,ATTRB=(ASKIP,NORM)
         DFHMDF POS=(08,01),LENGTH=0016,ATTRB=(PROT,ASKIP),            X
               INITIAL=' RESERVE BUDGET:',COLOR=BLUE,HILIGHT=OFF
* 'RSRV-BDGT-IND-4181-CH54'
ZFLD019  DFHMDF POS=(08,18),LENGTH=0001,ATTRB=(UNPROT),COLOR=DEFAULT,  X
               HILIGHT=UNDERLINE
         DFHMDF POS=(08,20),LENGTH=0,ATTRB=(ASKIP,NORM)
* 'RSRV-BDGT-DESC-4181-CH54'
ZFLD020  DFHMDF POS=(08,27),LENGTH=0035,ATTRB=(PROT),COLOR=TURQUOISE,  X
               HILIGHT=OFF
         DFHMDF POS=(08,63),LENGTH=0,ATTRB=(ASKIP,NORM)
         DFHMDF POS=(09,01),LENGTH=0016,ATTRB=(PROT,ASKIP),            X
               INITIAL=' BALANCE METHOD:',COLOR=BLUE,HILIGHT=OFF
* 'BAL-MTHD-IND-4181-CH54'
ZFLD021  DFHMDF POS=(09,18),LENGTH=0001,ATTRB=(UNPROT),COLOR=DEFAULT,  X
               HILIGHT=UNDERLINE
         DFHMDF POS=(09,20),LENGTH=0,ATTRB=(ASKIP,NORM)
* 'BAL-MTHD-DESC-4181-CH54'
ZFLD022  DFHMDF POS=(09,27),LENGTH=0035,ATTRB=(PROT),COLOR=TURQUOISE,  X
               HILIGHT=OFF
         DFHMDF POS=(09,63),LENGTH=0,ATTRB=(ASKIP,NORM)
         DFHMDF POS=(10,01),LENGTH=0016,ATTRB=(PROT,ASKIP),            X
               INITIAL='     EFCTV DATE:',COLOR=BLUE,HILIGHT=OFF
* 'START-DATE-4181-CH54'
ZFLD023  DFHMDF POS=(10,18),LENGTH=0008,ATTRB=(UNPROT),COLOR=DEFAULT,  X
               HILIGHT=UNDERLINE
         DFHMDF POS=(10,27),LENGTH=0,ATTRB=(ASKIP,NORM)
         DFHMDF POS=(10,29),LENGTH=0017,ATTRB=(PROT,ASKIP),            X
               INITIAL='NEXT CHANGE DATE:',COLOR=BLUE,HILIGHT=OFF
* 'NEXT-CHNG-DATE-CH54'
ZFLD024  DFHMDF POS=(10,47),LENGTH=0008,ATTRB=(PROT),COLOR=TURQUOISE,  X
               HILIGHT=OFF
         DFHMDF POS=(10,56),LENGTH=0,ATTRB=(ASKIP,NORM)
         DFHMDF POS=(10,60),LENGTH=0007,ATTRB=(PROT,ASKIP),            X
               INITIAL='STATUS:',COLOR=BLUE,HILIGHT=OFF
* 'STATUS-DESC-4181-CH54'
ZFLD025  DFHMDF POS=(10,69),LENGTH=0008,ATTRB=(PROT),COLOR=TURQUOISE,  X
               HILIGHT=OFF
         DFHMDF POS=(10,78),LENGTH=0,ATTRB=(ASKIP,NORM)
         DFHMDF POS=(11,01),LENGTH=0016,ATTRB=(PROT,ASKIP),            X
               INITIAL='      TERM DATE:',COLOR=BLUE,HILIGHT=OFF
* 'END-DATE-4181-CH54'
ZFLD026  DFHMDF POS=(11,18),LENGTH=0008,ATTRB=(UNPROT),COLOR=DEFAULT,  X
               HILIGHT=UNDERLINE
         DFHMDF POS=(11,27),LENGTH=0,ATTRB=(ASKIP,NORM)
         DFHMDF POS=(11,29),LENGTH=0019,ATTRB=(PROT,ASKIP),            X
               INITIAL='LAST ACTIVITY DATE:',COLOR=BLUE,HILIGHT=OFF
* 'ACTVY-DATE-4180-CH54'
ZFLD027  DFHMDF POS=(11,49),LENGTH=0008,ATTRB=(PROT),COLOR=TURQUOISE,  X
               HILIGHT=OFF
         DFHMDF POS=(11,58),LENGTH=0,ATTRB=(ASKIP,NORM)
         DFHMDF POS=(11,60),LENGTH=0011,ATTRB=(PROT,ASKIP),            X
               INITIAL='EFCTV TIME:',COLOR=BLUE,HILIGHT=OFF
* 'TIME-STAMP-4181-CH54'
ZFLD028  DFHMDF POS=(11,72),LENGTH=0005,ATTRB=(PROT),COLOR=TURQUOISE,  X
               HILIGHT=OFF
         DFHMDF POS=(11,78),LENGTH=0,ATTRB=(ASKIP,NORM)
* 'AM-PM-FLAG-CH54'
ZFLD029  DFHMDF POS=(11,79),LENGTH=0001,ATTRB=(PROT),COLOR=TURQUOISE,  X
               HILIGHT=OFF
         DFHMDF POS=(12,01),LENGTH=0016,ATTRB=(PROT,ASKIP),            X
               INITIAL=' COMPLETE (Y/N):',COLOR=BLUE,HILIGHT=OFF
* 'CMPLT-IND-4181-CH54'
ZFLD030  DFHMDF POS=(12,18),LENGTH=0001,ATTRB=(UNPROT),COLOR=DEFAULT,  X
               HILIGHT=UNDERLINE
         DFHMDF POS=(12,20),LENGTH=0,ATTRB=(ASKIP,NORM)
* 'DCLINK-MESSAGE'
ZFLD031  DFHMDF POS=(21,80),LENGTH=0160,ATTRB=(PROT,BRT),              X
               COLOR=DEFAULT,HILIGHT=OFF
         DFHMDF POS=(24,01),LENGTH=0012,ATTRB=(PROT,ASKIP,NUM),        X
               INITIAL='NEXT SCREEN:',COLOR=BLUE,HILIGHT=OFF
* 'AGR-PASSED-ONE'
ZFLD032  DFHMDF POS=(24,14),LENGTH=0030,ATTRB=(UNPROT),COLOR=DEFAULT,  X
               HILIGHT=UNDERLINE
         DFHMDF POS=(24,45),LENGTH=0009,ATTRB=(PROT,ASKIP),            X
               INITIAL='RESPONSE:',COLOR=BLUE,HILIGHT=OFF
* 'AGR-MAP-RESPONSE'
ZFLD033  DFHMDF POS=(24,55),LENGTH=0008,ATTRB=(UNPROT),COLOR=DEFAULT,  X
               HILIGHT=UNDERLINE
         DFHMDF POS=(24,64),LENGTH=0,ATTRB=(ASKIP,NORM)
* 'ERROR-TEXT-SY00'
ZFLD034  DFHMDF POS=(24,65),LENGTH=0014,ATTRB=(PROT,DRK),              X
               COLOR=DEFAULT,HILIGHT=OFF
         DFHMSD TYPE=FINAL
         END
