FCHMI63  DFHMSD TYPE=MAP,LANG=COBOL,TERM=3270,MODE=INOUT,              X
               TIOAPFX=YES,MAPATTS=(COLOR,HILIGHT),                    X
               DSATTS=(COLOR,HILIGHT)
FCHMI63  DFHMDI SIZE=(24,80),LINE=1,COLUMN=1,CTRL=FREEKB,TIOAPFX=YES
         DFHMDF POS=(01,01),LENGTH=0007,ATTRB=(PROT,ASKIP),            X
               INITIAL='FCHMI63',COLOR=BLUE,HILIGHT=OFF
* 'TRMNL-ID-SY00'
ZFLD002  DFHMDF POS=(01,10),LENGTH=0008,ATTRB=(PROT),COLOR=BLUE,       X
               HILIGHT=OFF
         DFHMDF POS=(01,19),LENGTH=0,ATTRB=(ASKIP,NORM)
* 'FULL-NAME-6001-SY00'
ZFLD003  DFHMDF POS=(01,23),LENGTH=0035,ATTRB=(PROT),COLOR=BLUE,       X
               HILIGHT=OFF
         DFHMDF POS=(01,59),LENGTH=0,ATTRB=(ASKIP,NORM)
* 'AGR-DATE'
ZFLD004  DFHMDF POS=(01,64),LENGTH=0008,ATTRB=(PROT),COLOR=BLUE,       X
               HILIGHT=OFF
* 'WORK-HH-MM-TIME-SY00'
ZFLD005  DFHMDF POS=(01,73),LENGTH=0005,ATTRB=(PROT),COLOR=BLUE,       X
               HILIGHT=OFF
* 'AM-PM-FLAG-SY00'
ZFLD006  DFHMDF POS=(01,79),LENGTH=0001,ATTRB=(PROT),COLOR=BLUE,       X
               HILIGHT=OFF
* 'AGR-USER-ID'
ZFLD007  DFHMDF POS=(02,01),LENGTH=0008,ATTRB=(PROT),COLOR=BLUE,       X
               HILIGHT=OFF
         DFHMDF POS=(02,10),LENGTH=0,ATTRB=(ASKIP,NORM)
* 'CURR-RSPNS-ID-SY00'
ZFLD008  DFHMDF POS=(02,21),LENGTH=0008,ATTRB=(PROT,BRT),              X
               COLOR=DEFAULT,HILIGHT=OFF
         DFHMDF POS=(02,30),LENGTH=0001,ATTRB=(PROT,ASKIP,BRT),        X
               INITIAL=':',COLOR=DEFAULT,HILIGHT=OFF
* 'AGR-FUNC-DESCRIPTION'
ZFLD009  DFHMDF POS=(02,32),LENGTH=0028,ATTRB=(PROT,BRT),              X
               COLOR=DEFAULT,HILIGHT=OFF
         DFHMDF POS=(02,61),LENGTH=0,ATTRB=(ASKIP,NORM)
* 'PAGE-STATUS-CODE-SY00'
ZFLD010  DFHMDF POS=(02,64),LENGTH=0010,ATTRB=(PROT,BRT),              X
               COLOR=DEFAULT,HILIGHT=OFF
         DFHMDF POS=(02,75),LENGTH=0,ATTRB=(ASKIP,NORM)
         DFHMDF POS=(04,01),LENGTH=0015,ATTRB=(PROT,ASKIP),            X
               INITIAL='SELECTION DATE:',COLOR=BLUE,HILIGHT=OFF
* 'SLCTN-DATE-CH63'
ZFLD011  DFHMDF POS=(04,17),LENGTH=0008,ATTRB=(UNPROT,IC),             X
               COLOR=DEFAULT,HILIGHT=UNDERLINE
         DFHMDF POS=(04,26),LENGTH=0,ATTRB=(ASKIP,NORM)
         DFHMDF POS=(04,32),LENGTH=0025,ATTRB=(PROT,ASKIP),            X
               INITIAL='SELECTION STATUS (A,B,I):',COLOR=BLUE,         X
               HILIGHT=OFF
* 'SLCTN-STATUS-CH63'
ZFLD012  DFHMDF POS=(04,58),LENGTH=0001,ATTRB=(UNPROT),COLOR=DEFAULT,  X
               HILIGHT=UNDERLINE
         DFHMDF POS=(04,60),LENGTH=0,ATTRB=(ASKIP,NORM)
         DFHMDF POS=(06,01),LENGTH=0078,ATTRB=(PROT,ASKIP),            X
               INITIAL='ACT COA   FUND                  TITLE          X
                    STATUS EFFECTIVE TERMINATE',COLOR=BLUE,            X
               HILIGHT=OFF
         DFHMDF POS=(07,01),LENGTH=0076,ATTRB=(PROT,ASKIP),            X
               INITIAL='(AL)      CODE                                 X
                              DATE      DATE',COLOR=BLUE,HILIGHT=OFF
* 'ACTN-CODE-CH63'
ZFLD013  DFHMDF POS=(08,01),LENGTH=0001,ATTRB=(UNPROT),COLOR=DEFAULT,  X
               HILIGHT=OFF
         DFHMDF POS=(08,03),LENGTH=0,ATTRB=(ASKIP,NORM)
* 'COA-CODE-4001-CH63'
ZFLD014  DFHMDF POS=(08,06),LENGTH=0001,ATTRB=(PROT,ASKIP),            X
               COLOR=TURQUOISE,HILIGHT=OFF
         DFHMDF POS=(08,08),LENGTH=0,ATTRB=(ASKIP,NORM)
* 'FUND-CODE-4001-CH63'
ZFLD015  DFHMDF POS=(08,10),LENGTH=0006,ATTRB=(PROT,ASKIP),            X
               COLOR=TURQUOISE,HILIGHT=OFF
         DFHMDF POS=(08,17),LENGTH=0,ATTRB=(ASKIP,NORM)
* 'FUND-TITLE-4005-CH63'
ZFLD016  DFHMDF POS=(08,18),LENGTH=0035,ATTRB=(PROT,ASKIP),            X
               COLOR=TURQUOISE,HILIGHT=OFF
         DFHMDF POS=(08,54),LENGTH=0,ATTRB=(ASKIP,NORM)
* 'STATUS-4005-CH63'
ZFLD017  DFHMDF POS=(08,56),LENGTH=0001,ATTRB=(PROT,ASKIP),            X
               COLOR=TURQUOISE,HILIGHT=OFF
         DFHMDF POS=(08,58),LENGTH=0,ATTRB=(ASKIP,NORM)
* 'START-DATE-4005-CH63'
ZFLD018  DFHMDF POS=(08,61),LENGTH=0008,ATTRB=(PROT,ASKIP),            X
               COLOR=TURQUOISE,HILIGHT=OFF
         DFHMDF POS=(08,70),LENGTH=0,ATTRB=(ASKIP,NORM)
* 'END-DATE-4005-CH63'
ZFLD019  DFHMDF POS=(08,71),LENGTH=0008,ATTRB=(PROT,ASKIP),            X
               COLOR=TURQUOISE,HILIGHT=OFF
         DFHMDF POS=(08,80),LENGTH=0,ATTRB=(ASKIP,NORM)
* 'ACTN-CODE-CH63'
ZFLD020  DFHMDF POS=(09,01),LENGTH=0001,ATTRB=(UNPROT),COLOR=DEFAULT,  X
               HILIGHT=OFF
         DFHMDF POS=(09,03),LENGTH=0,ATTRB=(ASKIP,NORM)
* 'COA-CODE-4001-CH63'
ZFLD021  DFHMDF POS=(09,06),LENGTH=0001,ATTRB=(PROT,ASKIP),            X
               COLOR=TURQUOISE,HILIGHT=OFF
         DFHMDF POS=(09,08),LENGTH=0,ATTRB=(ASKIP,NORM)
* 'FUND-CODE-4001-CH63'
ZFLD022  DFHMDF POS=(09,10),LENGTH=0006,ATTRB=(PROT,ASKIP),            X
               COLOR=TURQUOISE,HILIGHT=OFF
         DFHMDF POS=(09,17),LENGTH=0,ATTRB=(ASKIP,NORM)
* 'FUND-TITLE-4005-CH63'
ZFLD023  DFHMDF POS=(09,18),LENGTH=0035,ATTRB=(PROT,ASKIP),            X
               COLOR=TURQUOISE,HILIGHT=OFF
         DFHMDF POS=(09,54),LENGTH=0,ATTRB=(ASKIP,NORM)
* 'STATUS-4005-CH63'
ZFLD024  DFHMDF POS=(09,56),LENGTH=0001,ATTRB=(PROT,ASKIP),            X
               COLOR=TURQUOISE,HILIGHT=OFF
         DFHMDF POS=(09,58),LENGTH=0,ATTRB=(ASKIP,NORM)
* 'START-DATE-4005-CH63'
ZFLD025  DFHMDF POS=(09,61),LENGTH=0008,ATTRB=(PROT,ASKIP),            X
               COLOR=TURQUOISE,HILIGHT=OFF
         DFHMDF POS=(09,70),LENGTH=0,ATTRB=(ASKIP,NORM)
* 'END-DATE-4005-CH63'
ZFLD026  DFHMDF POS=(09,71),LENGTH=0008,ATTRB=(PROT,ASKIP),            X
               COLOR=TURQUOISE,HILIGHT=OFF
         DFHMDF POS=(09,80),LENGTH=0,ATTRB=(ASKIP,NORM)
* 'ACTN-CODE-CH63'
ZFLD027  DFHMDF POS=(10,01),LENGTH=0001,ATTRB=(UNPROT),COLOR=DEFAULT,  X
               HILIGHT=OFF
         DFHMDF POS=(10,03),LENGTH=0,ATTRB=(ASKIP,NORM)
* 'COA-CODE-4001-CH63'
ZFLD028  DFHMDF POS=(10,06),LENGTH=0001,ATTRB=(PROT,ASKIP),            X
               COLOR=TURQUOISE,HILIGHT=OFF
         DFHMDF POS=(10,08),LENGTH=0,ATTRB=(ASKIP,NORM)
* 'FUND-CODE-4001-CH63'
ZFLD029  DFHMDF POS=(10,10),LENGTH=0006,ATTRB=(PROT,ASKIP),            X
               COLOR=TURQUOISE,HILIGHT=OFF
         DFHMDF POS=(10,17),LENGTH=0,ATTRB=(ASKIP,NORM)
* 'FUND-TITLE-4005-CH63'
ZFLD030  DFHMDF POS=(10,18),LENGTH=0035,ATTRB=(PROT,ASKIP),            X
               COLOR=TURQUOISE,HILIGHT=OFF
         DFHMDF POS=(10,54),LENGTH=0,ATTRB=(ASKIP,NORM)
* 'STATUS-4005-CH63'
ZFLD031  DFHMDF POS=(10,56),LENGTH=0001,ATTRB=(PROT,ASKIP),            X
               COLOR=TURQUOISE,HILIGHT=OFF
         DFHMDF POS=(10,58),LENGTH=0,ATTRB=(ASKIP,NORM)
* 'START-DATE-4005-CH63'
ZFLD032  DFHMDF POS=(10,61),LENGTH=0008,ATTRB=(PROT,ASKIP),            X
               COLOR=TURQUOISE,HILIGHT=OFF
         DFHMDF POS=(10,70),LENGTH=0,ATTRB=(ASKIP,NORM)
* 'END-DATE-4005-CH63'
ZFLD033  DFHMDF POS=(10,71),LENGTH=0008,ATTRB=(PROT,ASKIP),            X
               COLOR=TURQUOISE,HILIGHT=OFF
         DFHMDF POS=(10,80),LENGTH=0,ATTRB=(ASKIP,NORM)
* 'ACTN-CODE-CH63'
ZFLD034  DFHMDF POS=(11,01),LENGTH=0001,ATTRB=(UNPROT),COLOR=DEFAULT,  X
               HILIGHT=OFF
         DFHMDF POS=(11,03),LENGTH=0,ATTRB=(ASKIP,NORM)
* 'COA-CODE-4001-CH63'
ZFLD035  DFHMDF POS=(11,06),LENGTH=0001,ATTRB=(PROT,ASKIP),            X
               COLOR=TURQUOISE,HILIGHT=OFF
         DFHMDF POS=(11,08),LENGTH=0,ATTRB=(ASKIP,NORM)
* 'FUND-CODE-4001-CH63'
ZFLD036  DFHMDF POS=(11,10),LENGTH=0006,ATTRB=(PROT,ASKIP),            X
               COLOR=TURQUOISE,HILIGHT=OFF
         DFHMDF POS=(11,17),LENGTH=0,ATTRB=(ASKIP,NORM)
* 'FUND-TITLE-4005-CH63'
ZFLD037  DFHMDF POS=(11,18),LENGTH=0035,ATTRB=(PROT,ASKIP),            X
               COLOR=TURQUOISE,HILIGHT=OFF
         DFHMDF POS=(11,54),LENGTH=0,ATTRB=(ASKIP,NORM)
* 'STATUS-4005-CH63'
ZFLD038  DFHMDF POS=(11,56),LENGTH=0001,ATTRB=(PROT,ASKIP),            X
               COLOR=TURQUOISE,HILIGHT=OFF
         DFHMDF POS=(11,58),LENGTH=0,ATTRB=(ASKIP,NORM)
* 'START-DATE-4005-CH63'
ZFLD039  DFHMDF POS=(11,61),LENGTH=0008,ATTRB=(PROT,ASKIP),            X
               COLOR=TURQUOISE,HILIGHT=OFF
         DFHMDF POS=(11,70),LENGTH=0,ATTRB=(ASKIP,NORM)
* 'END-DATE-4005-CH63'
ZFLD040  DFHMDF POS=(11,71),LENGTH=0008,ATTRB=(PROT,ASKIP),            X
               COLOR=TURQUOISE,HILIGHT=OFF
         DFHMDF POS=(11,80),LENGTH=0,ATTRB=(ASKIP,NORM)
* 'ACTN-CODE-CH63'
ZFLD041  DFHMDF POS=(12,01),LENGTH=0001,ATTRB=(UNPROT),COLOR=DEFAULT,  X
               HILIGHT=OFF
         DFHMDF POS=(12,03),LENGTH=0,ATTRB=(ASKIP,NORM)
* 'COA-CODE-4001-CH63'
ZFLD042  DFHMDF POS=(12,06),LENGTH=0001,ATTRB=(PROT,ASKIP),            X
               COLOR=TURQUOISE,HILIGHT=OFF
         DFHMDF POS=(12,08),LENGTH=0,ATTRB=(ASKIP,NORM)
* 'FUND-CODE-4001-CH63'
ZFLD043  DFHMDF POS=(12,10),LENGTH=0006,ATTRB=(PROT,ASKIP),            X
               COLOR=TURQUOISE,HILIGHT=OFF
         DFHMDF POS=(12,17),LENGTH=0,ATTRB=(ASKIP,NORM)
* 'FUND-TITLE-4005-CH63'
ZFLD044  DFHMDF POS=(12,18),LENGTH=0035,ATTRB=(PROT,ASKIP),            X
               COLOR=TURQUOISE,HILIGHT=OFF
         DFHMDF POS=(12,54),LENGTH=0,ATTRB=(ASKIP,NORM)
* 'STATUS-4005-CH63'
ZFLD045  DFHMDF POS=(12,56),LENGTH=0001,ATTRB=(PROT,ASKIP),            X
               COLOR=TURQUOISE,HILIGHT=OFF
         DFHMDF POS=(12,58),LENGTH=0,ATTRB=(ASKIP,NORM)
* 'START-DATE-4005-CH63'
ZFLD046  DFHMDF POS=(12,61),LENGTH=0008,ATTRB=(PROT,ASKIP),            X
               COLOR=TURQUOISE,HILIGHT=OFF
         DFHMDF POS=(12,70),LENGTH=0,ATTRB=(ASKIP,NORM)
* 'END-DATE-4005-CH63'
ZFLD047  DFHMDF POS=(12,71),LENGTH=0008,ATTRB=(PROT,ASKIP),            X
               COLOR=TURQUOISE,HILIGHT=OFF
         DFHMDF POS=(12,80),LENGTH=0,ATTRB=(ASKIP,NORM)
* 'ACTN-CODE-CH63'
ZFLD048  DFHMDF POS=(13,01),LENGTH=0001,ATTRB=(UNPROT),COLOR=DEFAULT,  X
               HILIGHT=OFF
         DFHMDF POS=(13,03),LENGTH=0,ATTRB=(ASKIP,NORM)
* 'COA-CODE-4001-CH63'
ZFLD049  DFHMDF POS=(13,06),LENGTH=0001,ATTRB=(PROT,ASKIP),            X
               COLOR=TURQUOISE,HILIGHT=OFF
         DFHMDF POS=(13,08),LENGTH=0,ATTRB=(ASKIP,NORM)
* 'FUND-CODE-4001-CH63'
ZFLD050  DFHMDF POS=(13,10),LENGTH=0006,ATTRB=(PROT,ASKIP),            X
               COLOR=TURQUOISE,HILIGHT=OFF
         DFHMDF POS=(13,17),LENGTH=0,ATTRB=(ASKIP,NORM)
* 'FUND-TITLE-4005-CH63'
ZFLD051  DFHMDF POS=(13,18),LENGTH=0035,ATTRB=(PROT,ASKIP),            X
               COLOR=TURQUOISE,HILIGHT=OFF
         DFHMDF POS=(13,54),LENGTH=0,ATTRB=(ASKIP,NORM)
* 'STATUS-4005-CH63'
ZFLD052  DFHMDF POS=(13,56),LENGTH=0001,ATTRB=(PROT,ASKIP),            X
               COLOR=TURQUOISE,HILIGHT=OFF
         DFHMDF POS=(13,58),LENGTH=0,ATTRB=(ASKIP,NORM)
* 'START-DATE-4005-CH63'
ZFLD053  DFHMDF POS=(13,61),LENGTH=0008,ATTRB=(PROT,ASKIP),            X
               COLOR=TURQUOISE,HILIGHT=OFF
         DFHMDF POS=(13,70),LENGTH=0,ATTRB=(ASKIP,NORM)
* 'END-DATE-4005-CH63'
ZFLD054  DFHMDF POS=(13,71),LENGTH=0008,ATTRB=(PROT,ASKIP),            X
               COLOR=TURQUOISE,HILIGHT=OFF
         DFHMDF POS=(13,80),LENGTH=0,ATTRB=(ASKIP,NORM)
* 'ACTN-CODE-CH63'
ZFLD055  DFHMDF POS=(14,01),LENGTH=0001,ATTRB=(UNPROT),COLOR=DEFAULT,  X
               HILIGHT=OFF
         DFHMDF POS=(14,03),LENGTH=0,ATTRB=(ASKIP,NORM)
* 'COA-CODE-4001-CH63'
ZFLD056  DFHMDF POS=(14,06),LENGTH=0001,ATTRB=(PROT,ASKIP),            X
               COLOR=TURQUOISE,HILIGHT=OFF
         DFHMDF POS=(14,08),LENGTH=0,ATTRB=(ASKIP,NORM)
* 'FUND-CODE-4001-CH63'
ZFLD057  DFHMDF POS=(14,10),LENGTH=0006,ATTRB=(PROT,ASKIP),            X
               COLOR=TURQUOISE,HILIGHT=OFF
         DFHMDF POS=(14,17),LENGTH=0,ATTRB=(ASKIP,NORM)
* 'FUND-TITLE-4005-CH63'
ZFLD058  DFHMDF POS=(14,18),LENGTH=0035,ATTRB=(PROT,ASKIP),            X
               COLOR=TURQUOISE,HILIGHT=OFF
         DFHMDF POS=(14,54),LENGTH=0,ATTRB=(ASKIP,NORM)
* 'STATUS-4005-CH63'
ZFLD059  DFHMDF POS=(14,56),LENGTH=0001,ATTRB=(PROT,ASKIP),            X
               COLOR=TURQUOISE,HILIGHT=OFF
         DFHMDF POS=(14,58),LENGTH=0,ATTRB=(ASKIP,NORM)
* 'START-DATE-4005-CH63'
ZFLD060  DFHMDF POS=(14,61),LENGTH=0008,ATTRB=(PROT,ASKIP),            X
               COLOR=TURQUOISE,HILIGHT=OFF
         DFHMDF POS=(14,70),LENGTH=0,ATTRB=(ASKIP,NORM)
* 'END-DATE-4005-CH63'
ZFLD061  DFHMDF POS=(14,71),LENGTH=0008,ATTRB=(PROT,ASKIP),            X
               COLOR=TURQUOISE,HILIGHT=OFF
         DFHMDF POS=(14,80),LENGTH=0,ATTRB=(ASKIP,NORM)
* 'ACTN-CODE-CH63'
ZFLD062  DFHMDF POS=(15,01),LENGTH=0001,ATTRB=(UNPROT),COLOR=DEFAULT,  X
               HILIGHT=OFF
         DFHMDF POS=(15,03),LENGTH=0,ATTRB=(ASKIP,NORM)
* 'COA-CODE-4001-CH63'
ZFLD063  DFHMDF POS=(15,06),LENGTH=0001,ATTRB=(PROT,ASKIP),            X
               COLOR=TURQUOISE,HILIGHT=OFF
         DFHMDF POS=(15,08),LENGTH=0,ATTRB=(ASKIP,NORM)
* 'FUND-CODE-4001-CH63'
ZFLD064  DFHMDF POS=(15,10),LENGTH=0006,ATTRB=(PROT,ASKIP),            X
               COLOR=TURQUOISE,HILIGHT=OFF
         DFHMDF POS=(15,17),LENGTH=0,ATTRB=(ASKIP,NORM)
* 'FUND-TITLE-4005-CH63'
ZFLD065  DFHMDF POS=(15,18),LENGTH=0035,ATTRB=(PROT,ASKIP),            X
               COLOR=TURQUOISE,HILIGHT=OFF
         DFHMDF POS=(15,54),LENGTH=0,ATTRB=(ASKIP,NORM)
* 'STATUS-4005-CH63'
ZFLD066  DFHMDF POS=(15,56),LENGTH=0001,ATTRB=(PROT,ASKIP),            X
               COLOR=TURQUOISE,HILIGHT=OFF
         DFHMDF POS=(15,58),LENGTH=0,ATTRB=(ASKIP,NORM)
* 'START-DATE-4005-CH63'
ZFLD067  DFHMDF POS=(15,61),LENGTH=0008,ATTRB=(PROT,ASKIP),            X
               COLOR=TURQUOISE,HILIGHT=OFF
         DFHMDF POS=(15,70),LENGTH=0,ATTRB=(ASKIP,NORM)
* 'END-DATE-4005-CH63'
ZFLD068  DFHMDF POS=(15,71),LENGTH=0008,ATTRB=(PROT,ASKIP),            X
               COLOR=TURQUOISE,HILIGHT=OFF
         DFHMDF POS=(15,80),LENGTH=0,ATTRB=(ASKIP,NORM)
* 'ACTN-CODE-CH63'
ZFLD069  DFHMDF POS=(16,01),LENGTH=0001,ATTRB=(UNPROT),COLOR=DEFAULT,  X
               HILIGHT=OFF
         DFHMDF POS=(16,03),LENGTH=0,ATTRB=(ASKIP,NORM)
* 'COA-CODE-4001-CH63'
ZFLD070  DFHMDF POS=(16,06),LENGTH=0001,ATTRB=(PROT,ASKIP),            X
               COLOR=TURQUOISE,HILIGHT=OFF
         DFHMDF POS=(16,08),LENGTH=0,ATTRB=(ASKIP,NORM)
* 'FUND-CODE-4001-CH63'
ZFLD071  DFHMDF POS=(16,10),LENGTH=0006,ATTRB=(PROT,ASKIP),            X
               COLOR=TURQUOISE,HILIGHT=OFF
         DFHMDF POS=(16,17),LENGTH=0,ATTRB=(ASKIP,NORM)
* 'FUND-TITLE-4005-CH63'
ZFLD072  DFHMDF POS=(16,18),LENGTH=0035,ATTRB=(PROT,ASKIP),            X
               COLOR=TURQUOISE,HILIGHT=OFF
         DFHMDF POS=(16,54),LENGTH=0,ATTRB=(ASKIP,NORM)
* 'STATUS-4005-CH63'
ZFLD073  DFHMDF POS=(16,56),LENGTH=0001,ATTRB=(PROT,ASKIP),            X
               COLOR=TURQUOISE,HILIGHT=OFF
         DFHMDF POS=(16,58),LENGTH=0,ATTRB=(ASKIP,NORM)
* 'START-DATE-4005-CH63'
ZFLD074  DFHMDF POS=(16,61),LENGTH=0008,ATTRB=(PROT,ASKIP),            X
               COLOR=TURQUOISE,HILIGHT=OFF
         DFHMDF POS=(16,70),LENGTH=0,ATTRB=(ASKIP,NORM)
* 'END-DATE-4005-CH63'
ZFLD075  DFHMDF POS=(16,71),LENGTH=0008,ATTRB=(PROT,ASKIP),            X
               COLOR=TURQUOISE,HILIGHT=OFF
         DFHMDF POS=(16,80),LENGTH=0,ATTRB=(ASKIP,NORM)
* 'ACTN-CODE-CH63'
ZFLD076  DFHMDF POS=(17,01),LENGTH=0001,ATTRB=(UNPROT),COLOR=DEFAULT,  X
               HILIGHT=OFF
         DFHMDF POS=(17,03),LENGTH=0,ATTRB=(ASKIP,NORM)
* 'COA-CODE-4001-CH63'
ZFLD077  DFHMDF POS=(17,06),LENGTH=0001,ATTRB=(PROT,ASKIP),            X
               COLOR=TURQUOISE,HILIGHT=OFF
         DFHMDF POS=(17,08),LENGTH=0,ATTRB=(ASKIP,NORM)
* 'FUND-CODE-4001-CH63'
ZFLD078  DFHMDF POS=(17,10),LENGTH=0006,ATTRB=(PROT,ASKIP),            X
               COLOR=TURQUOISE,HILIGHT=OFF
         DFHMDF POS=(17,17),LENGTH=0,ATTRB=(ASKIP,NORM)
* 'FUND-TITLE-4005-CH63'
ZFLD079  DFHMDF POS=(17,18),LENGTH=0035,ATTRB=(PROT,ASKIP),            X
               COLOR=TURQUOISE,HILIGHT=OFF
         DFHMDF POS=(17,54),LENGTH=0,ATTRB=(ASKIP,NORM)
* 'STATUS-4005-CH63'
ZFLD080  DFHMDF POS=(17,56),LENGTH=0001,ATTRB=(PROT,ASKIP),            X
               COLOR=TURQUOISE,HILIGHT=OFF
         DFHMDF POS=(17,58),LENGTH=0,ATTRB=(ASKIP,NORM)
* 'START-DATE-4005-CH63'
ZFLD081  DFHMDF POS=(17,61),LENGTH=0008,ATTRB=(PROT,ASKIP),            X
               COLOR=TURQUOISE,HILIGHT=OFF
         DFHMDF POS=(17,70),LENGTH=0,ATTRB=(ASKIP,NORM)
* 'END-DATE-4005-CH63'
ZFLD082  DFHMDF POS=(17,71),LENGTH=0008,ATTRB=(PROT,ASKIP),            X
               COLOR=TURQUOISE,HILIGHT=OFF
         DFHMDF POS=(17,80),LENGTH=0,ATTRB=(ASKIP,NORM)
* 'ACTN-CODE-CH63'
ZFLD083  DFHMDF POS=(18,01),LENGTH=0001,ATTRB=(UNPROT),COLOR=DEFAULT,  X
               HILIGHT=OFF
         DFHMDF POS=(18,03),LENGTH=0,ATTRB=(ASKIP,NORM)
* 'COA-CODE-4001-CH63'
ZFLD084  DFHMDF POS=(18,06),LENGTH=0001,ATTRB=(PROT,ASKIP),            X
               COLOR=TURQUOISE,HILIGHT=OFF
         DFHMDF POS=(18,08),LENGTH=0,ATTRB=(ASKIP,NORM)
* 'FUND-CODE-4001-CH63'
ZFLD085  DFHMDF POS=(18,10),LENGTH=0006,ATTRB=(PROT,ASKIP),            X
               COLOR=TURQUOISE,HILIGHT=OFF
         DFHMDF POS=(18,17),LENGTH=0,ATTRB=(ASKIP,NORM)
* 'FUND-TITLE-4005-CH63'
ZFLD086  DFHMDF POS=(18,18),LENGTH=0035,ATTRB=(PROT,ASKIP),            X
               COLOR=TURQUOISE,HILIGHT=OFF
         DFHMDF POS=(18,54),LENGTH=0,ATTRB=(ASKIP,NORM)
* 'STATUS-4005-CH63'
ZFLD087  DFHMDF POS=(18,56),LENGTH=0001,ATTRB=(PROT,ASKIP),            X
               COLOR=TURQUOISE,HILIGHT=OFF
         DFHMDF POS=(18,58),LENGTH=0,ATTRB=(ASKIP,NORM)
* 'START-DATE-4005-CH63'
ZFLD088  DFHMDF POS=(18,61),LENGTH=0008,ATTRB=(PROT,ASKIP),            X
               COLOR=TURQUOISE,HILIGHT=OFF
         DFHMDF POS=(18,70),LENGTH=0,ATTRB=(ASKIP,NORM)
* 'END-DATE-4005-CH63'
ZFLD089  DFHMDF POS=(18,71),LENGTH=0008,ATTRB=(PROT,ASKIP),            X
               COLOR=TURQUOISE,HILIGHT=OFF
         DFHMDF POS=(18,80),LENGTH=0,ATTRB=(ASKIP,NORM)
         DFHMDF POS=(20,01),LENGTH=0012,ATTRB=(PROT,ASKIP),            X
               INITIAL='COA REQUEST:',COLOR=BLUE,HILIGHT=OFF
* 'RQST-COA-CODE-CH63'
ZFLD090  DFHMDF POS=(20,14),LENGTH=0001,ATTRB=(UNPROT),COLOR=DEFAULT,  X
               HILIGHT=UNDERLINE
         DFHMDF POS=(20,16),LENGTH=0,ATTRB=(ASKIP,NORM)
         DFHMDF POS=(20,17),LENGTH=0018,ATTRB=(PROT,ASKIP),            X
               INITIAL='FUND CODE REQUEST:',COLOR=BLUE,HILIGHT=OFF
* 'RQST-FUND-CODE-CH63'
ZFLD091  DFHMDF POS=(20,36),LENGTH=0006,ATTRB=(UNPROT),COLOR=DEFAULT,  X
               HILIGHT=UNDERLINE
         DFHMDF POS=(20,43),LENGTH=0,ATTRB=(ASKIP,NORM)
* 'DCLINK-MESSAGE'
ZFLD092  DFHMDF POS=(21,80),LENGTH=0160,ATTRB=(PROT,BRT),              X
               COLOR=DEFAULT,HILIGHT=OFF
         DFHMDF POS=(24,01),LENGTH=0012,ATTRB=(PROT,ASKIP,NUM),        X
               INITIAL='NEXT SCREEN:',COLOR=BLUE,HILIGHT=OFF
* 'AGR-PASSED-ONE'
ZFLD093  DFHMDF POS=(24,14),LENGTH=0030,ATTRB=(UNPROT),COLOR=DEFAULT,  X
               HILIGHT=UNDERLINE
         DFHMDF POS=(24,45),LENGTH=0009,ATTRB=(PROT,ASKIP),            X
               INITIAL='RESPONSE:',COLOR=BLUE,HILIGHT=OFF
* 'AGR-MAP-RESPONSE'
ZFLD094  DFHMDF POS=(24,55),LENGTH=0008,ATTRB=(UNPROT),COLOR=DEFAULT,  X
               HILIGHT=UNDERLINE
         DFHMDF POS=(24,64),LENGTH=0,ATTRB=(ASKIP,NORM)
* 'ERROR-TEXT-SY00'
ZFLD095  DFHMDF POS=(24,65),LENGTH=0014,ATTRB=(PROT,DRK),              X
               COLOR=DEFAULT,HILIGHT=OFF
         DFHMSD TYPE=FINAL
         END
