FCHMU51  DFHMSD TYPE=MAP,LANG=COBOL,TERM=3270,MODE=INOUT,              X
               TIOAPFX=YES,MAPATTS=(COLOR,HILIGHT),                    X
               DSATTS=(COLOR,HILIGHT)
FCHMU51  DFHMDI SIZE=(24,80),LINE=1,COLUMN=1,CTRL=FREEKB,TIOAPFX=YES
         DFHMDF POS=(01,01),LENGTH=0007,ATTRB=(PROT,ASKIP),            X
               INITIAL='FCHMU51',COLOR=BLUE,HILIGHT=OFF
* 'TRMNL-ID-SY00'
ZFLD002  DFHMDF POS=(01,10),LENGTH=0008,ATTRB=(PROT),COLOR=BLUE,       X
               HILIGHT=OFF
         DFHMDF POS=(01,19),LENGTH=0,ATTRB=(ASKIP,NORM)
* 'FULL-NAME-6001-SY00'
ZFLD003  DFHMDF POS=(01,23),LENGTH=0035,ATTRB=(PROT),COLOR=BLUE,       X
               HILIGHT=OFF
         DFHMDF POS=(01,59),LENGTH=0,ATTRB=(ASKIP,NORM)
* 'AGR-DATE'
ZFLD004  DFHMDF POS=(01,64),LENGTH=0008,ATTRB=(PROT),COLOR=BLUE,       X
               HILIGHT=OFF
* 'WORK-HH-MM-TIME-SY00'
ZFLD005  DFHMDF POS=(01,73),LENGTH=0005,ATTRB=(PROT),COLOR=BLUE,       X
               HILIGHT=OFF
* 'AM-PM-FLAG-SY00'
ZFLD006  DFHMDF POS=(01,79),LENGTH=0001,ATTRB=(PROT),COLOR=BLUE,       X
               HILIGHT=OFF
* 'AGR-USER-ID'
ZFLD007  DFHMDF POS=(02,01),LENGTH=0008,ATTRB=(PROT),COLOR=BLUE,       X
               HILIGHT=OFF
         DFHMDF POS=(02,10),LENGTH=0,ATTRB=(ASKIP,NORM)
* 'CURR-RSPNS-ID-SY00'
ZFLD008  DFHMDF POS=(02,21),LENGTH=0008,ATTRB=(PROT,BRT),              X
               COLOR=DEFAULT,HILIGHT=OFF
         DFHMDF POS=(02,30),LENGTH=0001,ATTRB=(PROT,ASKIP,BRT),        X
               INITIAL=':',COLOR=DEFAULT,HILIGHT=OFF
* 'AGR-FUNC-DESCRIPTION'
ZFLD009  DFHMDF POS=(02,32),LENGTH=0028,ATTRB=(PROT,BRT),              X
               COLOR=DEFAULT,HILIGHT=OFF
         DFHMDF POS=(02,61),LENGTH=0,ATTRB=(ASKIP,NORM)
* 'PAGE-STATUS-CODE-SY00'
ZFLD010  DFHMDF POS=(02,64),LENGTH=0010,ATTRB=(PROT,BRT),              X
               COLOR=DEFAULT,HILIGHT=OFF
         DFHMDF POS=(02,75),LENGTH=0,ATTRB=(ASKIP,NORM)
* 'DCSD-TEXT-SY01'
ZFLD011  DFHMDF POS=(03,52),LENGTH=0008,ATTRB=(PROT,DRK),              X
               COLOR=DEFAULT,HILIGHT=OFF
         DFHMDF POS=(03,61),LENGTH=0,ATTRB=(ASKIP,NORM)
* 'CNFDL-TEXT-SY01'
ZFLD012  DFHMDF POS=(03,62),LENGTH=0011,ATTRB=(PROT,DRK),              X
               COLOR=DEFAULT,HILIGHT=OFF
         DFHMDF POS=(03,74),LENGTH=0,ATTRB=(ASKIP,NORM)
* 'HOLDS-TEXT-SY01'
ZFLD013  DFHMDF POS=(03,75),LENGTH=0005,ATTRB=(PROT,DRK),              X
               COLOR=DEFAULT,HILIGHT=OFF
         DFHMDF POS=(04,01),LENGTH=0,ATTRB=(ASKIP,NORM)
         DFHMDF POS=(04,19),LENGTH=0004,ATTRB=(PROT,ASKIP),            X
               INITIAL='COA:',COLOR=BLUE,HILIGHT=OFF
* 'COA-CODE-4030-CH51'
ZFLD014  DFHMDF POS=(04,24),LENGTH=0001,ATTRB=(PROT),COLOR=TURQUOISE,  X
               HILIGHT=OFF
         DFHMDF POS=(04,26),LENGTH=0,ATTRB=(ASKIP,NORM)
         DFHMDF POS=(05,04),LENGTH=0019,ATTRB=(PROT,ASKIP),            X
               INITIAL=' COST SHARE METHOD:',COLOR=BLUE,HILIGHT=OFF
* 'COST-SHARE-CODE-4030-CH51'
ZFLD015  DFHMDF POS=(05,24),LENGTH=0006,ATTRB=(PROT),COLOR=TURQUOISE,  X
               HILIGHT=OFF
         DFHMDF POS=(05,31),LENGTH=0,ATTRB=(ASKIP,NORM)
* 'COST-SHARE-DESC-4064-CH51'
ZFLD016  DFHMDF POS=(05,35),LENGTH=0035,ATTRB=(PROT),COLOR=TURQUOISE,  X
               HILIGHT=OFF
         DFHMDF POS=(05,71),LENGTH=0,ATTRB=(ASKIP,NORM)
         DFHMDF POS=(07,17),LENGTH=0006,ATTRB=(PROT,ASKIP),            X
               INITIAL='BASIS:',COLOR=BLUE,HILIGHT=OFF
* 'COST-SHARE-BASIS-4064-CH51'
ZFLD017  DFHMDF POS=(07,24),LENGTH=0001,ATTRB=(PROT),COLOR=TURQUOISE,  X
               HILIGHT=OFF
         DFHMDF POS=(07,26),LENGTH=0,ATTRB=(ASKIP,NORM)
         DFHMDF POS=(07,30),LENGTH=0005,ATTRB=(PROT,ASKIP),            X
               INITIAL='MEMO:',COLOR=BLUE,HILIGHT=OFF
* 'COST-SHARE-MEMO-IND-4064-CH51'
ZFLD018  DFHMDF POS=(07,36),LENGTH=0001,ATTRB=(PROT),COLOR=TURQUOISE,  X
               HILIGHT=OFF
         DFHMDF POS=(07,38),LENGTH=0,ATTRB=(ASKIP,NORM)
         DFHMDF POS=(07,42),LENGTH=0006,ATTRB=(PROT,ASKIP),            X
               INITIAL='APPLY:',COLOR=BLUE,HILIGHT=OFF
* 'APPLY-TO-BASIS-IND-4064-CH51'
ZFLD019  DFHMDF POS=(07,49),LENGTH=0001,ATTRB=(PROT),COLOR=TURQUOISE,  X
               HILIGHT=OFF
         DFHMDF POS=(07,51),LENGTH=0,ATTRB=(ASKIP,NORM)
         DFHMDF POS=(07,55),LENGTH=0011,ATTRB=(PROT,ASKIP),            X
               INITIAL='PERCENTAGE:',COLOR=BLUE,HILIGHT=OFF
* 'COST-SHARE-STNDD-PCT-4064-CH51'
ZFLD020  DFHMDF POS=(07,67),LENGTH=0007,ATTRB=(PROT),COLOR=TURQUOISE,  X
               HILIGHT=OFF
         DFHMDF POS=(07,75),LENGTH=0,ATTRB=(ASKIP,NORM)
         DFHMDF POS=(09,01),LENGTH=0157,ATTRB=(PROT,ASKIP),            X
               INITIAL='  ACT   PERCENT    INDEX     FUND   ORGN   ACCTX
                  PRGRM  ACTVY  LCTN    CREDIT  (ACDR)                 X
                                                                 ACCT',X
               COLOR=BLUE,HILIGHT=OFF
* 'ACTN-CODE-CH51'
ZFLD021  DFHMDF POS=(11,04),LENGTH=0001,ATTRB=(UNPROT,IC),             X
               COLOR=DEFAULT,HILIGHT=OFF
         DFHMDF POS=(11,06),LENGTH=0,ATTRB=(ASKIP,NORM)
* 'CNTRB-PCT-4031-CH51'
ZFLD022  DFHMDF POS=(11,09),LENGTH=0007,ATTRB=(UNPROT),COLOR=DEFAULT,  X
               HILIGHT=UNDERLINE
         DFHMDF POS=(11,17),LENGTH=0,ATTRB=(ASKIP,NORM)
* 'ACCT-INDX-CODE-4031-CH51'
ZFLD023  DFHMDF POS=(11,18),LENGTH=0010,ATTRB=(UNPROT),COLOR=DEFAULT,  X
               HILIGHT=UNDERLINE
         DFHMDF POS=(11,29),LENGTH=0,ATTRB=(ASKIP,NORM)
* 'FUND-CODE-4031-CH51'
ZFLD024  DFHMDF POS=(11,30),LENGTH=0006,ATTRB=(UNPROT),COLOR=DEFAULT,  X
               HILIGHT=UNDERLINE
* 'ORGZN-CODE-4031-CH51'
ZFLD025  DFHMDF POS=(11,37),LENGTH=0006,ATTRB=(UNPROT),COLOR=DEFAULT,  X
               HILIGHT=UNDERLINE
* 'ACCT-CODE-4031-CH51'
ZFLD026  DFHMDF POS=(11,44),LENGTH=0006,ATTRB=(UNPROT),COLOR=DEFAULT,  X
               HILIGHT=UNDERLINE
* 'PRGRM-CODE-4031-CH51'
ZFLD027  DFHMDF POS=(11,51),LENGTH=0006,ATTRB=(UNPROT),COLOR=DEFAULT,  X
               HILIGHT=UNDERLINE
* 'ACTVY-CODE-4031-CH51'
ZFLD028  DFHMDF POS=(11,58),LENGTH=0006,ATTRB=(UNPROT),COLOR=DEFAULT,  X
               HILIGHT=UNDERLINE
* 'LCTN-CODE-4031-CH51'
ZFLD029  DFHMDF POS=(11,65),LENGTH=0006,ATTRB=(UNPROT),COLOR=DEFAULT,  X
               HILIGHT=UNDERLINE
         DFHMDF POS=(11,72),LENGTH=0,ATTRB=(ASKIP,NORM)
* 'COST-SHARE-CRDT-ACCT-4031-CH51'
ZFLD030  DFHMDF POS=(11,73),LENGTH=0006,ATTRB=(UNPROT),COLOR=DEFAULT,  X
               HILIGHT=UNDERLINE
         DFHMDF POS=(11,80),LENGTH=0,ATTRB=(ASKIP,NORM)
* 'ACTN-CODE-CH51'
ZFLD031  DFHMDF POS=(12,04),LENGTH=0001,ATTRB=(UNPROT),COLOR=DEFAULT,  X
               HILIGHT=OFF
         DFHMDF POS=(12,06),LENGTH=0,ATTRB=(ASKIP,NORM)
* 'CNTRB-PCT-4031-CH51'
ZFLD032  DFHMDF POS=(12,09),LENGTH=0007,ATTRB=(UNPROT),COLOR=DEFAULT,  X
               HILIGHT=UNDERLINE
         DFHMDF POS=(12,17),LENGTH=0,ATTRB=(ASKIP,NORM)
* 'ACCT-INDX-CODE-4031-CH51'
ZFLD033  DFHMDF POS=(12,18),LENGTH=0010,ATTRB=(UNPROT),COLOR=DEFAULT,  X
               HILIGHT=UNDERLINE
         DFHMDF POS=(12,29),LENGTH=0,ATTRB=(ASKIP,NORM)
* 'FUND-CODE-4031-CH51'
ZFLD034  DFHMDF POS=(12,30),LENGTH=0006,ATTRB=(UNPROT),COLOR=DEFAULT,  X
               HILIGHT=UNDERLINE
* 'ORGZN-CODE-4031-CH51'
ZFLD035  DFHMDF POS=(12,37),LENGTH=0006,ATTRB=(UNPROT),COLOR=DEFAULT,  X
               HILIGHT=UNDERLINE
* 'ACCT-CODE-4031-CH51'
ZFLD036  DFHMDF POS=(12,44),LENGTH=0006,ATTRB=(UNPROT),COLOR=DEFAULT,  X
               HILIGHT=UNDERLINE
* 'PRGRM-CODE-4031-CH51'
ZFLD037  DFHMDF POS=(12,51),LENGTH=0006,ATTRB=(UNPROT),COLOR=DEFAULT,  X
               HILIGHT=UNDERLINE
* 'ACTVY-CODE-4031-CH51'
ZFLD038  DFHMDF POS=(12,58),LENGTH=0006,ATTRB=(UNPROT),COLOR=DEFAULT,  X
               HILIGHT=UNDERLINE
* 'LCTN-CODE-4031-CH51'
ZFLD039  DFHMDF POS=(12,65),LENGTH=0006,ATTRB=(UNPROT),COLOR=DEFAULT,  X
               HILIGHT=UNDERLINE
         DFHMDF POS=(12,72),LENGTH=0,ATTRB=(ASKIP,NORM)
* 'COST-SHARE-CRDT-ACCT-4031-CH51'
ZFLD040  DFHMDF POS=(12,73),LENGTH=0006,ATTRB=(UNPROT),COLOR=DEFAULT,  X
               HILIGHT=UNDERLINE
         DFHMDF POS=(12,80),LENGTH=0,ATTRB=(ASKIP,NORM)
* 'ACTN-CODE-CH51'
ZFLD041  DFHMDF POS=(13,04),LENGTH=0001,ATTRB=(UNPROT),COLOR=DEFAULT,  X
               HILIGHT=OFF
         DFHMDF POS=(13,06),LENGTH=0,ATTRB=(ASKIP,NORM)
* 'CNTRB-PCT-4031-CH51'
ZFLD042  DFHMDF POS=(13,09),LENGTH=0007,ATTRB=(UNPROT),COLOR=DEFAULT,  X
               HILIGHT=UNDERLINE
         DFHMDF POS=(13,17),LENGTH=0,ATTRB=(ASKIP,NORM)
* 'ACCT-INDX-CODE-4031-CH51'
ZFLD043  DFHMDF POS=(13,18),LENGTH=0010,ATTRB=(UNPROT),COLOR=DEFAULT,  X
               HILIGHT=UNDERLINE
         DFHMDF POS=(13,29),LENGTH=0,ATTRB=(ASKIP,NORM)
* 'FUND-CODE-4031-CH51'
ZFLD044  DFHMDF POS=(13,30),LENGTH=0006,ATTRB=(UNPROT),COLOR=DEFAULT,  X
               HILIGHT=UNDERLINE
* 'ORGZN-CODE-4031-CH51'
ZFLD045  DFHMDF POS=(13,37),LENGTH=0006,ATTRB=(UNPROT),COLOR=DEFAULT,  X
               HILIGHT=UNDERLINE
* 'ACCT-CODE-4031-CH51'
ZFLD046  DFHMDF POS=(13,44),LENGTH=0006,ATTRB=(UNPROT),COLOR=DEFAULT,  X
               HILIGHT=UNDERLINE
* 'PRGRM-CODE-4031-CH51'
ZFLD047  DFHMDF POS=(13,51),LENGTH=0006,ATTRB=(UNPROT),COLOR=DEFAULT,  X
               HILIGHT=UNDERLINE
* 'ACTVY-CODE-4031-CH51'
ZFLD048  DFHMDF POS=(13,58),LENGTH=0006,ATTRB=(UNPROT),COLOR=DEFAULT,  X
               HILIGHT=UNDERLINE
* 'LCTN-CODE-4031-CH51'
ZFLD049  DFHMDF POS=(13,65),LENGTH=0006,ATTRB=(UNPROT),COLOR=DEFAULT,  X
               HILIGHT=UNDERLINE
         DFHMDF POS=(13,72),LENGTH=0,ATTRB=(ASKIP,NORM)
* 'COST-SHARE-CRDT-ACCT-4031-CH51'
ZFLD050  DFHMDF POS=(13,73),LENGTH=0006,ATTRB=(UNPROT),COLOR=DEFAULT,  X
               HILIGHT=UNDERLINE
         DFHMDF POS=(13,80),LENGTH=0,ATTRB=(ASKIP,NORM)
* 'ACTN-CODE-CH51'
ZFLD051  DFHMDF POS=(14,04),LENGTH=0001,ATTRB=(UNPROT),COLOR=DEFAULT,  X
               HILIGHT=OFF
         DFHMDF POS=(14,06),LENGTH=0,ATTRB=(ASKIP,NORM)
* 'CNTRB-PCT-4031-CH51'
ZFLD052  DFHMDF POS=(14,09),LENGTH=0007,ATTRB=(UNPROT),COLOR=DEFAULT,  X
               HILIGHT=UNDERLINE
         DFHMDF POS=(14,17),LENGTH=0,ATTRB=(ASKIP,NORM)
* 'ACCT-INDX-CODE-4031-CH51'
ZFLD053  DFHMDF POS=(14,18),LENGTH=0010,ATTRB=(UNPROT),COLOR=DEFAULT,  X
               HILIGHT=UNDERLINE
         DFHMDF POS=(14,29),LENGTH=0,ATTRB=(ASKIP,NORM)
* 'FUND-CODE-4031-CH51'
ZFLD054  DFHMDF POS=(14,30),LENGTH=0006,ATTRB=(UNPROT),COLOR=DEFAULT,  X
               HILIGHT=UNDERLINE
* 'ORGZN-CODE-4031-CH51'
ZFLD055  DFHMDF POS=(14,37),LENGTH=0006,ATTRB=(UNPROT),COLOR=DEFAULT,  X
               HILIGHT=UNDERLINE
* 'ACCT-CODE-4031-CH51'
ZFLD056  DFHMDF POS=(14,44),LENGTH=0006,ATTRB=(UNPROT),COLOR=DEFAULT,  X
               HILIGHT=UNDERLINE
* 'PRGRM-CODE-4031-CH51'
ZFLD057  DFHMDF POS=(14,51),LENGTH=0006,ATTRB=(UNPROT),COLOR=DEFAULT,  X
               HILIGHT=UNDERLINE
* 'ACTVY-CODE-4031-CH51'
ZFLD058  DFHMDF POS=(14,58),LENGTH=0006,ATTRB=(UNPROT),COLOR=DEFAULT,  X
               HILIGHT=UNDERLINE
* 'LCTN-CODE-4031-CH51'
ZFLD059  DFHMDF POS=(14,65),LENGTH=0006,ATTRB=(UNPROT),COLOR=DEFAULT,  X
               HILIGHT=UNDERLINE
         DFHMDF POS=(14,72),LENGTH=0,ATTRB=(ASKIP,NORM)
* 'COST-SHARE-CRDT-ACCT-4031-CH51'
ZFLD060  DFHMDF POS=(14,73),LENGTH=0006,ATTRB=(UNPROT),COLOR=DEFAULT,  X
               HILIGHT=UNDERLINE
         DFHMDF POS=(14,80),LENGTH=0,ATTRB=(ASKIP,NORM)
* 'ACTN-CODE-CH51'
ZFLD061  DFHMDF POS=(15,04),LENGTH=0001,ATTRB=(UNPROT),COLOR=DEFAULT,  X
               HILIGHT=OFF
         DFHMDF POS=(15,06),LENGTH=0,ATTRB=(ASKIP,NORM)
* 'CNTRB-PCT-4031-CH51'
ZFLD062  DFHMDF POS=(15,09),LENGTH=0007,ATTRB=(UNPROT),COLOR=DEFAULT,  X
               HILIGHT=UNDERLINE
         DFHMDF POS=(15,17),LENGTH=0,ATTRB=(ASKIP,NORM)
* 'ACCT-INDX-CODE-4031-CH51'
ZFLD063  DFHMDF POS=(15,18),LENGTH=0010,ATTRB=(UNPROT),COLOR=DEFAULT,  X
               HILIGHT=UNDERLINE
         DFHMDF POS=(15,29),LENGTH=0,ATTRB=(ASKIP,NORM)
* 'FUND-CODE-4031-CH51'
ZFLD064  DFHMDF POS=(15,30),LENGTH=0006,ATTRB=(UNPROT),COLOR=DEFAULT,  X
               HILIGHT=UNDERLINE
* 'ORGZN-CODE-4031-CH51'
ZFLD065  DFHMDF POS=(15,37),LENGTH=0006,ATTRB=(UNPROT),COLOR=DEFAULT,  X
               HILIGHT=UNDERLINE
* 'ACCT-CODE-4031-CH51'
ZFLD066  DFHMDF POS=(15,44),LENGTH=0006,ATTRB=(UNPROT),COLOR=DEFAULT,  X
               HILIGHT=UNDERLINE
* 'PRGRM-CODE-4031-CH51'
ZFLD067  DFHMDF POS=(15,51),LENGTH=0006,ATTRB=(UNPROT),COLOR=DEFAULT,  X
               HILIGHT=UNDERLINE
* 'ACTVY-CODE-4031-CH51'
ZFLD068  DFHMDF POS=(15,58),LENGTH=0006,ATTRB=(UNPROT),COLOR=DEFAULT,  X
               HILIGHT=UNDERLINE
* 'LCTN-CODE-4031-CH51'
ZFLD069  DFHMDF POS=(15,65),LENGTH=0006,ATTRB=(UNPROT),COLOR=DEFAULT,  X
               HILIGHT=UNDERLINE
         DFHMDF POS=(15,72),LENGTH=0,ATTRB=(ASKIP,NORM)
* 'COST-SHARE-CRDT-ACCT-4031-CH51'
ZFLD070  DFHMDF POS=(15,73),LENGTH=0006,ATTRB=(UNPROT),COLOR=DEFAULT,  X
               HILIGHT=UNDERLINE
         DFHMDF POS=(15,80),LENGTH=0,ATTRB=(ASKIP,NORM)
* 'ACTN-CODE-CH51'
ZFLD071  DFHMDF POS=(16,04),LENGTH=0001,ATTRB=(UNPROT),COLOR=DEFAULT,  X
               HILIGHT=OFF
         DFHMDF POS=(16,06),LENGTH=0,ATTRB=(ASKIP,NORM)
* 'CNTRB-PCT-4031-CH51'
ZFLD072  DFHMDF POS=(16,09),LENGTH=0007,ATTRB=(UNPROT),COLOR=DEFAULT,  X
               HILIGHT=UNDERLINE
         DFHMDF POS=(16,17),LENGTH=0,ATTRB=(ASKIP,NORM)
* 'ACCT-INDX-CODE-4031-CH51'
ZFLD073  DFHMDF POS=(16,18),LENGTH=0010,ATTRB=(UNPROT),COLOR=DEFAULT,  X
               HILIGHT=UNDERLINE
         DFHMDF POS=(16,29),LENGTH=0,ATTRB=(ASKIP,NORM)
* 'FUND-CODE-4031-CH51'
ZFLD074  DFHMDF POS=(16,30),LENGTH=0006,ATTRB=(UNPROT),COLOR=DEFAULT,  X
               HILIGHT=UNDERLINE
* 'ORGZN-CODE-4031-CH51'
ZFLD075  DFHMDF POS=(16,37),LENGTH=0006,ATTRB=(UNPROT),COLOR=DEFAULT,  X
               HILIGHT=UNDERLINE
* 'ACCT-CODE-4031-CH51'
ZFLD076  DFHMDF POS=(16,44),LENGTH=0006,ATTRB=(UNPROT),COLOR=DEFAULT,  X
               HILIGHT=UNDERLINE
* 'PRGRM-CODE-4031-CH51'
ZFLD077  DFHMDF POS=(16,51),LENGTH=0006,ATTRB=(UNPROT),COLOR=DEFAULT,  X
               HILIGHT=UNDERLINE
* 'ACTVY-CODE-4031-CH51'
ZFLD078  DFHMDF POS=(16,58),LENGTH=0006,ATTRB=(UNPROT),COLOR=DEFAULT,  X
               HILIGHT=UNDERLINE
* 'LCTN-CODE-4031-CH51'
ZFLD079  DFHMDF POS=(16,65),LENGTH=0006,ATTRB=(UNPROT),COLOR=DEFAULT,  X
               HILIGHT=UNDERLINE
         DFHMDF POS=(16,72),LENGTH=0,ATTRB=(ASKIP,NORM)
* 'COST-SHARE-CRDT-ACCT-4031-CH51'
ZFLD080  DFHMDF POS=(16,73),LENGTH=0006,ATTRB=(UNPROT),COLOR=DEFAULT,  X
               HILIGHT=UNDERLINE
         DFHMDF POS=(16,80),LENGTH=0,ATTRB=(ASKIP,NORM)
* 'ACTN-CODE-CH51'
ZFLD081  DFHMDF POS=(17,04),LENGTH=0001,ATTRB=(UNPROT),COLOR=DEFAULT,  X
               HILIGHT=OFF
         DFHMDF POS=(17,06),LENGTH=0,ATTRB=(ASKIP,NORM)
* 'CNTRB-PCT-4031-CH51'
ZFLD082  DFHMDF POS=(17,09),LENGTH=0007,ATTRB=(UNPROT),COLOR=DEFAULT,  X
               HILIGHT=UNDERLINE
         DFHMDF POS=(17,17),LENGTH=0,ATTRB=(ASKIP,NORM)
* 'ACCT-INDX-CODE-4031-CH51'
ZFLD083  DFHMDF POS=(17,18),LENGTH=0010,ATTRB=(UNPROT),COLOR=DEFAULT,  X
               HILIGHT=UNDERLINE
         DFHMDF POS=(17,29),LENGTH=0,ATTRB=(ASKIP,NORM)
* 'FUND-CODE-4031-CH51'
ZFLD084  DFHMDF POS=(17,30),LENGTH=0006,ATTRB=(UNPROT),COLOR=DEFAULT,  X
               HILIGHT=UNDERLINE
* 'ORGZN-CODE-4031-CH51'
ZFLD085  DFHMDF POS=(17,37),LENGTH=0006,ATTRB=(UNPROT),COLOR=DEFAULT,  X
               HILIGHT=UNDERLINE
* 'ACCT-CODE-4031-CH51'
ZFLD086  DFHMDF POS=(17,44),LENGTH=0006,ATTRB=(UNPROT),COLOR=DEFAULT,  X
               HILIGHT=UNDERLINE
* 'PRGRM-CODE-4031-CH51'
ZFLD087  DFHMDF POS=(17,51),LENGTH=0006,ATTRB=(UNPROT),COLOR=DEFAULT,  X
               HILIGHT=UNDERLINE
* 'ACTVY-CODE-4031-CH51'
ZFLD088  DFHMDF POS=(17,58),LENGTH=0006,ATTRB=(UNPROT),COLOR=DEFAULT,  X
               HILIGHT=UNDERLINE
* 'LCTN-CODE-4031-CH51'
ZFLD089  DFHMDF POS=(17,65),LENGTH=0006,ATTRB=(UNPROT),COLOR=DEFAULT,  X
               HILIGHT=UNDERLINE
         DFHMDF POS=(17,72),LENGTH=0,ATTRB=(ASKIP,NORM)
* 'COST-SHARE-CRDT-ACCT-4031-CH51'
ZFLD090  DFHMDF POS=(17,73),LENGTH=0006,ATTRB=(UNPROT),COLOR=DEFAULT,  X
               HILIGHT=UNDERLINE
         DFHMDF POS=(17,80),LENGTH=0,ATTRB=(ASKIP,NORM)
* 'ACTN-CODE-CH51'
ZFLD091  DFHMDF POS=(18,04),LENGTH=0001,ATTRB=(UNPROT),COLOR=DEFAULT,  X
               HILIGHT=OFF
         DFHMDF POS=(18,06),LENGTH=0,ATTRB=(ASKIP,NORM)
* 'CNTRB-PCT-4031-CH51'
ZFLD092  DFHMDF POS=(18,09),LENGTH=0007,ATTRB=(UNPROT),COLOR=DEFAULT,  X
               HILIGHT=UNDERLINE
         DFHMDF POS=(18,17),LENGTH=0,ATTRB=(ASKIP,NORM)
* 'ACCT-INDX-CODE-4031-CH51'
ZFLD093  DFHMDF POS=(18,18),LENGTH=0010,ATTRB=(UNPROT),COLOR=DEFAULT,  X
               HILIGHT=UNDERLINE
         DFHMDF POS=(18,29),LENGTH=0,ATTRB=(ASKIP,NORM)
* 'FUND-CODE-4031-CH51'
ZFLD094  DFHMDF POS=(18,30),LENGTH=0006,ATTRB=(UNPROT),COLOR=DEFAULT,  X
               HILIGHT=UNDERLINE
* 'ORGZN-CODE-4031-CH51'
ZFLD095  DFHMDF POS=(18,37),LENGTH=0006,ATTRB=(UNPROT),COLOR=DEFAULT,  X
               HILIGHT=UNDERLINE
* 'ACCT-CODE-4031-CH51'
ZFLD096  DFHMDF POS=(18,44),LENGTH=0006,ATTRB=(UNPROT),COLOR=DEFAULT,  X
               HILIGHT=UNDERLINE
* 'PRGRM-CODE-4031-CH51'
ZFLD097  DFHMDF POS=(18,51),LENGTH=0006,ATTRB=(UNPROT),COLOR=DEFAULT,  X
               HILIGHT=UNDERLINE
* 'ACTVY-CODE-4031-CH51'
ZFLD098  DFHMDF POS=(18,58),LENGTH=0006,ATTRB=(UNPROT),COLOR=DEFAULT,  X
               HILIGHT=UNDERLINE
* 'LCTN-CODE-4031-CH51'
ZFLD099  DFHMDF POS=(18,65),LENGTH=0006,ATTRB=(UNPROT),COLOR=DEFAULT,  X
               HILIGHT=UNDERLINE
         DFHMDF POS=(18,72),LENGTH=0,ATTRB=(ASKIP,NORM)
* 'COST-SHARE-CRDT-ACCT-4031-CH51'
ZFLD100  DFHMDF POS=(18,73),LENGTH=0006,ATTRB=(UNPROT),COLOR=DEFAULT,  X
               HILIGHT=UNDERLINE
         DFHMDF POS=(18,80),LENGTH=0,ATTRB=(ASKIP,NORM)
* 'ACTN-CODE-CH51'
ZFLD101  DFHMDF POS=(19,04),LENGTH=0001,ATTRB=(UNPROT),COLOR=DEFAULT,  X
               HILIGHT=OFF
         DFHMDF POS=(19,06),LENGTH=0,ATTRB=(ASKIP,NORM)
* 'CNTRB-PCT-4031-CH51'
ZFLD102  DFHMDF POS=(19,09),LENGTH=0007,ATTRB=(UNPROT),COLOR=DEFAULT,  X
               HILIGHT=UNDERLINE
         DFHMDF POS=(19,17),LENGTH=0,ATTRB=(ASKIP,NORM)
* 'ACCT-INDX-CODE-4031-CH51'
ZFLD103  DFHMDF POS=(19,18),LENGTH=0010,ATTRB=(UNPROT),COLOR=DEFAULT,  X
               HILIGHT=UNDERLINE
         DFHMDF POS=(19,29),LENGTH=0,ATTRB=(ASKIP,NORM)
* 'FUND-CODE-4031-CH51'
ZFLD104  DFHMDF POS=(19,30),LENGTH=0006,ATTRB=(UNPROT),COLOR=DEFAULT,  X
               HILIGHT=UNDERLINE
* 'ORGZN-CODE-4031-CH51'
ZFLD105  DFHMDF POS=(19,37),LENGTH=0006,ATTRB=(UNPROT),COLOR=DEFAULT,  X
               HILIGHT=UNDERLINE
* 'ACCT-CODE-4031-CH51'
ZFLD106  DFHMDF POS=(19,44),LENGTH=0006,ATTRB=(UNPROT),COLOR=DEFAULT,  X
               HILIGHT=UNDERLINE
* 'PRGRM-CODE-4031-CH51'
ZFLD107  DFHMDF POS=(19,51),LENGTH=0006,ATTRB=(UNPROT),COLOR=DEFAULT,  X
               HILIGHT=UNDERLINE
* 'ACTVY-CODE-4031-CH51'
ZFLD108  DFHMDF POS=(19,58),LENGTH=0006,ATTRB=(UNPROT),COLOR=DEFAULT,  X
               HILIGHT=UNDERLINE
* 'LCTN-CODE-4031-CH51'
ZFLD109  DFHMDF POS=(19,65),LENGTH=0006,ATTRB=(UNPROT),COLOR=DEFAULT,  X
               HILIGHT=UNDERLINE
         DFHMDF POS=(19,72),LENGTH=0,ATTRB=(ASKIP,NORM)
* 'COST-SHARE-CRDT-ACCT-4031-CH51'
ZFLD110  DFHMDF POS=(19,73),LENGTH=0006,ATTRB=(UNPROT),COLOR=DEFAULT,  X
               HILIGHT=UNDERLINE
         DFHMDF POS=(19,80),LENGTH=0,ATTRB=(ASKIP,NORM)
         DFHMDF POS=(21,01),LENGTH=0006,ATTRB=(PROT,ASKIP),            X
               INITIAL='TOTAL:',COLOR=BLUE,HILIGHT=OFF
* 'CNTRB-TOTAL-PCT-4031-CH51'
ZFLD111  DFHMDF POS=(21,09),LENGTH=0007,ATTRB=(PROT),COLOR=TURQUOISE,  X
               HILIGHT=OFF
         DFHMDF POS=(21,17),LENGTH=0,ATTRB=(ASKIP,NORM)
         DFHMDF POS=(21,21),LENGTH=0015,ATTRB=(PROT,ASKIP),            X
               INITIAL='COMPLETE (Y/N):',COLOR=BLUE,HILIGHT=OFF
* 'CMPLT-IND-4064-CH51'
ZFLD112  DFHMDF POS=(21,37),LENGTH=0001,ATTRB=(UNPROT),COLOR=DEFAULT,  X
               HILIGHT=UNDERLINE
         DFHMDF POS=(21,39),LENGTH=0,ATTRB=(ASKIP,NORM)
* 'DCLINK-MESSAGE'
ZFLD113  DFHMDF POS=(21,80),LENGTH=0160,ATTRB=(PROT,BRT),              X
               COLOR=DEFAULT,HILIGHT=OFF
         DFHMDF POS=(24,01),LENGTH=0012,ATTRB=(PROT,ASKIP,NUM),        X
               INITIAL='NEXT SCREEN:',COLOR=BLUE,HILIGHT=OFF
* 'AGR-PASSED-ONE'
ZFLD114  DFHMDF POS=(24,14),LENGTH=0030,ATTRB=(UNPROT),COLOR=DEFAULT,  X
               HILIGHT=UNDERLINE
         DFHMDF POS=(24,45),LENGTH=0009,ATTRB=(PROT,ASKIP),            X
               INITIAL='RESPONSE:',COLOR=BLUE,HILIGHT=OFF
* 'AGR-MAP-RESPONSE'
ZFLD115  DFHMDF POS=(24,55),LENGTH=0008,ATTRB=(UNPROT),COLOR=DEFAULT,  X
               HILIGHT=UNDERLINE
         DFHMDF POS=(24,64),LENGTH=0,ATTRB=(ASKIP,NORM)
* 'ERROR-TEXT-SY00'
ZFLD116  DFHMDF POS=(24,65),LENGTH=0014,ATTRB=(PROT,DRK),              X
               COLOR=DEFAULT,HILIGHT=OFF
         DFHMSD TYPE=FINAL
         END
