FCHMU31  DFHMSD TYPE=MAP,LANG=COBOL,TERM=3270,MODE=INOUT,              X
               TIOAPFX=YES,MAPATTS=(COLOR,HILIGHT),                    X
               DSATTS=(COLOR,HILIGHT)
FCHMU31  DFHMDI SIZE=(24,80),LINE=1,COLUMN=1,CTRL=FREEKB,TIOAPFX=YES
         DFHMDF POS=(01,01),LENGTH=0007,ATTRB=(PROT,ASKIP),            X
               INITIAL='FCHMU31',COLOR=BLUE,HILIGHT=OFF
* 'TRMNL-ID-SY00'
ZFLD002  DFHMDF POS=(01,10),LENGTH=0008,ATTRB=(PROT),COLOR=BLUE,       X
               HILIGHT=OFF
         DFHMDF POS=(01,19),LENGTH=0,ATTRB=(ASKIP,NORM)
* 'FULL-NAME-6001-SY00'
ZFLD003  DFHMDF POS=(01,23),LENGTH=0035,ATTRB=(PROT),COLOR=BLUE,       X
               HILIGHT=OFF
         DFHMDF POS=(01,59),LENGTH=0,ATTRB=(ASKIP,NORM)
* 'AGR-DATE'
ZFLD004  DFHMDF POS=(01,64),LENGTH=0008,ATTRB=(PROT),COLOR=BLUE,       X
               HILIGHT=OFF
* 'WORK-HH-MM-TIME-SY00'
ZFLD005  DFHMDF POS=(01,73),LENGTH=0005,ATTRB=(PROT),COLOR=BLUE,       X
               HILIGHT=OFF
* 'AM-PM-FLAG-SY00'
ZFLD006  DFHMDF POS=(01,79),LENGTH=0001,ATTRB=(PROT),COLOR=BLUE,       X
               HILIGHT=OFF
* 'AGR-USER-ID'
ZFLD007  DFHMDF POS=(02,01),LENGTH=0008,ATTRB=(PROT),COLOR=BLUE,       X
               HILIGHT=OFF
         DFHMDF POS=(02,10),LENGTH=0,ATTRB=(ASKIP,NORM)
* 'CURR-RSPNS-ID-SY00'
ZFLD008  DFHMDF POS=(02,21),LENGTH=0008,ATTRB=(PROT,BRT),              X
               COLOR=DEFAULT,HILIGHT=OFF
         DFHMDF POS=(02,30),LENGTH=0001,ATTRB=(PROT,ASKIP,BRT),        X
               INITIAL=':',COLOR=DEFAULT,HILIGHT=OFF
* 'AGR-FUNC-DESCRIPTION'
ZFLD009  DFHMDF POS=(02,32),LENGTH=0028,ATTRB=(PROT,BRT),              X
               COLOR=DEFAULT,HILIGHT=OFF
         DFHMDF POS=(02,61),LENGTH=0,ATTRB=(ASKIP,NORM)
* 'PAGE-STATUS-CODE-SY00'
ZFLD010  DFHMDF POS=(02,64),LENGTH=0010,ATTRB=(PROT,BRT),              X
               COLOR=DEFAULT,HILIGHT=OFF
         DFHMDF POS=(02,75),LENGTH=0,ATTRB=(ASKIP,NORM)
         DFHMDF POS=(04,06),LENGTH=0010,ATTRB=(PROT,ASKIP),            X
               INITIAL='ACT (ACD):',COLOR=BLUE,HILIGHT=OFF
* 'ACTN-CODE-CH31'
ZFLD011  DFHMDF POS=(04,17),LENGTH=0001,ATTRB=(UNPROT,IC),             X
               COLOR=DEFAULT,HILIGHT=OFF
         DFHMDF POS=(04,19),LENGTH=0,ATTRB=(ASKIP,NORM)
         DFHMDF POS=(05,12),LENGTH=0004,ATTRB=(PROT,ASKIP),            X
               INITIAL='COA:',COLOR=BLUE,HILIGHT=OFF
* 'COA-CODE-4000-CH31'
ZFLD012  DFHMDF POS=(05,17),LENGTH=0001,ATTRB=(UNPROT),COLOR=DEFAULT,  X
               HILIGHT=UNDERLINE
         DFHMDF POS=(05,19),LENGTH=0,ATTRB=(ASKIP,NORM)
         DFHMDF POS=(06,11),LENGTH=0005,ATTRB=(PROT,ASKIP),            X
               INITIAL='FUND:',COLOR=BLUE,HILIGHT=OFF
* 'FUND-CODE-4001-CH31'
ZFLD013  DFHMDF POS=(06,17),LENGTH=0006,ATTRB=(UNPROT),COLOR=DEFAULT,  X
               HILIGHT=UNDERLINE
         DFHMDF POS=(06,24),LENGTH=0,ATTRB=(ASKIP,NORM)
* 'FUND-TITLE-4005-CH31'
ZFLD014  DFHMDF POS=(06,29),LENGTH=0035,ATTRB=(PROT),COLOR=TURQUOISE,  X
               HILIGHT=OFF
         DFHMDF POS=(06,65),LENGTH=0,ATTRB=(ASKIP,NORM)
         DFHMDF POS=(07,03),LENGTH=0013,ATTRB=(PROT,ASKIP),            X
               INITIAL='ORGANIZATION:',COLOR=BLUE,HILIGHT=OFF
* 'ORGZN-CODE-4002-CH31'
ZFLD015  DFHMDF POS=(07,17),LENGTH=0006,ATTRB=(UNPROT),COLOR=DEFAULT,  X
               HILIGHT=UNDERLINE
         DFHMDF POS=(07,24),LENGTH=0,ATTRB=(ASKIP,NORM)
* 'ORGZN-TITLE-4010-CH31'
ZFLD016  DFHMDF POS=(07,29),LENGTH=0035,ATTRB=(PROT),COLOR=TURQUOISE,  X
               HILIGHT=OFF
         DFHMDF POS=(07,65),LENGTH=0,ATTRB=(ASKIP,NORM)
         DFHMDF POS=(08,05),LENGTH=0011,ATTRB=(PROT,ASKIP),            X
               INITIAL='EFCTV DATE:',COLOR=BLUE,HILIGHT=OFF
* 'START-DATE-4017-CH31'
ZFLD017  DFHMDF POS=(08,17),LENGTH=0008,ATTRB=(UNPROT),COLOR=DEFAULT,  X
               HILIGHT=UNDERLINE
         DFHMDF POS=(08,26),LENGTH=0,ATTRB=(ASKIP,NORM)
         DFHMDF POS=(08,30),LENGTH=0017,ATTRB=(PROT,ASKIP),            X
               INITIAL='NEXT CHANGE DATE:',COLOR=BLUE,HILIGHT=OFF
* 'NEXT-CHNG-DATE-CH31'
ZFLD018  DFHMDF POS=(08,48),LENGTH=0008,ATTRB=(PROT),COLOR=TURQUOISE,  X
               HILIGHT=OFF
         DFHMDF POS=(08,57),LENGTH=0,ATTRB=(ASKIP,NORM)
         DFHMDF POS=(08,63),LENGTH=0007,ATTRB=(PROT,ASKIP),            X
               INITIAL='STATUS:',COLOR=BLUE,HILIGHT=OFF
* 'STATUS-DESC-CH31'
ZFLD019  DFHMDF POS=(08,71),LENGTH=0008,ATTRB=(PROT),COLOR=TURQUOISE,  X
               HILIGHT=OFF
         DFHMDF POS=(08,80),LENGTH=0,ATTRB=(ASKIP,NORM)
         DFHMDF POS=(09,06),LENGTH=0010,ATTRB=(PROT,ASKIP),            X
               INITIAL='TERM DATE:',COLOR=BLUE,HILIGHT=OFF
* 'END-DATE-4017-CH31'
ZFLD020  DFHMDF POS=(09,17),LENGTH=0008,ATTRB=(UNPROT),COLOR=DEFAULT,  X
               HILIGHT=UNDERLINE
         DFHMDF POS=(09,26),LENGTH=0,ATTRB=(ASKIP,NORM)
         DFHMDF POS=(09,28),LENGTH=0019,ATTRB=(PROT,ASKIP),            X
               INITIAL='LAST ACTIVITY DATE:',COLOR=BLUE,HILIGHT=OFF
* 'ACTVY-DATE-4016-CH31'
ZFLD021  DFHMDF POS=(09,48),LENGTH=0008,ATTRB=(PROT),COLOR=TURQUOISE,  X
               HILIGHT=OFF
         DFHMDF POS=(09,57),LENGTH=0,ATTRB=(ASKIP,NORM)
         DFHMDF POS=(09,59),LENGTH=0011,ATTRB=(PROT,ASKIP),            X
               INITIAL='EFCTV TIME:',COLOR=BLUE,HILIGHT=OFF
* 'TIME-STAMP-4017-CH31'
ZFLD022  DFHMDF POS=(09,71),LENGTH=0005,ATTRB=(PROT),COLOR=TURQUOISE,  X
               HILIGHT=OFF
         DFHMDF POS=(09,77),LENGTH=0,ATTRB=(ASKIP,NORM)
* 'AM-PM-FLAG-CH31'
ZFLD023  DFHMDF POS=(09,78),LENGTH=0001,ATTRB=(PROT),COLOR=TURQUOISE,  X
               HILIGHT=OFF
         DFHMDF POS=(09,80),LENGTH=0,ATTRB=(ASKIP,NORM)
         DFHMDF POS=(13,26),LENGTH=0014,ATTRB=(PROT,ASKIP),            X
               INITIAL='BUDGET CONTROL',COLOR=BLUE,HILIGHT=OFF
         DFHMDF POS=(15,15),LENGTH=0005,ATTRB=(PROT,ASKIP),            X
               INITIAL='FUND:',COLOR=BLUE,HILIGHT=OFF
* 'CNTRL-FUND-4017-CH31'
ZFLD024  DFHMDF POS=(15,21),LENGTH=0006,ATTRB=(UNPROT),COLOR=DEFAULT,  X
               HILIGHT=OFF
         DFHMDF POS=(15,28),LENGTH=0,ATTRB=(ASKIP,NORM)
* 'CNTRL-FUND-TITLE-4005-CH31'
ZFLD025  DFHMDF POS=(15,29),LENGTH=0035,ATTRB=(PROT),COLOR=TURQUOISE,  X
               HILIGHT=OFF
         DFHMDF POS=(15,65),LENGTH=0,ATTRB=(ASKIP,NORM)
         DFHMDF POS=(16,07),LENGTH=0013,ATTRB=(PROT,ASKIP),            X
               INITIAL='ORGANIZATION:',COLOR=BLUE,HILIGHT=OFF
* 'CNTRL-ORGZN-4017-CH31'
ZFLD026  DFHMDF POS=(16,21),LENGTH=0006,ATTRB=(UNPROT),COLOR=DEFAULT,  X
               HILIGHT=UNDERLINE
         DFHMDF POS=(16,28),LENGTH=0,ATTRB=(ASKIP,NORM)
* 'CNTRL-ORGZN-TITLE-4010-CH31'
ZFLD027  DFHMDF POS=(16,29),LENGTH=0035,ATTRB=(PROT),COLOR=TURQUOISE,  X
               HILIGHT=OFF
         DFHMDF POS=(16,65),LENGTH=0,ATTRB=(ASKIP,NORM)
         DFHMDF POS=(17,05),LENGTH=0015,ATTRB=(PROT,ASKIP),            X
               INITIAL='CONTROL PERIOD:',COLOR=BLUE,HILIGHT=OFF
* 'CNTRL-PRD-CODE-4017-CH31'
ZFLD028  DFHMDF POS=(17,21),LENGTH=0001,ATTRB=(UNPROT),COLOR=DEFAULT,  X
               HILIGHT=UNDERLINE
         DFHMDF POS=(17,23),LENGTH=0,ATTRB=(ASKIP,NORM)
* 'CNTRL-PRD-DESC-CH31'
ZFLD029  DFHMDF POS=(17,29),LENGTH=0035,ATTRB=(PROT),COLOR=TURQUOISE,  X
               HILIGHT=OFF
         DFHMDF POS=(17,65),LENGTH=0,ATTRB=(ASKIP,NORM)
         DFHMDF POS=(18,11),LENGTH=0009,ATTRB=(PROT,ASKIP),            X
               INITIAL='SEVERITY:',COLOR=BLUE,HILIGHT=OFF
* 'CNTRL-SVRTY-CODE-4017-CH31'
ZFLD030  DFHMDF POS=(18,21),LENGTH=0001,ATTRB=(UNPROT),COLOR=DEFAULT,  X
               HILIGHT=UNDERLINE
         DFHMDF POS=(18,23),LENGTH=0,ATTRB=(ASKIP,NORM)
* 'CNTRL-SVRTY-DESC-CH31'
ZFLD031  DFHMDF POS=(18,29),LENGTH=0035,ATTRB=(PROT),COLOR=TURQUOISE,  X
               HILIGHT=OFF
         DFHMDF POS=(18,65),LENGTH=0,ATTRB=(ASKIP,NORM)
* 'DCLINK-MESSAGE'
ZFLD032  DFHMDF POS=(21,80),LENGTH=0160,ATTRB=(PROT,BRT),              X
               COLOR=DEFAULT,HILIGHT=OFF
         DFHMDF POS=(24,01),LENGTH=0012,ATTRB=(PROT,ASKIP,NUM),        X
               INITIAL='NEXT SCREEN:',COLOR=BLUE,HILIGHT=OFF
* 'AGR-PASSED-ONE'
ZFLD033  DFHMDF POS=(24,14),LENGTH=0030,ATTRB=(UNPROT),COLOR=DEFAULT,  X
               HILIGHT=UNDERLINE
         DFHMDF POS=(24,45),LENGTH=0009,ATTRB=(PROT,ASKIP),            X
               INITIAL='RESPONSE:',COLOR=BLUE,HILIGHT=OFF
* 'AGR-MAP-RESPONSE'
ZFLD034  DFHMDF POS=(24,55),LENGTH=0008,ATTRB=(UNPROT),COLOR=DEFAULT,  X
               HILIGHT=UNDERLINE
         DFHMDF POS=(24,64),LENGTH=0,ATTRB=(ASKIP,NORM)
* 'ERROR-TEXT-SY00'
ZFLD035  DFHMDF POS=(24,65),LENGTH=0014,ATTRB=(PROT,DRK),              X
               COLOR=DEFAULT,HILIGHT=OFF
         DFHMSD TYPE=FINAL
         END
