FCHMU53  DFHMSD TYPE=MAP,LANG=COBOL,TERM=3270,MODE=INOUT,              X
               TIOAPFX=YES,MAPATTS=(COLOR,HILIGHT),                    X
               DSATTS=(COLOR,HILIGHT)
FCHMU53  DFHMDI SIZE=(24,80),LINE=1,COLUMN=1,CTRL=FREEKB,TIOAPFX=YES
         DFHMDF POS=(01,01),LENGTH=0007,ATTRB=(PROT,ASKIP),            X
               INITIAL='FCHMU53',COLOR=BLUE,HILIGHT=OFF
* 'TRMNL-ID-SY00'
ZFLD002  DFHMDF POS=(01,10),LENGTH=0008,ATTRB=(PROT),COLOR=BLUE,       X
               HILIGHT=OFF
         DFHMDF POS=(01,19),LENGTH=0,ATTRB=(ASKIP,NORM)
* 'FULL-NAME-6001-SY00'
ZFLD003  DFHMDF POS=(01,23),LENGTH=0035,ATTRB=(PROT),COLOR=BLUE,       X
               HILIGHT=OFF
         DFHMDF POS=(01,59),LENGTH=0,ATTRB=(ASKIP,NORM)
* 'AGR-DATE'
ZFLD004  DFHMDF POS=(01,64),LENGTH=0008,ATTRB=(PROT),COLOR=BLUE,       X
               HILIGHT=OFF
* 'WORK-HH-MM-TIME-SY00'
ZFLD005  DFHMDF POS=(01,73),LENGTH=0005,ATTRB=(PROT),COLOR=BLUE,       X
               HILIGHT=OFF
* 'AM-PM-FLAG-SY00'
ZFLD006  DFHMDF POS=(01,79),LENGTH=0001,ATTRB=(PROT),COLOR=BLUE,       X
               HILIGHT=OFF
* 'AGR-USER-ID'
ZFLD007  DFHMDF POS=(02,01),LENGTH=0008,ATTRB=(PROT),COLOR=BLUE,       X
               HILIGHT=OFF
         DFHMDF POS=(02,10),LENGTH=0,ATTRB=(ASKIP,NORM)
* 'CURR-RSPNS-ID-SY00'
ZFLD008  DFHMDF POS=(02,21),LENGTH=0008,ATTRB=(PROT,BRT),              X
               COLOR=DEFAULT,HILIGHT=OFF
         DFHMDF POS=(02,30),LENGTH=0001,ATTRB=(PROT,ASKIP,BRT),        X
               INITIAL=':',COLOR=DEFAULT,HILIGHT=OFF
* 'AGR-FUNC-DESCRIPTION'
ZFLD009  DFHMDF POS=(02,32),LENGTH=0028,ATTRB=(PROT,BRT),              X
               COLOR=DEFAULT,HILIGHT=OFF
         DFHMDF POS=(02,61),LENGTH=0,ATTRB=(ASKIP,NORM)
* 'PAGE-STATUS-CODE-SY00'
ZFLD010  DFHMDF POS=(02,64),LENGTH=0010,ATTRB=(PROT,BRT),              X
               COLOR=DEFAULT,HILIGHT=OFF
         DFHMDF POS=(02,75),LENGTH=0,ATTRB=(ASKIP,NORM)
         DFHMDF POS=(04,01),LENGTH=0153,ATTRB=(PROT,ASKIP),            X
               INITIAL='ACT COA    USER                 BUYER    NSF   X
                TOLERANCE        TOLERANCE     (ACDR)       ID         X
                                        PERCENTAGE         AMOUNT',    X
               COLOR=BLUE,HILIGHT=OFF
* 'ACTN-CODE-CH53'
ZFLD011  DFHMDF POS=(06,02),LENGTH=0001,ATTRB=(UNPROT,IC),             X
               COLOR=DEFAULT,HILIGHT=OFF
         DFHMDF POS=(06,04),LENGTH=0,ATTRB=(ASKIP,NORM)
* 'COA-CODE-4013-CH53'
ZFLD012  DFHMDF POS=(06,06),LENGTH=0001,ATTRB=(UNPROT),COLOR=DEFAULT,  X
               HILIGHT=UNDERLINE
         DFHMDF POS=(06,08),LENGTH=0,ATTRB=(ASKIP,NORM)
* 'USER-ID-4192-CH53'
ZFLD013  DFHMDF POS=(06,10),LENGTH=0008,ATTRB=(UNPROT),COLOR=DEFAULT,  X
               HILIGHT=UNDERLINE
         DFHMDF POS=(06,19),LENGTH=0,ATTRB=(ASKIP,NORM)
* 'BUYER-CODE-4013-CH53'
ZFLD014  DFHMDF POS=(06,33),LENGTH=0004,ATTRB=(UNPROT),COLOR=DEFAULT,  X
               HILIGHT=UNDERLINE
         DFHMDF POS=(06,38),LENGTH=0,ATTRB=(ASKIP,NORM)
* 'NSF-OVRDE-4013-CH53'
ZFLD015  DFHMDF POS=(06,43),LENGTH=0001,ATTRB=(UNPROT),COLOR=DEFAULT,  X
               HILIGHT=UNDERLINE
         DFHMDF POS=(06,45),LENGTH=0,ATTRB=(ASKIP,NORM)
* 'TLRNC-PCTG-4013-CH53'
ZFLD016  DFHMDF POS=(06,51),LENGTH=0007,ATTRB=(UNPROT),COLOR=DEFAULT,  X
               HILIGHT=OFF
         DFHMDF POS=(06,59),LENGTH=0,ATTRB=(ASKIP,NORM)
* 'TLRNC-AMT-4013-CH53'
ZFLD017  DFHMDF POS=(06,62),LENGTH=0016,ATTRB=(UNPROT),COLOR=DEFAULT,  X
               HILIGHT=OFF
         DFHMDF POS=(06,79),LENGTH=0,ATTRB=(ASKIP,NORM)
* 'ACTN-CODE-CH53'
ZFLD018  DFHMDF POS=(07,02),LENGTH=0001,ATTRB=(UNPROT),COLOR=DEFAULT,  X
               HILIGHT=OFF
         DFHMDF POS=(07,04),LENGTH=0,ATTRB=(ASKIP,NORM)
* 'COA-CODE-4013-CH53'
ZFLD019  DFHMDF POS=(07,06),LENGTH=0001,ATTRB=(UNPROT),COLOR=DEFAULT,  X
               HILIGHT=UNDERLINE
         DFHMDF POS=(07,08),LENGTH=0,ATTRB=(ASKIP,NORM)
* 'USER-ID-4192-CH53'
ZFLD020  DFHMDF POS=(07,10),LENGTH=0008,ATTRB=(UNPROT),COLOR=DEFAULT,  X
               HILIGHT=UNDERLINE
         DFHMDF POS=(07,19),LENGTH=0,ATTRB=(ASKIP,NORM)
* 'BUYER-CODE-4013-CH53'
ZFLD021  DFHMDF POS=(07,33),LENGTH=0004,ATTRB=(UNPROT),COLOR=DEFAULT,  X
               HILIGHT=UNDERLINE
         DFHMDF POS=(07,38),LENGTH=0,ATTRB=(ASKIP,NORM)
* 'NSF-OVRDE-4013-CH53'
ZFLD022  DFHMDF POS=(07,43),LENGTH=0001,ATTRB=(UNPROT),COLOR=DEFAULT,  X
               HILIGHT=UNDERLINE
         DFHMDF POS=(07,45),LENGTH=0,ATTRB=(ASKIP,NORM)
* 'TLRNC-PCTG-4013-CH53'
ZFLD023  DFHMDF POS=(07,51),LENGTH=0007,ATTRB=(UNPROT),COLOR=DEFAULT,  X
               HILIGHT=OFF
         DFHMDF POS=(07,59),LENGTH=0,ATTRB=(ASKIP,NORM)
* 'TLRNC-AMT-4013-CH53'
ZFLD024  DFHMDF POS=(07,62),LENGTH=0016,ATTRB=(UNPROT),COLOR=DEFAULT,  X
               HILIGHT=OFF
         DFHMDF POS=(07,79),LENGTH=0,ATTRB=(ASKIP,NORM)
* 'ACTN-CODE-CH53'
ZFLD025  DFHMDF POS=(08,02),LENGTH=0001,ATTRB=(UNPROT),COLOR=DEFAULT,  X
               HILIGHT=OFF
         DFHMDF POS=(08,04),LENGTH=0,ATTRB=(ASKIP,NORM)
* 'COA-CODE-4013-CH53'
ZFLD026  DFHMDF POS=(08,06),LENGTH=0001,ATTRB=(UNPROT),COLOR=DEFAULT,  X
               HILIGHT=UNDERLINE
         DFHMDF POS=(08,08),LENGTH=0,ATTRB=(ASKIP,NORM)
* 'USER-ID-4192-CH53'
ZFLD027  DFHMDF POS=(08,10),LENGTH=0008,ATTRB=(UNPROT),COLOR=DEFAULT,  X
               HILIGHT=UNDERLINE
         DFHMDF POS=(08,19),LENGTH=0,ATTRB=(ASKIP,NORM)
* 'BUYER-CODE-4013-CH53'
ZFLD028  DFHMDF POS=(08,33),LENGTH=0004,ATTRB=(UNPROT),COLOR=DEFAULT,  X
               HILIGHT=UNDERLINE
         DFHMDF POS=(08,38),LENGTH=0,ATTRB=(ASKIP,NORM)
* 'NSF-OVRDE-4013-CH53'
ZFLD029  DFHMDF POS=(08,43),LENGTH=0001,ATTRB=(UNPROT),COLOR=DEFAULT,  X
               HILIGHT=UNDERLINE
         DFHMDF POS=(08,45),LENGTH=0,ATTRB=(ASKIP,NORM)
* 'TLRNC-PCTG-4013-CH53'
ZFLD030  DFHMDF POS=(08,51),LENGTH=0007,ATTRB=(UNPROT),COLOR=DEFAULT,  X
               HILIGHT=OFF
         DFHMDF POS=(08,59),LENGTH=0,ATTRB=(ASKIP,NORM)
* 'TLRNC-AMT-4013-CH53'
ZFLD031  DFHMDF POS=(08,62),LENGTH=0016,ATTRB=(UNPROT),COLOR=DEFAULT,  X
               HILIGHT=OFF
         DFHMDF POS=(08,79),LENGTH=0,ATTRB=(ASKIP,NORM)
* 'ACTN-CODE-CH53'
ZFLD032  DFHMDF POS=(09,02),LENGTH=0001,ATTRB=(UNPROT),COLOR=DEFAULT,  X
               HILIGHT=OFF
         DFHMDF POS=(09,04),LENGTH=0,ATTRB=(ASKIP,NORM)
* 'COA-CODE-4013-CH53'
ZFLD033  DFHMDF POS=(09,06),LENGTH=0001,ATTRB=(UNPROT),COLOR=DEFAULT,  X
               HILIGHT=UNDERLINE
         DFHMDF POS=(09,08),LENGTH=0,ATTRB=(ASKIP,NORM)
* 'USER-ID-4192-CH53'
ZFLD034  DFHMDF POS=(09,10),LENGTH=0008,ATTRB=(UNPROT),COLOR=DEFAULT,  X
               HILIGHT=UNDERLINE
         DFHMDF POS=(09,19),LENGTH=0,ATTRB=(ASKIP,NORM)
* 'BUYER-CODE-4013-CH53'
ZFLD035  DFHMDF POS=(09,33),LENGTH=0004,ATTRB=(UNPROT),COLOR=DEFAULT,  X
               HILIGHT=UNDERLINE
         DFHMDF POS=(09,38),LENGTH=0,ATTRB=(ASKIP,NORM)
* 'NSF-OVRDE-4013-CH53'
ZFLD036  DFHMDF POS=(09,43),LENGTH=0001,ATTRB=(UNPROT),COLOR=DEFAULT,  X
               HILIGHT=UNDERLINE
         DFHMDF POS=(09,45),LENGTH=0,ATTRB=(ASKIP,NORM)
* 'TLRNC-PCTG-4013-CH53'
ZFLD037  DFHMDF POS=(09,51),LENGTH=0007,ATTRB=(UNPROT),COLOR=DEFAULT,  X
               HILIGHT=OFF
         DFHMDF POS=(09,59),LENGTH=0,ATTRB=(ASKIP,NORM)
* 'TLRNC-AMT-4013-CH53'
ZFLD038  DFHMDF POS=(09,62),LENGTH=0016,ATTRB=(UNPROT),COLOR=DEFAULT,  X
               HILIGHT=OFF
         DFHMDF POS=(09,79),LENGTH=0,ATTRB=(ASKIP,NORM)
* 'ACTN-CODE-CH53'
ZFLD039  DFHMDF POS=(10,02),LENGTH=0001,ATTRB=(UNPROT),COLOR=DEFAULT,  X
               HILIGHT=OFF
         DFHMDF POS=(10,04),LENGTH=0,ATTRB=(ASKIP,NORM)
* 'COA-CODE-4013-CH53'
ZFLD040  DFHMDF POS=(10,06),LENGTH=0001,ATTRB=(UNPROT),COLOR=DEFAULT,  X
               HILIGHT=UNDERLINE
         DFHMDF POS=(10,08),LENGTH=0,ATTRB=(ASKIP,NORM)
* 'USER-ID-4192-CH53'
ZFLD041  DFHMDF POS=(10,10),LENGTH=0008,ATTRB=(UNPROT),COLOR=DEFAULT,  X
               HILIGHT=UNDERLINE
         DFHMDF POS=(10,19),LENGTH=0,ATTRB=(ASKIP,NORM)
* 'BUYER-CODE-4013-CH53'
ZFLD042  DFHMDF POS=(10,33),LENGTH=0004,ATTRB=(UNPROT),COLOR=DEFAULT,  X
               HILIGHT=UNDERLINE
         DFHMDF POS=(10,38),LENGTH=0,ATTRB=(ASKIP,NORM)
* 'NSF-OVRDE-4013-CH53'
ZFLD043  DFHMDF POS=(10,43),LENGTH=0001,ATTRB=(UNPROT),COLOR=DEFAULT,  X
               HILIGHT=UNDERLINE
         DFHMDF POS=(10,45),LENGTH=0,ATTRB=(ASKIP,NORM)
* 'TLRNC-PCTG-4013-CH53'
ZFLD044  DFHMDF POS=(10,51),LENGTH=0007,ATTRB=(UNPROT),COLOR=DEFAULT,  X
               HILIGHT=OFF
         DFHMDF POS=(10,59),LENGTH=0,ATTRB=(ASKIP,NORM)
* 'TLRNC-AMT-4013-CH53'
ZFLD045  DFHMDF POS=(10,62),LENGTH=0016,ATTRB=(UNPROT),COLOR=DEFAULT,  X
               HILIGHT=OFF
         DFHMDF POS=(10,79),LENGTH=0,ATTRB=(ASKIP,NORM)
* 'ACTN-CODE-CH53'
ZFLD046  DFHMDF POS=(11,02),LENGTH=0001,ATTRB=(UNPROT),COLOR=DEFAULT,  X
               HILIGHT=OFF
         DFHMDF POS=(11,04),LENGTH=0,ATTRB=(ASKIP,NORM)
* 'COA-CODE-4013-CH53'
ZFLD047  DFHMDF POS=(11,06),LENGTH=0001,ATTRB=(UNPROT),COLOR=DEFAULT,  X
               HILIGHT=UNDERLINE
         DFHMDF POS=(11,08),LENGTH=0,ATTRB=(ASKIP,NORM)
* 'USER-ID-4192-CH53'
ZFLD048  DFHMDF POS=(11,10),LENGTH=0008,ATTRB=(UNPROT),COLOR=DEFAULT,  X
               HILIGHT=UNDERLINE
         DFHMDF POS=(11,19),LENGTH=0,ATTRB=(ASKIP,NORM)
* 'BUYER-CODE-4013-CH53'
ZFLD049  DFHMDF POS=(11,33),LENGTH=0004,ATTRB=(UNPROT),COLOR=DEFAULT,  X
               HILIGHT=UNDERLINE
         DFHMDF POS=(11,38),LENGTH=0,ATTRB=(ASKIP,NORM)
* 'NSF-OVRDE-4013-CH53'
ZFLD050  DFHMDF POS=(11,43),LENGTH=0001,ATTRB=(UNPROT),COLOR=DEFAULT,  X
               HILIGHT=UNDERLINE
         DFHMDF POS=(11,45),LENGTH=0,ATTRB=(ASKIP,NORM)
* 'TLRNC-PCTG-4013-CH53'
ZFLD051  DFHMDF POS=(11,51),LENGTH=0007,ATTRB=(UNPROT),COLOR=DEFAULT,  X
               HILIGHT=OFF
         DFHMDF POS=(11,59),LENGTH=0,ATTRB=(ASKIP,NORM)
* 'TLRNC-AMT-4013-CH53'
ZFLD052  DFHMDF POS=(11,62),LENGTH=0016,ATTRB=(UNPROT),COLOR=DEFAULT,  X
               HILIGHT=OFF
         DFHMDF POS=(11,79),LENGTH=0,ATTRB=(ASKIP,NORM)
* 'ACTN-CODE-CH53'
ZFLD053  DFHMDF POS=(12,02),LENGTH=0001,ATTRB=(UNPROT),COLOR=DEFAULT,  X
               HILIGHT=OFF
         DFHMDF POS=(12,04),LENGTH=0,ATTRB=(ASKIP,NORM)
* 'COA-CODE-4013-CH53'
ZFLD054  DFHMDF POS=(12,06),LENGTH=0001,ATTRB=(UNPROT),COLOR=DEFAULT,  X
               HILIGHT=UNDERLINE
         DFHMDF POS=(12,08),LENGTH=0,ATTRB=(ASKIP,NORM)
* 'USER-ID-4192-CH53'
ZFLD055  DFHMDF POS=(12,10),LENGTH=0008,ATTRB=(UNPROT),COLOR=DEFAULT,  X
               HILIGHT=UNDERLINE
         DFHMDF POS=(12,19),LENGTH=0,ATTRB=(ASKIP,NORM)
* 'BUYER-CODE-4013-CH53'
ZFLD056  DFHMDF POS=(12,33),LENGTH=0004,ATTRB=(UNPROT),COLOR=DEFAULT,  X
               HILIGHT=UNDERLINE
         DFHMDF POS=(12,38),LENGTH=0,ATTRB=(ASKIP,NORM)
* 'NSF-OVRDE-4013-CH53'
ZFLD057  DFHMDF POS=(12,43),LENGTH=0001,ATTRB=(UNPROT),COLOR=DEFAULT,  X
               HILIGHT=UNDERLINE
         DFHMDF POS=(12,45),LENGTH=0,ATTRB=(ASKIP,NORM)
* 'TLRNC-PCTG-4013-CH53'
ZFLD058  DFHMDF POS=(12,51),LENGTH=0007,ATTRB=(UNPROT),COLOR=DEFAULT,  X
               HILIGHT=OFF
         DFHMDF POS=(12,59),LENGTH=0,ATTRB=(ASKIP,NORM)
* 'TLRNC-AMT-4013-CH53'
ZFLD059  DFHMDF POS=(12,62),LENGTH=0016,ATTRB=(UNPROT),COLOR=DEFAULT,  X
               HILIGHT=OFF
         DFHMDF POS=(12,79),LENGTH=0,ATTRB=(ASKIP,NORM)
* 'ACTN-CODE-CH53'
ZFLD060  DFHMDF POS=(13,02),LENGTH=0001,ATTRB=(UNPROT),COLOR=DEFAULT,  X
               HILIGHT=OFF
         DFHMDF POS=(13,04),LENGTH=0,ATTRB=(ASKIP,NORM)
* 'COA-CODE-4013-CH53'
ZFLD061  DFHMDF POS=(13,06),LENGTH=0001,ATTRB=(UNPROT),COLOR=DEFAULT,  X
               HILIGHT=UNDERLINE
         DFHMDF POS=(13,08),LENGTH=0,ATTRB=(ASKIP,NORM)
* 'USER-ID-4192-CH53'
ZFLD062  DFHMDF POS=(13,10),LENGTH=0008,ATTRB=(UNPROT),COLOR=DEFAULT,  X
               HILIGHT=UNDERLINE
         DFHMDF POS=(13,19),LENGTH=0,ATTRB=(ASKIP,NORM)
* 'BUYER-CODE-4013-CH53'
ZFLD063  DFHMDF POS=(13,33),LENGTH=0004,ATTRB=(UNPROT),COLOR=DEFAULT,  X
               HILIGHT=UNDERLINE
         DFHMDF POS=(13,38),LENGTH=0,ATTRB=(ASKIP,NORM)
* 'NSF-OVRDE-4013-CH53'
ZFLD064  DFHMDF POS=(13,43),LENGTH=0001,ATTRB=(UNPROT),COLOR=DEFAULT,  X
               HILIGHT=UNDERLINE
         DFHMDF POS=(13,45),LENGTH=0,ATTRB=(ASKIP,NORM)
* 'TLRNC-PCTG-4013-CH53'
ZFLD065  DFHMDF POS=(13,51),LENGTH=0007,ATTRB=(UNPROT),COLOR=DEFAULT,  X
               HILIGHT=OFF
         DFHMDF POS=(13,59),LENGTH=0,ATTRB=(ASKIP,NORM)
* 'TLRNC-AMT-4013-CH53'
ZFLD066  DFHMDF POS=(13,62),LENGTH=0016,ATTRB=(UNPROT),COLOR=DEFAULT,  X
               HILIGHT=OFF
         DFHMDF POS=(13,79),LENGTH=0,ATTRB=(ASKIP,NORM)
* 'ACTN-CODE-CH53'
ZFLD067  DFHMDF POS=(14,02),LENGTH=0001,ATTRB=(UNPROT),COLOR=DEFAULT,  X
               HILIGHT=OFF
         DFHMDF POS=(14,04),LENGTH=0,ATTRB=(ASKIP,NORM)
* 'COA-CODE-4013-CH53'
ZFLD068  DFHMDF POS=(14,06),LENGTH=0001,ATTRB=(UNPROT),COLOR=DEFAULT,  X
               HILIGHT=UNDERLINE
         DFHMDF POS=(14,08),LENGTH=0,ATTRB=(ASKIP,NORM)
* 'USER-ID-4192-CH53'
ZFLD069  DFHMDF POS=(14,10),LENGTH=0008,ATTRB=(UNPROT),COLOR=DEFAULT,  X
               HILIGHT=UNDERLINE
         DFHMDF POS=(14,19),LENGTH=0,ATTRB=(ASKIP,NORM)
* 'BUYER-CODE-4013-CH53'
ZFLD070  DFHMDF POS=(14,33),LENGTH=0004,ATTRB=(UNPROT),COLOR=DEFAULT,  X
               HILIGHT=UNDERLINE
         DFHMDF POS=(14,38),LENGTH=0,ATTRB=(ASKIP,NORM)
* 'NSF-OVRDE-4013-CH53'
ZFLD071  DFHMDF POS=(14,43),LENGTH=0001,ATTRB=(UNPROT),COLOR=DEFAULT,  X
               HILIGHT=UNDERLINE
         DFHMDF POS=(14,45),LENGTH=0,ATTRB=(ASKIP,NORM)
* 'TLRNC-PCTG-4013-CH53'
ZFLD072  DFHMDF POS=(14,51),LENGTH=0007,ATTRB=(UNPROT),COLOR=DEFAULT,  X
               HILIGHT=OFF
         DFHMDF POS=(14,59),LENGTH=0,ATTRB=(ASKIP,NORM)
* 'TLRNC-AMT-4013-CH53'
ZFLD073  DFHMDF POS=(14,62),LENGTH=0016,ATTRB=(UNPROT),COLOR=DEFAULT,  X
               HILIGHT=OFF
         DFHMDF POS=(14,79),LENGTH=0,ATTRB=(ASKIP,NORM)
* 'ACTN-CODE-CH53'
ZFLD074  DFHMDF POS=(15,02),LENGTH=0001,ATTRB=(UNPROT),COLOR=DEFAULT,  X
               HILIGHT=OFF
         DFHMDF POS=(15,04),LENGTH=0,ATTRB=(ASKIP,NORM)
* 'COA-CODE-4013-CH53'
ZFLD075  DFHMDF POS=(15,06),LENGTH=0001,ATTRB=(UNPROT),COLOR=DEFAULT,  X
               HILIGHT=UNDERLINE
         DFHMDF POS=(15,08),LENGTH=0,ATTRB=(ASKIP,NORM)
* 'USER-ID-4192-CH53'
ZFLD076  DFHMDF POS=(15,10),LENGTH=0008,ATTRB=(UNPROT),COLOR=DEFAULT,  X
               HILIGHT=UNDERLINE
         DFHMDF POS=(15,19),LENGTH=0,ATTRB=(ASKIP,NORM)
* 'BUYER-CODE-4013-CH53'
ZFLD077  DFHMDF POS=(15,33),LENGTH=0004,ATTRB=(UNPROT),COLOR=DEFAULT,  X
               HILIGHT=UNDERLINE
         DFHMDF POS=(15,38),LENGTH=0,ATTRB=(ASKIP,NORM)
* 'NSF-OVRDE-4013-CH53'
ZFLD078  DFHMDF POS=(15,43),LENGTH=0001,ATTRB=(UNPROT),COLOR=DEFAULT,  X
               HILIGHT=UNDERLINE
         DFHMDF POS=(15,45),LENGTH=0,ATTRB=(ASKIP,NORM)
* 'TLRNC-PCTG-4013-CH53'
ZFLD079  DFHMDF POS=(15,51),LENGTH=0007,ATTRB=(UNPROT),COLOR=DEFAULT,  X
               HILIGHT=OFF
         DFHMDF POS=(15,59),LENGTH=0,ATTRB=(ASKIP,NORM)
* 'TLRNC-AMT-4013-CH53'
ZFLD080  DFHMDF POS=(15,62),LENGTH=0016,ATTRB=(UNPROT),COLOR=DEFAULT,  X
               HILIGHT=OFF
         DFHMDF POS=(15,79),LENGTH=0,ATTRB=(ASKIP,NORM)
* 'ACTN-CODE-CH53'
ZFLD081  DFHMDF POS=(16,02),LENGTH=0001,ATTRB=(UNPROT),COLOR=DEFAULT,  X
               HILIGHT=OFF
         DFHMDF POS=(16,04),LENGTH=0,ATTRB=(ASKIP,NORM)
* 'COA-CODE-4013-CH53'
ZFLD082  DFHMDF POS=(16,06),LENGTH=0001,ATTRB=(UNPROT),COLOR=DEFAULT,  X
               HILIGHT=UNDERLINE
         DFHMDF POS=(16,08),LENGTH=0,ATTRB=(ASKIP,NORM)
* 'USER-ID-4192-CH53'
ZFLD083  DFHMDF POS=(16,10),LENGTH=0008,ATTRB=(UNPROT),COLOR=DEFAULT,  X
               HILIGHT=UNDERLINE
         DFHMDF POS=(16,19),LENGTH=0,ATTRB=(ASKIP,NORM)
* 'BUYER-CODE-4013-CH53'
ZFLD084  DFHMDF POS=(16,33),LENGTH=0004,ATTRB=(UNPROT),COLOR=DEFAULT,  X
               HILIGHT=UNDERLINE
         DFHMDF POS=(16,38),LENGTH=0,ATTRB=(ASKIP,NORM)
* 'NSF-OVRDE-4013-CH53'
ZFLD085  DFHMDF POS=(16,43),LENGTH=0001,ATTRB=(UNPROT),COLOR=DEFAULT,  X
               HILIGHT=UNDERLINE
         DFHMDF POS=(16,45),LENGTH=0,ATTRB=(ASKIP,NORM)
* 'TLRNC-PCTG-4013-CH53'
ZFLD086  DFHMDF POS=(16,51),LENGTH=0007,ATTRB=(UNPROT),COLOR=DEFAULT,  X
               HILIGHT=OFF
         DFHMDF POS=(16,59),LENGTH=0,ATTRB=(ASKIP,NORM)
* 'TLRNC-AMT-4013-CH53'
ZFLD087  DFHMDF POS=(16,62),LENGTH=0016,ATTRB=(UNPROT),COLOR=DEFAULT,  X
               HILIGHT=OFF
         DFHMDF POS=(16,79),LENGTH=0,ATTRB=(ASKIP,NORM)
* 'ACTN-CODE-CH53'
ZFLD088  DFHMDF POS=(17,02),LENGTH=0001,ATTRB=(UNPROT),COLOR=DEFAULT,  X
               HILIGHT=OFF
         DFHMDF POS=(17,04),LENGTH=0,ATTRB=(ASKIP,NORM)
* 'COA-CODE-4013-CH53'
ZFLD089  DFHMDF POS=(17,06),LENGTH=0001,ATTRB=(UNPROT),COLOR=DEFAULT,  X
               HILIGHT=UNDERLINE
         DFHMDF POS=(17,08),LENGTH=0,ATTRB=(ASKIP,NORM)
* 'USER-ID-4192-CH53'
ZFLD090  DFHMDF POS=(17,10),LENGTH=0008,ATTRB=(UNPROT),COLOR=DEFAULT,  X
               HILIGHT=UNDERLINE
         DFHMDF POS=(17,19),LENGTH=0,ATTRB=(ASKIP,NORM)
* 'BUYER-CODE-4013-CH53'
ZFLD091  DFHMDF POS=(17,33),LENGTH=0004,ATTRB=(UNPROT),COLOR=DEFAULT,  X
               HILIGHT=UNDERLINE
         DFHMDF POS=(17,38),LENGTH=0,ATTRB=(ASKIP,NORM)
* 'NSF-OVRDE-4013-CH53'
ZFLD092  DFHMDF POS=(17,43),LENGTH=0001,ATTRB=(UNPROT),COLOR=DEFAULT,  X
               HILIGHT=UNDERLINE
         DFHMDF POS=(17,45),LENGTH=0,ATTRB=(ASKIP,NORM)
* 'TLRNC-PCTG-4013-CH53'
ZFLD093  DFHMDF POS=(17,51),LENGTH=0007,ATTRB=(UNPROT),COLOR=DEFAULT,  X
               HILIGHT=OFF
         DFHMDF POS=(17,59),LENGTH=0,ATTRB=(ASKIP,NORM)
* 'TLRNC-AMT-4013-CH53'
ZFLD094  DFHMDF POS=(17,62),LENGTH=0016,ATTRB=(UNPROT),COLOR=DEFAULT,  X
               HILIGHT=OFF
         DFHMDF POS=(17,79),LENGTH=0,ATTRB=(ASKIP,NORM)
* 'ACTN-CODE-CH53'
ZFLD095  DFHMDF POS=(18,02),LENGTH=0001,ATTRB=(UNPROT),COLOR=DEFAULT,  X
               HILIGHT=OFF
         DFHMDF POS=(18,04),LENGTH=0,ATTRB=(ASKIP,NORM)
* 'COA-CODE-4013-CH53'
ZFLD096  DFHMDF POS=(18,06),LENGTH=0001,ATTRB=(UNPROT),COLOR=DEFAULT,  X
               HILIGHT=UNDERLINE
         DFHMDF POS=(18,08),LENGTH=0,ATTRB=(ASKIP,NORM)
* 'USER-ID-4192-CH53'
ZFLD097  DFHMDF POS=(18,10),LENGTH=0008,ATTRB=(UNPROT),COLOR=DEFAULT,  X
               HILIGHT=UNDERLINE
         DFHMDF POS=(18,19),LENGTH=0,ATTRB=(ASKIP,NORM)
* 'BUYER-CODE-4013-CH53'
ZFLD098  DFHMDF POS=(18,33),LENGTH=0004,ATTRB=(UNPROT),COLOR=DEFAULT,  X
               HILIGHT=UNDERLINE
         DFHMDF POS=(18,38),LENGTH=0,ATTRB=(ASKIP,NORM)
* 'NSF-OVRDE-4013-CH53'
ZFLD099  DFHMDF POS=(18,43),LENGTH=0001,ATTRB=(UNPROT),COLOR=DEFAULT,  X
               HILIGHT=UNDERLINE
         DFHMDF POS=(18,45),LENGTH=0,ATTRB=(ASKIP,NORM)
* 'TLRNC-PCTG-4013-CH53'
ZFLD100  DFHMDF POS=(18,51),LENGTH=0007,ATTRB=(UNPROT),COLOR=DEFAULT,  X
               HILIGHT=OFF
         DFHMDF POS=(18,59),LENGTH=0,ATTRB=(ASKIP,NORM)
* 'TLRNC-AMT-4013-CH53'
ZFLD101  DFHMDF POS=(18,62),LENGTH=0016,ATTRB=(UNPROT),COLOR=DEFAULT,  X
               HILIGHT=OFF
         DFHMDF POS=(18,79),LENGTH=0,ATTRB=(ASKIP,NORM)
         DFHMDF POS=(20,01),LENGTH=0012,ATTRB=(PROT,ASKIP),            X
               INITIAL='COA REQUEST:',COLOR=BLUE,HILIGHT=OFF
* 'RQST-COA-CODE-CH53'
ZFLD102  DFHMDF POS=(20,14),LENGTH=0001,ATTRB=(UNPROT),COLOR=DEFAULT,  X
               HILIGHT=UNDERLINE
         DFHMDF POS=(20,16),LENGTH=0,ATTRB=(ASKIP,NORM)
         DFHMDF POS=(20,18),LENGTH=0016,ATTRB=(PROT,ASKIP),            X
               INITIAL='USER ID REQUEST:',COLOR=BLUE,HILIGHT=OFF
* 'RQST-USER-ID-CH53'
ZFLD103  DFHMDF POS=(20,35),LENGTH=0008,ATTRB=(UNPROT),COLOR=DEFAULT,  X
               HILIGHT=UNDERLINE
         DFHMDF POS=(20,44),LENGTH=0,ATTRB=(ASKIP,NORM)
* 'DCLINK-MESSAGE'
ZFLD104  DFHMDF POS=(21,80),LENGTH=0160,ATTRB=(PROT,BRT),              X
               COLOR=DEFAULT,HILIGHT=OFF
         DFHMDF POS=(24,01),LENGTH=0012,ATTRB=(PROT,ASKIP,NUM),        X
               INITIAL='NEXT SCREEN:',COLOR=BLUE,HILIGHT=OFF
* 'AGR-PASSED-ONE'
ZFLD105  DFHMDF POS=(24,14),LENGTH=0030,ATTRB=(UNPROT),COLOR=DEFAULT,  X
               HILIGHT=UNDERLINE
         DFHMDF POS=(24,45),LENGTH=0009,ATTRB=(PROT,ASKIP),            X
               INITIAL='RESPONSE:',COLOR=BLUE,HILIGHT=OFF
* 'AGR-MAP-RESPONSE'
ZFLD106  DFHMDF POS=(24,55),LENGTH=0008,ATTRB=(UNPROT),COLOR=DEFAULT,  X
               HILIGHT=UNDERLINE
         DFHMDF POS=(24,64),LENGTH=0,ATTRB=(ASKIP,NORM)
* 'ERROR-TEXT-SY00'
ZFLD107  DFHMDF POS=(24,65),LENGTH=0014,ATTRB=(PROT,DRK),              X
               COLOR=DEFAULT,HILIGHT=OFF
         DFHMSD TYPE=FINAL
         END
