FCOMT09  DFHMSD TYPE=MAP,LANG=COBOL,TERM=3270,MODE=INOUT,              X
               TIOAPFX=YES,MAPATTS=(COLOR,HILIGHT),                    X
               DSATTS=(COLOR,HILIGHT)
FCOMT09  DFHMDI SIZE=(24,80),LINE=1,COLUMN=1,CTRL=FREEKB,TIOAPFX=YES
         DFHMDF POS=(01,01),LENGTH=0007,ATTRB=(PROT,ASKIP),            X
               INITIAL='FCOMT09',COLOR=BLUE,HILIGHT=OFF
* 'TRMNL-ID-SY00'
ZFLD002  DFHMDF POS=(01,10),LENGTH=0008,ATTRB=(PROT),COLOR=BLUE,       X
               HILIGHT=OFF
         DFHMDF POS=(01,19),LENGTH=0,ATTRB=(ASKIP,NORM)
* 'FULL-NAME-6001-SY00'
ZFLD003  DFHMDF POS=(01,23),LENGTH=0035,ATTRB=(PROT),COLOR=BLUE,       X
               HILIGHT=OFF
         DFHMDF POS=(01,59),LENGTH=0,ATTRB=(ASKIP,NORM)
* 'AGR-DATE'
ZFLD004  DFHMDF POS=(01,64),LENGTH=0008,ATTRB=(PROT),COLOR=BLUE,       X
               HILIGHT=OFF
* 'WORK-HH-MM-TIME-SY00'
ZFLD005  DFHMDF POS=(01,73),LENGTH=0005,ATTRB=(PROT),COLOR=BLUE,       X
               HILIGHT=OFF
* 'AM-PM-FLAG-SY00'
ZFLD006  DFHMDF POS=(01,79),LENGTH=0001,ATTRB=(PROT),COLOR=BLUE,       X
               HILIGHT=OFF
* 'AGR-USER-ID'
ZFLD007  DFHMDF POS=(02,01),LENGTH=0008,ATTRB=(PROT),COLOR=BLUE,       X
               HILIGHT=OFF
         DFHMDF POS=(02,10),LENGTH=0,ATTRB=(ASKIP,NORM)
* 'CURR-RSPNS-ID-SY00'
ZFLD008  DFHMDF POS=(02,21),LENGTH=0008,ATTRB=(PROT,BRT),              X
               COLOR=DEFAULT,HILIGHT=OFF
         DFHMDF POS=(02,30),LENGTH=0001,ATTRB=(PROT,ASKIP,BRT),        X
               INITIAL=':',COLOR=DEFAULT,HILIGHT=OFF
* 'AGR-FUNC-DESCRIPTION'
ZFLD009  DFHMDF POS=(02,32),LENGTH=0028,ATTRB=(PROT,BRT),              X
               COLOR=DEFAULT,HILIGHT=OFF
         DFHMDF POS=(02,61),LENGTH=0,ATTRB=(ASKIP,NORM)
* 'PAGE-STATUS-CODE-SY00'
ZFLD010  DFHMDF POS=(02,64),LENGTH=0010,ATTRB=(PROT,BRT),              X
               COLOR=DEFAULT,HILIGHT=OFF
         DFHMDF POS=(02,75),LENGTH=0,ATTRB=(ASKIP,NORM)
         DFHMDF POS=(04,01),LENGTH=0007,ATTRB=(PROT,ASKIP),            X
               INITIAL='OFFICE:',COLOR=BLUE,HILIGHT=OFF
* 'OFC-CODE-6268-CO09'
ZFLD011  DFHMDF POS=(04,09),LENGTH=0004,ATTRB=(UNPROT,IC),             X
               COLOR=DEFAULT,HILIGHT=UNDERLINE
         DFHMDF POS=(04,14),LENGTH=0,ATTRB=(ASKIP,NORM)
* 'FULL-NAME-2155-CO09'
ZFLD012  DFHMDF POS=(04,15),LENGTH=0035,ATTRB=(PROT),COLOR=TURQUOISE,  X
               HILIGHT=OFF
         DFHMDF POS=(04,51),LENGTH=0,ATTRB=(ASKIP,NORM)
         DFHMDF POS=(06,01),LENGTH=0157,ATTRB=(PROT,ASKIP),            X
               INITIAL='ACTION  PARA    SHORT           FULL DESCRIPTIOX
               N            COMM    OFFC PARA   (ACDLR) CODE  DESCRIPTNX
                                                    VIEW    CODE TEXT',X
               COLOR=BLUE,HILIGHT=OFF
* 'ACTN-CODE-CO09'
ZFLD013  DFHMDF POS=(08,03),LENGTH=0001,ATTRB=(UNPROT),COLOR=DEFAULT,  X
               HILIGHT=OFF
         DFHMDF POS=(08,05),LENGTH=0,ATTRB=(ASKIP,NORM)
* 'PARA-CODE-6268-CO09'
ZFLD014  DFHMDF POS=(08,09),LENGTH=0004,ATTRB=(UNPROT),COLOR=DEFAULT,  X
               HILIGHT=UNDERLINE
         DFHMDF POS=(08,14),LENGTH=0,ATTRB=(ASKIP,NORM)
* 'SHORT-DESC-6268-CO09'
ZFLD015  DFHMDF POS=(08,15),LENGTH=0010,ATTRB=(UNPROT),COLOR=DEFAULT,  X
               HILIGHT=UNDERLINE
         DFHMDF POS=(08,26),LENGTH=0,ATTRB=(ASKIP,NORM)
* 'LONG-DESC-6268-CO09'
ZFLD016  DFHMDF POS=(08,27),LENGTH=0030,ATTRB=(UNPROT),COLOR=DEFAULT,  X
               HILIGHT=UNDERLINE
         DFHMDF POS=(08,58),LENGTH=0,ATTRB=(ASKIP,NORM)
* 'COMM-VIEW-6268-CO09'
ZFLD017  DFHMDF POS=(08,59),LENGTH=0008,ATTRB=(UNPROT),COLOR=DEFAULT,  X
               HILIGHT=UNDERLINE
         DFHMDF POS=(08,68),LENGTH=0,ATTRB=(ASKIP,NORM)
* 'OFC-CODE-2155-CO09'
ZFLD018  DFHMDF POS=(08,69),LENGTH=0004,ATTRB=(UNPROT),COLOR=DEFAULT,  X
               HILIGHT=UNDERLINE
         DFHMDF POS=(08,74),LENGTH=0,ATTRB=(ASKIP,NORM)
* 'TEXT-FLAG-CO09'
ZFLD019  DFHMDF POS=(08,76),LENGTH=0001,ATTRB=(PROT),COLOR=TURQUOISE,  X
               HILIGHT=OFF
         DFHMDF POS=(08,78),LENGTH=0,ATTRB=(ASKIP,NORM)
* 'ACTN-CODE-CO09'
ZFLD020  DFHMDF POS=(09,03),LENGTH=0001,ATTRB=(UNPROT),COLOR=DEFAULT,  X
               HILIGHT=OFF
         DFHMDF POS=(09,05),LENGTH=0,ATTRB=(ASKIP,NORM)
* 'PARA-CODE-6268-CO09'
ZFLD021  DFHMDF POS=(09,09),LENGTH=0004,ATTRB=(UNPROT),COLOR=DEFAULT,  X
               HILIGHT=UNDERLINE
         DFHMDF POS=(09,14),LENGTH=0,ATTRB=(ASKIP,NORM)
* 'SHORT-DESC-6268-CO09'
ZFLD022  DFHMDF POS=(09,15),LENGTH=0010,ATTRB=(UNPROT),COLOR=DEFAULT,  X
               HILIGHT=UNDERLINE
         DFHMDF POS=(09,26),LENGTH=0,ATTRB=(ASKIP,NORM)
* 'LONG-DESC-6268-CO09'
ZFLD023  DFHMDF POS=(09,27),LENGTH=0030,ATTRB=(UNPROT),COLOR=DEFAULT,  X
               HILIGHT=UNDERLINE
         DFHMDF POS=(09,58),LENGTH=0,ATTRB=(ASKIP,NORM)
* 'COMM-VIEW-6268-CO09'
ZFLD024  DFHMDF POS=(09,59),LENGTH=0008,ATTRB=(UNPROT),COLOR=DEFAULT,  X
               HILIGHT=UNDERLINE
         DFHMDF POS=(09,68),LENGTH=0,ATTRB=(ASKIP,NORM)
* 'OFC-CODE-2155-CO09'
ZFLD025  DFHMDF POS=(09,69),LENGTH=0004,ATTRB=(UNPROT),COLOR=DEFAULT,  X
               HILIGHT=UNDERLINE
         DFHMDF POS=(09,74),LENGTH=0,ATTRB=(ASKIP,NORM)
* 'TEXT-FLAG-CO09'
ZFLD026  DFHMDF POS=(09,76),LENGTH=0001,ATTRB=(PROT),COLOR=TURQUOISE,  X
               HILIGHT=OFF
         DFHMDF POS=(09,78),LENGTH=0,ATTRB=(ASKIP,NORM)
* 'ACTN-CODE-CO09'
ZFLD027  DFHMDF POS=(10,03),LENGTH=0001,ATTRB=(UNPROT),COLOR=DEFAULT,  X
               HILIGHT=OFF
         DFHMDF POS=(10,05),LENGTH=0,ATTRB=(ASKIP,NORM)
* 'PARA-CODE-6268-CO09'
ZFLD028  DFHMDF POS=(10,09),LENGTH=0004,ATTRB=(UNPROT),COLOR=DEFAULT,  X
               HILIGHT=UNDERLINE
         DFHMDF POS=(10,14),LENGTH=0,ATTRB=(ASKIP,NORM)
* 'SHORT-DESC-6268-CO09'
ZFLD029  DFHMDF POS=(10,15),LENGTH=0010,ATTRB=(UNPROT),COLOR=DEFAULT,  X
               HILIGHT=UNDERLINE
         DFHMDF POS=(10,26),LENGTH=0,ATTRB=(ASKIP,NORM)
* 'LONG-DESC-6268-CO09'
ZFLD030  DFHMDF POS=(10,27),LENGTH=0030,ATTRB=(UNPROT),COLOR=DEFAULT,  X
               HILIGHT=UNDERLINE
         DFHMDF POS=(10,58),LENGTH=0,ATTRB=(ASKIP,NORM)
* 'COMM-VIEW-6268-CO09'
ZFLD031  DFHMDF POS=(10,59),LENGTH=0008,ATTRB=(UNPROT),COLOR=DEFAULT,  X
               HILIGHT=UNDERLINE
         DFHMDF POS=(10,68),LENGTH=0,ATTRB=(ASKIP,NORM)
* 'OFC-CODE-2155-CO09'
ZFLD032  DFHMDF POS=(10,69),LENGTH=0004,ATTRB=(UNPROT),COLOR=DEFAULT,  X
               HILIGHT=UNDERLINE
         DFHMDF POS=(10,74),LENGTH=0,ATTRB=(ASKIP,NORM)
* 'TEXT-FLAG-CO09'
ZFLD033  DFHMDF POS=(10,76),LENGTH=0001,ATTRB=(PROT),COLOR=TURQUOISE,  X
               HILIGHT=OFF
         DFHMDF POS=(10,78),LENGTH=0,ATTRB=(ASKIP,NORM)
* 'ACTN-CODE-CO09'
ZFLD034  DFHMDF POS=(11,03),LENGTH=0001,ATTRB=(UNPROT),COLOR=DEFAULT,  X
               HILIGHT=OFF
         DFHMDF POS=(11,05),LENGTH=0,ATTRB=(ASKIP,NORM)
* 'PARA-CODE-6268-CO09'
ZFLD035  DFHMDF POS=(11,09),LENGTH=0004,ATTRB=(UNPROT),COLOR=DEFAULT,  X
               HILIGHT=UNDERLINE
         DFHMDF POS=(11,14),LENGTH=0,ATTRB=(ASKIP,NORM)
* 'SHORT-DESC-6268-CO09'
ZFLD036  DFHMDF POS=(11,15),LENGTH=0010,ATTRB=(UNPROT),COLOR=DEFAULT,  X
               HILIGHT=UNDERLINE
         DFHMDF POS=(11,26),LENGTH=0,ATTRB=(ASKIP,NORM)
* 'LONG-DESC-6268-CO09'
ZFLD037  DFHMDF POS=(11,27),LENGTH=0030,ATTRB=(UNPROT),COLOR=DEFAULT,  X
               HILIGHT=UNDERLINE
         DFHMDF POS=(11,58),LENGTH=0,ATTRB=(ASKIP,NORM)
* 'COMM-VIEW-6268-CO09'
ZFLD038  DFHMDF POS=(11,59),LENGTH=0008,ATTRB=(UNPROT),COLOR=DEFAULT,  X
               HILIGHT=UNDERLINE
         DFHMDF POS=(11,68),LENGTH=0,ATTRB=(ASKIP,NORM)
* 'OFC-CODE-2155-CO09'
ZFLD039  DFHMDF POS=(11,69),LENGTH=0004,ATTRB=(UNPROT),COLOR=DEFAULT,  X
               HILIGHT=UNDERLINE
         DFHMDF POS=(11,74),LENGTH=0,ATTRB=(ASKIP,NORM)
* 'TEXT-FLAG-CO09'
ZFLD040  DFHMDF POS=(11,76),LENGTH=0001,ATTRB=(PROT),COLOR=TURQUOISE,  X
               HILIGHT=OFF
         DFHMDF POS=(11,78),LENGTH=0,ATTRB=(ASKIP,NORM)
* 'ACTN-CODE-CO09'
ZFLD041  DFHMDF POS=(12,03),LENGTH=0001,ATTRB=(UNPROT),COLOR=DEFAULT,  X
               HILIGHT=OFF
         DFHMDF POS=(12,05),LENGTH=0,ATTRB=(ASKIP,NORM)
* 'PARA-CODE-6268-CO09'
ZFLD042  DFHMDF POS=(12,09),LENGTH=0004,ATTRB=(UNPROT),COLOR=DEFAULT,  X
               HILIGHT=UNDERLINE
         DFHMDF POS=(12,14),LENGTH=0,ATTRB=(ASKIP,NORM)
* 'SHORT-DESC-6268-CO09'
ZFLD043  DFHMDF POS=(12,15),LENGTH=0010,ATTRB=(UNPROT),COLOR=DEFAULT,  X
               HILIGHT=UNDERLINE
         DFHMDF POS=(12,26),LENGTH=0,ATTRB=(ASKIP,NORM)
* 'LONG-DESC-6268-CO09'
ZFLD044  DFHMDF POS=(12,27),LENGTH=0030,ATTRB=(UNPROT),COLOR=DEFAULT,  X
               HILIGHT=UNDERLINE
         DFHMDF POS=(12,58),LENGTH=0,ATTRB=(ASKIP,NORM)
* 'COMM-VIEW-6268-CO09'
ZFLD045  DFHMDF POS=(12,59),LENGTH=0008,ATTRB=(UNPROT),COLOR=DEFAULT,  X
               HILIGHT=UNDERLINE
         DFHMDF POS=(12,68),LENGTH=0,ATTRB=(ASKIP,NORM)
* 'OFC-CODE-2155-CO09'
ZFLD046  DFHMDF POS=(12,69),LENGTH=0004,ATTRB=(UNPROT),COLOR=DEFAULT,  X
               HILIGHT=UNDERLINE
         DFHMDF POS=(12,74),LENGTH=0,ATTRB=(ASKIP,NORM)
* 'TEXT-FLAG-CO09'
ZFLD047  DFHMDF POS=(12,76),LENGTH=0001,ATTRB=(PROT),COLOR=TURQUOISE,  X
               HILIGHT=OFF
         DFHMDF POS=(12,78),LENGTH=0,ATTRB=(ASKIP,NORM)
* 'ACTN-CODE-CO09'
ZFLD048  DFHMDF POS=(13,03),LENGTH=0001,ATTRB=(UNPROT),COLOR=DEFAULT,  X
               HILIGHT=OFF
         DFHMDF POS=(13,05),LENGTH=0,ATTRB=(ASKIP,NORM)
* 'PARA-CODE-6268-CO09'
ZFLD049  DFHMDF POS=(13,09),LENGTH=0004,ATTRB=(UNPROT),COLOR=DEFAULT,  X
               HILIGHT=UNDERLINE
         DFHMDF POS=(13,14),LENGTH=0,ATTRB=(ASKIP,NORM)
* 'SHORT-DESC-6268-CO09'
ZFLD050  DFHMDF POS=(13,15),LENGTH=0010,ATTRB=(UNPROT),COLOR=DEFAULT,  X
               HILIGHT=UNDERLINE
         DFHMDF POS=(13,26),LENGTH=0,ATTRB=(ASKIP,NORM)
* 'LONG-DESC-6268-CO09'
ZFLD051  DFHMDF POS=(13,27),LENGTH=0030,ATTRB=(UNPROT),COLOR=DEFAULT,  X
               HILIGHT=UNDERLINE
         DFHMDF POS=(13,58),LENGTH=0,ATTRB=(ASKIP,NORM)
* 'COMM-VIEW-6268-CO09'
ZFLD052  DFHMDF POS=(13,59),LENGTH=0008,ATTRB=(UNPROT),COLOR=DEFAULT,  X
               HILIGHT=UNDERLINE
         DFHMDF POS=(13,68),LENGTH=0,ATTRB=(ASKIP,NORM)
* 'OFC-CODE-2155-CO09'
ZFLD053  DFHMDF POS=(13,69),LENGTH=0004,ATTRB=(UNPROT),COLOR=DEFAULT,  X
               HILIGHT=UNDERLINE
         DFHMDF POS=(13,74),LENGTH=0,ATTRB=(ASKIP,NORM)
* 'TEXT-FLAG-CO09'
ZFLD054  DFHMDF POS=(13,76),LENGTH=0001,ATTRB=(PROT),COLOR=TURQUOISE,  X
               HILIGHT=OFF
         DFHMDF POS=(13,78),LENGTH=0,ATTRB=(ASKIP,NORM)
* 'ACTN-CODE-CO09'
ZFLD055  DFHMDF POS=(14,03),LENGTH=0001,ATTRB=(UNPROT),COLOR=DEFAULT,  X
               HILIGHT=OFF
         DFHMDF POS=(14,05),LENGTH=0,ATTRB=(ASKIP,NORM)
* 'PARA-CODE-6268-CO09'
ZFLD056  DFHMDF POS=(14,09),LENGTH=0004,ATTRB=(UNPROT),COLOR=DEFAULT,  X
               HILIGHT=UNDERLINE
         DFHMDF POS=(14,14),LENGTH=0,ATTRB=(ASKIP,NORM)
* 'SHORT-DESC-6268-CO09'
ZFLD057  DFHMDF POS=(14,15),LENGTH=0010,ATTRB=(UNPROT),COLOR=DEFAULT,  X
               HILIGHT=UNDERLINE
         DFHMDF POS=(14,26),LENGTH=0,ATTRB=(ASKIP,NORM)
* 'LONG-DESC-6268-CO09'
ZFLD058  DFHMDF POS=(14,27),LENGTH=0030,ATTRB=(UNPROT),COLOR=DEFAULT,  X
               HILIGHT=UNDERLINE
         DFHMDF POS=(14,58),LENGTH=0,ATTRB=(ASKIP,NORM)
* 'COMM-VIEW-6268-CO09'
ZFLD059  DFHMDF POS=(14,59),LENGTH=0008,ATTRB=(UNPROT),COLOR=DEFAULT,  X
               HILIGHT=UNDERLINE
         DFHMDF POS=(14,68),LENGTH=0,ATTRB=(ASKIP,NORM)
* 'OFC-CODE-2155-CO09'
ZFLD060  DFHMDF POS=(14,69),LENGTH=0004,ATTRB=(UNPROT),COLOR=DEFAULT,  X
               HILIGHT=UNDERLINE
         DFHMDF POS=(14,74),LENGTH=0,ATTRB=(ASKIP,NORM)
* 'TEXT-FLAG-CO09'
ZFLD061  DFHMDF POS=(14,76),LENGTH=0001,ATTRB=(PROT),COLOR=TURQUOISE,  X
               HILIGHT=OFF
         DFHMDF POS=(14,78),LENGTH=0,ATTRB=(ASKIP,NORM)
* 'ACTN-CODE-CO09'
ZFLD062  DFHMDF POS=(15,03),LENGTH=0001,ATTRB=(UNPROT),COLOR=DEFAULT,  X
               HILIGHT=OFF
         DFHMDF POS=(15,05),LENGTH=0,ATTRB=(ASKIP,NORM)
* 'PARA-CODE-6268-CO09'
ZFLD063  DFHMDF POS=(15,09),LENGTH=0004,ATTRB=(UNPROT),COLOR=DEFAULT,  X
               HILIGHT=UNDERLINE
         DFHMDF POS=(15,14),LENGTH=0,ATTRB=(ASKIP,NORM)
* 'SHORT-DESC-6268-CO09'
ZFLD064  DFHMDF POS=(15,15),LENGTH=0010,ATTRB=(UNPROT),COLOR=DEFAULT,  X
               HILIGHT=UNDERLINE
         DFHMDF POS=(15,26),LENGTH=0,ATTRB=(ASKIP,NORM)
* 'LONG-DESC-6268-CO09'
ZFLD065  DFHMDF POS=(15,27),LENGTH=0030,ATTRB=(UNPROT),COLOR=DEFAULT,  X
               HILIGHT=UNDERLINE
         DFHMDF POS=(15,58),LENGTH=0,ATTRB=(ASKIP,NORM)
* 'COMM-VIEW-6268-CO09'
ZFLD066  DFHMDF POS=(15,59),LENGTH=0008,ATTRB=(UNPROT),COLOR=DEFAULT,  X
               HILIGHT=UNDERLINE
         DFHMDF POS=(15,68),LENGTH=0,ATTRB=(ASKIP,NORM)
* 'OFC-CODE-2155-CO09'
ZFLD067  DFHMDF POS=(15,69),LENGTH=0004,ATTRB=(UNPROT),COLOR=DEFAULT,  X
               HILIGHT=UNDERLINE
         DFHMDF POS=(15,74),LENGTH=0,ATTRB=(ASKIP,NORM)
* 'TEXT-FLAG-CO09'
ZFLD068  DFHMDF POS=(15,76),LENGTH=0001,ATTRB=(PROT),COLOR=TURQUOISE,  X
               HILIGHT=OFF
         DFHMDF POS=(15,78),LENGTH=0,ATTRB=(ASKIP,NORM)
* 'ACTN-CODE-CO09'
ZFLD069  DFHMDF POS=(16,03),LENGTH=0001,ATTRB=(UNPROT),COLOR=DEFAULT,  X
               HILIGHT=OFF
         DFHMDF POS=(16,05),LENGTH=0,ATTRB=(ASKIP,NORM)
* 'PARA-CODE-6268-CO09'
ZFLD070  DFHMDF POS=(16,09),LENGTH=0004,ATTRB=(UNPROT),COLOR=DEFAULT,  X
               HILIGHT=UNDERLINE
         DFHMDF POS=(16,14),LENGTH=0,ATTRB=(ASKIP,NORM)
* 'SHORT-DESC-6268-CO09'
ZFLD071  DFHMDF POS=(16,15),LENGTH=0010,ATTRB=(UNPROT),COLOR=DEFAULT,  X
               HILIGHT=UNDERLINE
         DFHMDF POS=(16,26),LENGTH=0,ATTRB=(ASKIP,NORM)
* 'LONG-DESC-6268-CO09'
ZFLD072  DFHMDF POS=(16,27),LENGTH=0030,ATTRB=(UNPROT),COLOR=DEFAULT,  X
               HILIGHT=UNDERLINE
         DFHMDF POS=(16,58),LENGTH=0,ATTRB=(ASKIP,NORM)
* 'COMM-VIEW-6268-CO09'
ZFLD073  DFHMDF POS=(16,59),LENGTH=0008,ATTRB=(UNPROT),COLOR=DEFAULT,  X
               HILIGHT=UNDERLINE
         DFHMDF POS=(16,68),LENGTH=0,ATTRB=(ASKIP,NORM)
* 'OFC-CODE-2155-CO09'
ZFLD074  DFHMDF POS=(16,69),LENGTH=0004,ATTRB=(UNPROT),COLOR=DEFAULT,  X
               HILIGHT=UNDERLINE
         DFHMDF POS=(16,74),LENGTH=0,ATTRB=(ASKIP,NORM)
* 'TEXT-FLAG-CO09'
ZFLD075  DFHMDF POS=(16,76),LENGTH=0001,ATTRB=(PROT),COLOR=TURQUOISE,  X
               HILIGHT=OFF
         DFHMDF POS=(16,78),LENGTH=0,ATTRB=(ASKIP,NORM)
* 'ACTN-CODE-CO09'
ZFLD076  DFHMDF POS=(17,03),LENGTH=0001,ATTRB=(UNPROT),COLOR=DEFAULT,  X
               HILIGHT=OFF
         DFHMDF POS=(17,05),LENGTH=0,ATTRB=(ASKIP,NORM)
* 'PARA-CODE-6268-CO09'
ZFLD077  DFHMDF POS=(17,09),LENGTH=0004,ATTRB=(UNPROT),COLOR=DEFAULT,  X
               HILIGHT=UNDERLINE
         DFHMDF POS=(17,14),LENGTH=0,ATTRB=(ASKIP,NORM)
* 'SHORT-DESC-6268-CO09'
ZFLD078  DFHMDF POS=(17,15),LENGTH=0010,ATTRB=(UNPROT),COLOR=DEFAULT,  X
               HILIGHT=UNDERLINE
         DFHMDF POS=(17,26),LENGTH=0,ATTRB=(ASKIP,NORM)
* 'LONG-DESC-6268-CO09'
ZFLD079  DFHMDF POS=(17,27),LENGTH=0030,ATTRB=(UNPROT),COLOR=DEFAULT,  X
               HILIGHT=UNDERLINE
         DFHMDF POS=(17,58),LENGTH=0,ATTRB=(ASKIP,NORM)
* 'COMM-VIEW-6268-CO09'
ZFLD080  DFHMDF POS=(17,59),LENGTH=0008,ATTRB=(UNPROT),COLOR=DEFAULT,  X
               HILIGHT=UNDERLINE
         DFHMDF POS=(17,68),LENGTH=0,ATTRB=(ASKIP,NORM)
* 'OFC-CODE-2155-CO09'
ZFLD081  DFHMDF POS=(17,69),LENGTH=0004,ATTRB=(UNPROT),COLOR=DEFAULT,  X
               HILIGHT=UNDERLINE
         DFHMDF POS=(17,74),LENGTH=0,ATTRB=(ASKIP,NORM)
* 'TEXT-FLAG-CO09'
ZFLD082  DFHMDF POS=(17,76),LENGTH=0001,ATTRB=(PROT),COLOR=TURQUOISE,  X
               HILIGHT=OFF
         DFHMDF POS=(17,78),LENGTH=0,ATTRB=(ASKIP,NORM)
* 'ACTN-CODE-CO09'
ZFLD083  DFHMDF POS=(18,03),LENGTH=0001,ATTRB=(UNPROT),COLOR=DEFAULT,  X
               HILIGHT=OFF
         DFHMDF POS=(18,05),LENGTH=0,ATTRB=(ASKIP,NORM)
* 'PARA-CODE-6268-CO09'
ZFLD084  DFHMDF POS=(18,09),LENGTH=0004,ATTRB=(UNPROT),COLOR=DEFAULT,  X
               HILIGHT=UNDERLINE
         DFHMDF POS=(18,14),LENGTH=0,ATTRB=(ASKIP,NORM)
* 'SHORT-DESC-6268-CO09'
ZFLD085  DFHMDF POS=(18,15),LENGTH=0010,ATTRB=(UNPROT),COLOR=DEFAULT,  X
               HILIGHT=UNDERLINE
         DFHMDF POS=(18,26),LENGTH=0,ATTRB=(ASKIP,NORM)
* 'LONG-DESC-6268-CO09'
ZFLD086  DFHMDF POS=(18,27),LENGTH=0030,ATTRB=(UNPROT),COLOR=DEFAULT,  X
               HILIGHT=UNDERLINE
         DFHMDF POS=(18,58),LENGTH=0,ATTRB=(ASKIP,NORM)
* 'COMM-VIEW-6268-CO09'
ZFLD087  DFHMDF POS=(18,59),LENGTH=0008,ATTRB=(UNPROT),COLOR=DEFAULT,  X
               HILIGHT=UNDERLINE
         DFHMDF POS=(18,68),LENGTH=0,ATTRB=(ASKIP,NORM)
* 'OFC-CODE-2155-CO09'
ZFLD088  DFHMDF POS=(18,69),LENGTH=0004,ATTRB=(UNPROT),COLOR=DEFAULT,  X
               HILIGHT=UNDERLINE
         DFHMDF POS=(18,74),LENGTH=0,ATTRB=(ASKIP,NORM)
* 'TEXT-FLAG-CO09'
ZFLD089  DFHMDF POS=(18,76),LENGTH=0001,ATTRB=(PROT),COLOR=TURQUOISE,  X
               HILIGHT=OFF
         DFHMDF POS=(18,78),LENGTH=0,ATTRB=(ASKIP,NORM)
         DFHMDF POS=(20,01),LENGTH=0018,ATTRB=(PROT,ASKIP),            X
               INITIAL='PARA CODE REQUEST:',COLOR=BLUE,HILIGHT=OFF
* 'RQST-PARA-CODE-CO09'
ZFLD090  DFHMDF POS=(20,20),LENGTH=0004,ATTRB=(UNPROT),COLOR=DEFAULT,  X
               HILIGHT=UNDERLINE
         DFHMDF POS=(20,25),LENGTH=0,ATTRB=(ASKIP,NORM)
* 'DCLINK-MESSAGE'
ZFLD091  DFHMDF POS=(21,80),LENGTH=0160,ATTRB=(PROT,BRT),              X
               COLOR=DEFAULT,HILIGHT=OFF
         DFHMDF POS=(24,01),LENGTH=0012,ATTRB=(PROT,ASKIP,NUM),        X
               INITIAL='NEXT SCREEN:',COLOR=BLUE,HILIGHT=OFF
* 'AGR-PASSED-ONE'
ZFLD092  DFHMDF POS=(24,14),LENGTH=0030,ATTRB=(UNPROT),COLOR=DEFAULT,  X
               HILIGHT=UNDERLINE
         DFHMDF POS=(24,45),LENGTH=0009,ATTRB=(PROT,ASKIP),            X
               INITIAL='RESPONSE:',COLOR=BLUE,HILIGHT=OFF
* 'AGR-MAP-RESPONSE'
ZFLD093  DFHMDF POS=(24,55),LENGTH=0008,ATTRB=(UNPROT),COLOR=DEFAULT,  X
               HILIGHT=UNDERLINE
         DFHMDF POS=(24,64),LENGTH=0,ATTRB=(ASKIP,NORM)
* 'ERROR-TEXT-SY00'
ZFLD094  DFHMDF POS=(24,65),LENGTH=0014,ATTRB=(PROT,DRK),              X
               COLOR=DEFAULT,HILIGHT=OFF
         DFHMSD TYPE=FINAL
         END
