FGAMI01  DFHMSD TYPE=MAP,LANG=COBOL,TERM=3270,MODE=INOUT,              X
               TIOAPFX=YES,MAPATTS=(COLOR,HILIGHT),                    X
               DSATTS=(COLOR,HILIGHT)
FGAMI01  DFHMDI SIZE=(24,80),LINE=1,COLUMN=1,CTRL=FREEKB,TIOAPFX=YES
         DFHMDF POS=(01,01),LENGTH=0007,ATTRB=(PROT),                  X
               INITIAL='FGAMI01',COLOR=BLUE,HILIGHT=OFF
* 'TRMNL-ID-SY00'
ZFLD002  DFHMDF POS=(01,10),LENGTH=0008,ATTRB=(PROT),COLOR=BLUE,       X
               HILIGHT=OFF
         DFHMDF POS=(01,19),LENGTH=0,ATTRB=(ASKIP,NORM)
* 'FULL-NAME-6001-SY00'
ZFLD003  DFHMDF POS=(01,23),LENGTH=0035,ATTRB=(PROT),COLOR=BLUE,       X
               HILIGHT=OFF
         DFHMDF POS=(01,59),LENGTH=0,ATTRB=(ASKIP,NORM)
* 'AGR-DATE'
ZFLD004  DFHMDF POS=(01,64),LENGTH=0008,ATTRB=(PROT),COLOR=BLUE,       X
               HILIGHT=OFF
* 'WORK-HH-MM-TIME-SY00'
ZFLD005  DFHMDF POS=(01,73),LENGTH=0005,ATTRB=(PROT),COLOR=BLUE,       X
               HILIGHT=OFF
* 'AM-PM-FLAG-SY00'
ZFLD006  DFHMDF POS=(01,79),LENGTH=0001,ATTRB=(PROT),COLOR=BLUE,       X
               HILIGHT=OFF
* 'AGR-USER-ID'
ZFLD007  DFHMDF POS=(02,01),LENGTH=0008,ATTRB=(PROT),COLOR=BLUE,       X
               HILIGHT=OFF
         DFHMDF POS=(02,10),LENGTH=0,ATTRB=(ASKIP,NORM)
* 'CURR-RSPNS-ID-SY00'
ZFLD008  DFHMDF POS=(02,21),LENGTH=0008,ATTRB=(PROT,BRT),              X
               COLOR=DEFAULT,HILIGHT=OFF
         DFHMDF POS=(02,30),LENGTH=0001,ATTRB=(PROT,BRT),INITIAL=':',  X
               COLOR=DEFAULT,HILIGHT=OFF
* 'AGR-FUNC-DESCRIPTION'
ZFLD009  DFHMDF POS=(02,32),LENGTH=0028,ATTRB=(PROT,BRT),              X
               COLOR=DEFAULT,HILIGHT=OFF
         DFHMDF POS=(02,61),LENGTH=0,ATTRB=(ASKIP,NORM)
* 'PAGE-STATUS-CODE-SY00'
ZFLD010  DFHMDF POS=(02,64),LENGTH=0010,ATTRB=(PROT,BRT),              X
               COLOR=DEFAULT,HILIGHT=OFF
         DFHMDF POS=(02,75),LENGTH=0,ATTRB=(ASKIP,NORM)
         DFHMDF POS=(04,01),LENGTH=0012,ATTRB=(PROT),                  X
               INITIAL='ENCUMBRANCE:',COLOR=BLUE,HILIGHT=OFF
* 'ENCMBRNC-NMBR-4191-GA01'
ZFLD011  DFHMDF POS=(04,14),LENGTH=0008,ATTRB=(UNPROT,IC),             X
               COLOR=DEFAULT,HILIGHT=UNDERLINE
         DFHMDF POS=(04,23),LENGTH=0,ATTRB=(ASKIP,NORM)
* 'ENCMBRNC-DESC-4191-GA01'
ZFLD012  DFHMDF POS=(04,24),LENGTH=0035,ATTRB=(PROT),COLOR=TURQUOISE,  X
               HILIGHT=OFF
         DFHMDF POS=(04,60),LENGTH=0,ATTRB=(ASKIP,NORM)
         DFHMDF POS=(04,61),LENGTH=0007,ATTRB=(PROT),                  X
               INITIAL='STATUS:',COLOR=BLUE,HILIGHT=OFF
* 'ENCMBRNC-STATUS-4191-GA01'
ZFLD013  DFHMDF POS=(04,69),LENGTH=0001,ATTRB=(PROT),COLOR=TURQUOISE,  X
               HILIGHT=OFF
         DFHMDF POS=(04,71),LENGTH=0,ATTRB=(ASKIP,NORM)
         DFHMDF POS=(05,02),LENGTH=0011,ATTRB=(PROT),                  X
               INITIAL='DCMNT TYPE:',COLOR=BLUE,HILIGHT=OFF
* 'DCMNT-TYPE-4191-GA01'
ZFLD014  DFHMDF POS=(05,14),LENGTH=0003,ATTRB=(UNPROT),COLOR=DEFAULT,  X
               HILIGHT=UNDERLINE
         DFHMDF POS=(05,18),LENGTH=0,ATTRB=(ASKIP,NORM)
         DFHMDF POS=(05,63),LENGTH=0005,ATTRB=(PROT),INITIAL='TYPE:',  X
               COLOR=BLUE,HILIGHT=OFF
* 'ENCMBRNC-TYPE-4191-GA01'
ZFLD015  DFHMDF POS=(05,69),LENGTH=0001,ATTRB=(PROT),COLOR=TURQUOISE,  X
               HILIGHT=OFF
         DFHMDF POS=(05,71),LENGTH=0,ATTRB=(ASKIP,NORM)
         DFHMDF POS=(06,01),LENGTH=0010,ATTRB=(PROT),                  X
               INITIAL='DATE EST.:',COLOR=BLUE,HILIGHT=OFF
* 'ESTBLD-DATE-4191-GA01'
ZFLD016  DFHMDF POS=(06,12),LENGTH=0008,ATTRB=(PROT),COLOR=TURQUOISE,  X
               HILIGHT=OFF
         DFHMDF POS=(06,21),LENGTH=0,ATTRB=(ASKIP,NORM)
         DFHMDF POS=(06,23),LENGTH=0008,ATTRB=(PROT),                  X
               INITIAL='BALANCE:',COLOR=BLUE,HILIGHT=OFF
* 'BALANCE-GA01'
ZFLD017  DFHMDF POS=(06,32),LENGTH=0016,ATTRB=(PROT),COLOR=TURQUOISE,  X
               HILIGHT=OFF
         DFHMDF POS=(06,49),LENGTH=0,ATTRB=(ASKIP,NORM)
         DFHMDF POS=(06,51),LENGTH=0009,ATTRB=(PROT),                  X
               INITIAL='ORIG ENC:',COLOR=BLUE,HILIGHT=OFF
* 'ORIG-ENCMBRNC-AMT-GA01'
ZFLD018  DFHMDF POS=(06,61),LENGTH=0016,ATTRB=(PROT),COLOR=TURQUOISE,  X
               HILIGHT=OFF
         DFHMDF POS=(06,78),LENGTH=0,ATTRB=(ASKIP,NORM)
         DFHMDF POS=(07,04),LENGTH=0007,ATTRB=(PROT),                  X
               INITIAL='VENDOR:',COLOR=BLUE,HILIGHT=OFF
* 'VNDR-ID-LAST-NINE-GA01'
ZFLD019  DFHMDF POS=(07,12),LENGTH=0009,ATTRB=(PROT),COLOR=TURQUOISE,  X
               HILIGHT=OFF
* 'ENTY-PERS-NAME-GA01'
ZFLD020  DFHMDF POS=(07,22),LENGTH=0055,ATTRB=(PROT),COLOR=TURQUOISE,  X
               HILIGHT=OFF
         DFHMDF POS=(07,78),LENGTH=0,ATTRB=(ASKIP,NORM)
         DFHMDF POS=(09,01),LENGTH=0005,ATTRB=(PROT),INITIAL='ITEM:',  X
               COLOR=BLUE,HILIGHT=OFF
* 'ITEM-NMBR-4190-GA01'
ZFLD021  DFHMDF POS=(09,07),LENGTH=0004,ATTRB=(UNPROT),COLOR=DEFAULT,  X
               HILIGHT=UNDERLINE
         DFHMDF POS=(09,12),LENGTH=0,ATTRB=(ASKIP,NORM)
         DFHMDF POS=(09,13),LENGTH=0009,ATTRB=(PROT),                  X
               INITIAL='SEQUENCE:',COLOR=BLUE,HILIGHT=OFF
* 'SEQ-NMBR-4190-GA01'
ZFLD022  DFHMDF POS=(09,23),LENGTH=0004,ATTRB=(UNPROT),COLOR=DEFAULT,  X
               HILIGHT=UNDERLINE
         DFHMDF POS=(09,28),LENGTH=0,ATTRB=(ASKIP,NORM)
         DFHMDF POS=(10,01),LENGTH=0077,ATTRB=(PROT),                  X
               INITIAL='FY  COA INDEX       FUND    ORG      ACCT    PRX
               OG    ACTIV    LOC     PROJECT',COLOR=BLUE,HILIGHT=OFF
* 'FSCL-YR-4183-GA01'
ZFLD023  DFHMDF POS=(11,01),LENGTH=0002,ATTRB=(UNPROT),COLOR=DEFAULT,  X
               HILIGHT=UNDERLINE
         DFHMDF POS=(11,04),LENGTH=0,ATTRB=(ASKIP,NORM)
* 'COA-CODE-4190-GA01'
ZFLD024  DFHMDF POS=(11,06),LENGTH=0001,ATTRB=(PROT),COLOR=TURQUOISE,  X
               HILIGHT=OFF
         DFHMDF POS=(11,08),LENGTH=0,ATTRB=(ASKIP,NORM)
* 'ACCT-INDX-CODE-4190-GA01'
ZFLD025  DFHMDF POS=(11,09),LENGTH=0010,ATTRB=(PROT),COLOR=TURQUOISE,  X
               HILIGHT=OFF
         DFHMDF POS=(11,20),LENGTH=0,ATTRB=(ASKIP,NORM)
* 'FUND-CODE-4190-GA01'
ZFLD026  DFHMDF POS=(11,21),LENGTH=0006,ATTRB=(PROT),COLOR=TURQUOISE,  X
               HILIGHT=OFF
         DFHMDF POS=(11,28),LENGTH=0,ATTRB=(ASKIP,NORM)
* 'ORGZN-CODE-4190-GA01'
ZFLD027  DFHMDF POS=(11,29),LENGTH=0006,ATTRB=(PROT),COLOR=TURQUOISE,  X
               HILIGHT=OFF
         DFHMDF POS=(11,36),LENGTH=0,ATTRB=(ASKIP,NORM)
* 'ACCT-CODE-4190-GA01'
ZFLD028  DFHMDF POS=(11,38),LENGTH=0006,ATTRB=(PROT),COLOR=TURQUOISE,  X
               HILIGHT=OFF
         DFHMDF POS=(11,45),LENGTH=0,ATTRB=(ASKIP,NORM)
* 'PRGRM-CODE-4190-GA01'
ZFLD029  DFHMDF POS=(11,46),LENGTH=0006,ATTRB=(PROT),COLOR=TURQUOISE,  X
               HILIGHT=OFF
         DFHMDF POS=(11,53),LENGTH=0,ATTRB=(ASKIP,NORM)
* 'ACTVY-CODE-4190-GA01'
ZFLD030  DFHMDF POS=(11,54),LENGTH=0006,ATTRB=(PROT),COLOR=TURQUOISE,  X
               HILIGHT=OFF
         DFHMDF POS=(11,61),LENGTH=0,ATTRB=(ASKIP,NORM)
* 'LCTN-CODE-4190-GA01'
ZFLD031  DFHMDF POS=(11,63),LENGTH=0006,ATTRB=(PROT),COLOR=TURQUOISE,  X
               HILIGHT=OFF
         DFHMDF POS=(11,70),LENGTH=0,ATTRB=(ASKIP,NORM)
* 'PRJCT-CODE-4190-GA01'
ZFLD032  DFHMDF POS=(11,71),LENGTH=0008,ATTRB=(PROT),COLOR=TURQUOISE,  X
               HILIGHT=OFF
         DFHMDF POS=(11,80),LENGTH=0,ATTRB=(ASKIP,NORM)
         DFHMDF POS=(12,07),LENGTH=0004,ATTRB=(PROT),INITIAL='ENC:',   X
               COLOR=BLUE,HILIGHT=OFF
* 'SMRY-ENCMBRNC-ORIG-GA01'
ZFLD033  DFHMDF POS=(12,12),LENGTH=0016,ATTRB=(PROT),COLOR=TURQUOISE,  X
               HILIGHT=OFF
         DFHMDF POS=(12,29),LENGTH=0,ATTRB=(ASKIP,NORM)
         DFHMDF POS=(12,31),LENGTH=0004,ATTRB=(PROT),INITIAL='LIQ:',   X
               COLOR=BLUE,HILIGHT=OFF
* 'SMRY-ENCMBRNC-LIQDTN-GA01'
ZFLD034  DFHMDF POS=(12,36),LENGTH=0016,ATTRB=(PROT),COLOR=TURQUOISE,  X
               HILIGHT=OFF
         DFHMDF POS=(12,53),LENGTH=0,ATTRB=(ASKIP,NORM)
         DFHMDF POS=(12,55),LENGTH=0008,ATTRB=(PROT),                  X
               INITIAL='BALANCE:',COLOR=BLUE,HILIGHT=OFF
* 'FSCL-ENCMBRNC-BAL-GA01'
ZFLD035  DFHMDF POS=(12,64),LENGTH=0016,ATTRB=(PROT),COLOR=TURQUOISE,  X
               HILIGHT=OFF
         DFHMDF POS=(13,01),LENGTH=0,ATTRB=(ASKIP,NORM)
         DFHMDF POS=(14,01),LENGTH=0158,ATTRB=(PROT),                  X
               INITIAL=' TRANSACTION         DOCUMENT                  X
               TRANSACTION         REMAINING        DATE      TYPE    NX
               UMBER    ACTION           AMOUNT             AMOUNT',   X
               COLOR=BLUE,                                             X
               HILIGHT=OFF
* 'TRANS-DATE-4189-GA01'
ZFLD036  DFHMDF POS=(16,03),LENGTH=0008,ATTRB=(PROT),COLOR=TURQUOISE,  X
               HILIGHT=OFF
         DFHMDF POS=(16,12),LENGTH=0,ATTRB=(ASKIP,NORM)
* 'JRNL-TYPE-4189-GA01'
ZFLD037  DFHMDF POS=(16,15),LENGTH=0004,ATTRB=(PROT),COLOR=TURQUOISE,  X
               HILIGHT=OFF
         DFHMDF POS=(16,20),LENGTH=0,ATTRB=(ASKIP,NORM)
* 'DCMNT-NMBR-4189-GA01'
ZFLD038  DFHMDF POS=(16,22),LENGTH=0008,ATTRB=(PROT),COLOR=TURQUOISE,  X
               HILIGHT=OFF
         DFHMDF POS=(16,31),LENGTH=0,ATTRB=(ASKIP,NORM)
* 'ENCMBRNC-ACTN-IND-4188-GA01'
ZFLD039  DFHMDF POS=(16,35),LENGTH=0001,ATTRB=(PROT),COLOR=TURQUOISE,  X
               HILIGHT=OFF
         DFHMDF POS=(16,37),LENGTH=0,ATTRB=(ASKIP,NORM)
* 'AMT-4189-GA01'
ZFLD040  DFHMDF POS=(16,43),LENGTH=0016,ATTRB=(PROT),COLOR=TURQUOISE,  X
               HILIGHT=OFF
         DFHMDF POS=(16,60),LENGTH=0,ATTRB=(ASKIP,NORM)
* 'REMAIN-BALANCE-GA01'
ZFLD041  DFHMDF POS=(16,61),LENGTH=0016,ATTRB=(PROT),COLOR=TURQUOISE,  X
               HILIGHT=OFF
         DFHMDF POS=(16,78),LENGTH=0,ATTRB=(ASKIP,NORM)
* 'TRANS-DATE-4189-GA01'
ZFLD042  DFHMDF POS=(17,03),LENGTH=0008,ATTRB=(PROT),COLOR=TURQUOISE,  X
               HILIGHT=OFF
         DFHMDF POS=(17,12),LENGTH=0,ATTRB=(ASKIP,NORM)
* 'JRNL-TYPE-4189-GA01'
ZFLD043  DFHMDF POS=(17,15),LENGTH=0004,ATTRB=(PROT),COLOR=TURQUOISE,  X
               HILIGHT=OFF
         DFHMDF POS=(17,20),LENGTH=0,ATTRB=(ASKIP,NORM)
* 'DCMNT-NMBR-4189-GA01'
ZFLD044  DFHMDF POS=(17,22),LENGTH=0008,ATTRB=(PROT),COLOR=TURQUOISE,  X
               HILIGHT=OFF
         DFHMDF POS=(17,31),LENGTH=0,ATTRB=(ASKIP,NORM)
* 'ENCMBRNC-ACTN-IND-4188-GA01'
ZFLD045  DFHMDF POS=(17,35),LENGTH=0001,ATTRB=(PROT),COLOR=TURQUOISE,  X
               HILIGHT=OFF
         DFHMDF POS=(17,37),LENGTH=0,ATTRB=(ASKIP,NORM)
* 'AMT-4189-GA01'
ZFLD046  DFHMDF POS=(17,43),LENGTH=0016,ATTRB=(PROT),COLOR=TURQUOISE,  X
               HILIGHT=OFF
         DFHMDF POS=(17,60),LENGTH=0,ATTRB=(ASKIP,NORM)
* 'REMAIN-BALANCE-GA01'
ZFLD047  DFHMDF POS=(17,61),LENGTH=0016,ATTRB=(PROT),COLOR=TURQUOISE,  X
               HILIGHT=OFF
         DFHMDF POS=(17,78),LENGTH=0,ATTRB=(ASKIP,NORM)
* 'TRANS-DATE-4189-GA01'
ZFLD048  DFHMDF POS=(18,03),LENGTH=0008,ATTRB=(PROT),COLOR=TURQUOISE,  X
               HILIGHT=OFF
         DFHMDF POS=(18,12),LENGTH=0,ATTRB=(ASKIP,NORM)
* 'JRNL-TYPE-4189-GA01'
ZFLD049  DFHMDF POS=(18,15),LENGTH=0004,ATTRB=(PROT),COLOR=TURQUOISE,  X
               HILIGHT=OFF
         DFHMDF POS=(18,20),LENGTH=0,ATTRB=(ASKIP,NORM)
* 'DCMNT-NMBR-4189-GA01'
ZFLD050  DFHMDF POS=(18,22),LENGTH=0008,ATTRB=(PROT),COLOR=TURQUOISE,  X
               HILIGHT=OFF
         DFHMDF POS=(18,31),LENGTH=0,ATTRB=(ASKIP,NORM)
* 'ENCMBRNC-ACTN-IND-4188-GA01'
ZFLD051  DFHMDF POS=(18,35),LENGTH=0001,ATTRB=(PROT),COLOR=TURQUOISE,  X
               HILIGHT=OFF
         DFHMDF POS=(18,37),LENGTH=0,ATTRB=(ASKIP,NORM)
* 'AMT-4189-GA01'
ZFLD052  DFHMDF POS=(18,43),LENGTH=0016,ATTRB=(PROT),COLOR=TURQUOISE,  X
               HILIGHT=OFF
         DFHMDF POS=(18,60),LENGTH=0,ATTRB=(ASKIP,NORM)
* 'REMAIN-BALANCE-GA01'
ZFLD053  DFHMDF POS=(18,61),LENGTH=0016,ATTRB=(PROT),COLOR=TURQUOISE,  X
               HILIGHT=OFF
         DFHMDF POS=(18,78),LENGTH=0,ATTRB=(ASKIP,NORM)
* 'TRANS-DATE-4189-GA01'
ZFLD054  DFHMDF POS=(19,03),LENGTH=0008,ATTRB=(PROT),COLOR=TURQUOISE,  X
               HILIGHT=OFF
         DFHMDF POS=(19,12),LENGTH=0,ATTRB=(ASKIP,NORM)
* 'JRNL-TYPE-4189-GA01'
ZFLD055  DFHMDF POS=(19,15),LENGTH=0004,ATTRB=(PROT),COLOR=TURQUOISE,  X
               HILIGHT=OFF
         DFHMDF POS=(19,20),LENGTH=0,ATTRB=(ASKIP,NORM)
* 'DCMNT-NMBR-4189-GA01'
ZFLD056  DFHMDF POS=(19,22),LENGTH=0008,ATTRB=(PROT),COLOR=TURQUOISE,  X
               HILIGHT=OFF
         DFHMDF POS=(19,31),LENGTH=0,ATTRB=(ASKIP,NORM)
* 'ENCMBRNC-ACTN-IND-4188-GA01'
ZFLD057  DFHMDF POS=(19,35),LENGTH=0001,ATTRB=(PROT),COLOR=TURQUOISE,  X
               HILIGHT=OFF
         DFHMDF POS=(19,37),LENGTH=0,ATTRB=(ASKIP,NORM)
* 'AMT-4189-GA01'
ZFLD058  DFHMDF POS=(19,43),LENGTH=0016,ATTRB=(PROT),COLOR=TURQUOISE,  X
               HILIGHT=OFF
         DFHMDF POS=(19,60),LENGTH=0,ATTRB=(ASKIP,NORM)
* 'REMAIN-BALANCE-GA01'
ZFLD059  DFHMDF POS=(19,61),LENGTH=0016,ATTRB=(PROT),COLOR=TURQUOISE,  X
               HILIGHT=OFF
         DFHMDF POS=(19,78),LENGTH=0,ATTRB=(ASKIP,NORM)
* 'TRANS-DATE-4189-GA01'
ZFLD060  DFHMDF POS=(20,03),LENGTH=0008,ATTRB=(PROT),COLOR=TURQUOISE,  X
               HILIGHT=OFF
         DFHMDF POS=(20,12),LENGTH=0,ATTRB=(ASKIP,NORM)
* 'JRNL-TYPE-4189-GA01'
ZFLD061  DFHMDF POS=(20,15),LENGTH=0004,ATTRB=(PROT),COLOR=TURQUOISE,  X
               HILIGHT=OFF
         DFHMDF POS=(20,20),LENGTH=0,ATTRB=(ASKIP,NORM)
* 'DCMNT-NMBR-4189-GA01'
ZFLD062  DFHMDF POS=(20,22),LENGTH=0008,ATTRB=(PROT),COLOR=TURQUOISE,  X
               HILIGHT=OFF
         DFHMDF POS=(20,31),LENGTH=0,ATTRB=(ASKIP,NORM)
* 'ENCMBRNC-ACTN-IND-4188-GA01'
ZFLD063  DFHMDF POS=(20,35),LENGTH=0001,ATTRB=(PROT),COLOR=TURQUOISE,  X
               HILIGHT=OFF
         DFHMDF POS=(20,37),LENGTH=0,ATTRB=(ASKIP,NORM)
* 'AMT-4189-GA01'
ZFLD064  DFHMDF POS=(20,43),LENGTH=0016,ATTRB=(PROT),COLOR=TURQUOISE,  X
               HILIGHT=OFF
         DFHMDF POS=(20,60),LENGTH=0,ATTRB=(ASKIP,NORM)
* 'REMAIN-BALANCE-GA01'
ZFLD065  DFHMDF POS=(20,61),LENGTH=0016,ATTRB=(PROT),COLOR=TURQUOISE,  X
               HILIGHT=OFF
         DFHMDF POS=(20,78),LENGTH=0,ATTRB=(ASKIP,NORM)
* 'DCLINK-MESSAGE'
ZFLD066  DFHMDF POS=(21,80),LENGTH=0160,ATTRB=(PROT,BRT),              X
               COLOR=DEFAULT,HILIGHT=OFF
         DFHMDF POS=(24,01),LENGTH=0012,ATTRB=(PROT,NUM),              X
               INITIAL='NEXT SCREEN:',COLOR=BLUE,HILIGHT=OFF
* 'AGR-PASSED-ONE'
ZFLD067  DFHMDF POS=(24,14),LENGTH=0030,ATTRB=(UNPROT),COLOR=DEFAULT,  X
               HILIGHT=UNDERLINE
         DFHMDF POS=(24,45),LENGTH=0009,ATTRB=(ASKIP,PROT),            X
               INITIAL='RESPONSE:',COLOR=BLUE,HILIGHT=OFF
* 'AGR-MAP-RESPONSE'
ZFLD068  DFHMDF POS=(24,55),LENGTH=0008,ATTRB=(UNPROT),COLOR=DEFAULT,  X
               HILIGHT=UNDERLINE
         DFHMDF POS=(24,64),LENGTH=0,ATTRB=(ASKIP,NORM)
* 'ERROR-TEXT-SY00'
ZFLD069  DFHMDF POS=(24,65),LENGTH=0014,ATTRB=(PROT,DRK),              X
               COLOR=DEFAULT,HILIGHT=OFF
         DFHMSD TYPE=FINAL
         END
