FGAMI32  DFHMSD TYPE=MAP,LANG=COBOL,TERM=3270,MODE=INOUT,              X
               TIOAPFX=YES,MAPATTS=(COLOR,HILIGHT),                    X
               DSATTS=(COLOR,HILIGHT)
FGAMI32  DFHMDI SIZE=(24,80),LINE=1,COLUMN=1,CTRL=FREEKB,TIOAPFX=YES
         DFHMDF POS=(01,01),LENGTH=0007,ATTRB=(PROT,ASKIP),            X
               INITIAL='FGAMI32',COLOR=BLUE,HILIGHT=OFF
* 'TRMNL-ID-SY00'
ZFLD002  DFHMDF POS=(01,10),LENGTH=0008,ATTRB=(PROT),COLOR=BLUE,       X
               HILIGHT=OFF
         DFHMDF POS=(01,19),LENGTH=0,ATTRB=(ASKIP,NORM)
* 'FULL-NAME-6001-SY00'
ZFLD003  DFHMDF POS=(01,23),LENGTH=0035,ATTRB=(PROT),COLOR=BLUE,       X
               HILIGHT=OFF
         DFHMDF POS=(01,59),LENGTH=0,ATTRB=(ASKIP,NORM)
* 'AGR-DATE'
ZFLD004  DFHMDF POS=(01,64),LENGTH=0008,ATTRB=(PROT),COLOR=BLUE,       X
               HILIGHT=OFF
* 'WORK-HH-MM-TIME-SY00'
ZFLD005  DFHMDF POS=(01,73),LENGTH=0005,ATTRB=(PROT),COLOR=BLUE,       X
               HILIGHT=OFF
* 'AM-PM-FLAG-SY00'
ZFLD006  DFHMDF POS=(01,79),LENGTH=0001,ATTRB=(PROT),COLOR=BLUE,       X
               HILIGHT=OFF
* 'AGR-USER-ID'
ZFLD007  DFHMDF POS=(02,01),LENGTH=0008,ATTRB=(PROT),COLOR=BLUE,       X
               HILIGHT=OFF
         DFHMDF POS=(02,10),LENGTH=0,ATTRB=(ASKIP,NORM)
* 'CURR-RSPNS-ID-SY00'
ZFLD008  DFHMDF POS=(02,21),LENGTH=0008,ATTRB=(PROT,BRT),              X
               COLOR=DEFAULT,HILIGHT=OFF
         DFHMDF POS=(02,30),LENGTH=0001,ATTRB=(PROT,ASKIP,BRT),        X
               INITIAL=':',COLOR=DEFAULT,HILIGHT=OFF
* 'AGR-FUNC-DESCRIPTION'
ZFLD009  DFHMDF POS=(02,32),LENGTH=0028,ATTRB=(PROT,BRT),              X
               COLOR=DEFAULT,HILIGHT=OFF
         DFHMDF POS=(02,61),LENGTH=0,ATTRB=(ASKIP,NORM)
* 'PAGE-STATUS-CODE-SY00'
ZFLD010  DFHMDF POS=(02,64),LENGTH=0010,ATTRB=(PROT,BRT),              X
               COLOR=DEFAULT,HILIGHT=OFF
         DFHMDF POS=(02,75),LENGTH=0,ATTRB=(ASKIP,NORM)
         DFHMDF POS=(05,01),LENGTH=0018,ATTRB=(PROT,ASKIP),            X
               INITIAL='ENTITY/USAGE CODE:',COLOR=BLUE,HILIGHT=OFF
* 'FIMS-ENTY-CODE-GA32'
ZFLD011  DFHMDF POS=(05,20),LENGTH=0008,ATTRB=(UNPROT),COLOR=DEFAULT,  X
               HILIGHT=UNDERLINE
         DFHMDF POS=(05,29),LENGTH=0,ATTRB=(ASKIP,NORM)
         DFHMDF POS=(06,01),LENGTH=0018,ATTRB=(PROT,ASKIP),            X
               INITIAL='ELEMENT NAME     :',COLOR=BLUE,HILIGHT=OFF
* 'ELMNT-NAME-GA32'
ZFLD012  DFHMDF POS=(06,20),LENGTH=0030,ATTRB=(UNPROT),COLOR=DEFAULT,  X
               HILIGHT=UNDERLINE
         DFHMDF POS=(06,51),LENGTH=0,ATTRB=(ASKIP,NORM)
         DFHMDF POS=(07,01),LENGTH=0018,ATTRB=(PROT,ASKIP),            X
               INITIAL='COA CODE         :',COLOR=BLUE,HILIGHT=OFF
* 'COA-CODE-GA32'
ZFLD013  DFHMDF POS=(07,20),LENGTH=0001,ATTRB=(UNPROT),COLOR=DEFAULT,  X
               HILIGHT=UNDERLINE
         DFHMDF POS=(07,22),LENGTH=0,ATTRB=(ASKIP,NORM)
         DFHMDF POS=(09,01),LENGTH=0071,ATTRB=(PROT,ASKIP),            X
               INITIAL='ACT  LVL  OPTN-1   OPTN-2           DESCRIPTIONX
                                   DATA',COLOR=BLUE,HILIGHT=OFF
* 'ACTN-CODE-GA32'
ZFLD014  DFHMDF POS=(10,02),LENGTH=0001,ATTRB=(UNPROT,IC),             X
               COLOR=DEFAULT,HILIGHT=OFF
         DFHMDF POS=(10,04),LENGTH=0,ATTRB=(ASKIP,NORM)
* 'LEVEL-NMBR-GA32'
ZFLD015  DFHMDF POS=(10,06),LENGTH=0002,ATTRB=(PROT,ASKIP),            X
               COLOR=TURQUOISE,HILIGHT=OFF
* 'OPTN-1-CODE-GA32'
ZFLD016  DFHMDF POS=(10,09),LENGTH=0008,ATTRB=(PROT),COLOR=TURQUOISE,  X
               HILIGHT=OFF
* 'OPTN-2-CODE-GA32'
ZFLD017  DFHMDF POS=(10,18),LENGTH=0008,ATTRB=(PROT),COLOR=TURQUOISE,  X
               HILIGHT=OFF
* 'STNDD-LONG-DESC-GA32'
ZFLD018  DFHMDF POS=(10,27),LENGTH=0035,ATTRB=(PROT),COLOR=TURQUOISE,  X
               HILIGHT=OFF
* 'DATA-DESC-GA32'
ZFLD019  DFHMDF POS=(10,63),LENGTH=0015,ATTRB=(PROT),COLOR=TURQUOISE,  X
               HILIGHT=OFF
         DFHMDF POS=(10,79),LENGTH=0,ATTRB=(ASKIP,NORM)
* 'ACTN-CODE-GA32'
ZFLD020  DFHMDF POS=(11,02),LENGTH=0001,ATTRB=(UNPROT),COLOR=DEFAULT,  X
               HILIGHT=OFF
         DFHMDF POS=(11,04),LENGTH=0,ATTRB=(ASKIP,NORM)
* 'LEVEL-NMBR-GA32'
ZFLD021  DFHMDF POS=(11,06),LENGTH=0002,ATTRB=(PROT,ASKIP),            X
               COLOR=TURQUOISE,HILIGHT=OFF
* 'OPTN-1-CODE-GA32'
ZFLD022  DFHMDF POS=(11,09),LENGTH=0008,ATTRB=(PROT),COLOR=TURQUOISE,  X
               HILIGHT=OFF
* 'OPTN-2-CODE-GA32'
ZFLD023  DFHMDF POS=(11,18),LENGTH=0008,ATTRB=(PROT),COLOR=TURQUOISE,  X
               HILIGHT=OFF
* 'STNDD-LONG-DESC-GA32'
ZFLD024  DFHMDF POS=(11,27),LENGTH=0035,ATTRB=(PROT),COLOR=TURQUOISE,  X
               HILIGHT=OFF
* 'DATA-DESC-GA32'
ZFLD025  DFHMDF POS=(11,63),LENGTH=0015,ATTRB=(PROT),COLOR=TURQUOISE,  X
               HILIGHT=OFF
         DFHMDF POS=(11,79),LENGTH=0,ATTRB=(ASKIP,NORM)
* 'ACTN-CODE-GA32'
ZFLD026  DFHMDF POS=(12,02),LENGTH=0001,ATTRB=(UNPROT),COLOR=DEFAULT,  X
               HILIGHT=OFF
         DFHMDF POS=(12,04),LENGTH=0,ATTRB=(ASKIP,NORM)
* 'LEVEL-NMBR-GA32'
ZFLD027  DFHMDF POS=(12,06),LENGTH=0002,ATTRB=(PROT,ASKIP),            X
               COLOR=TURQUOISE,HILIGHT=OFF
* 'OPTN-1-CODE-GA32'
ZFLD028  DFHMDF POS=(12,09),LENGTH=0008,ATTRB=(PROT),COLOR=TURQUOISE,  X
               HILIGHT=OFF
* 'OPTN-2-CODE-GA32'
ZFLD029  DFHMDF POS=(12,18),LENGTH=0008,ATTRB=(PROT),COLOR=TURQUOISE,  X
               HILIGHT=OFF
* 'STNDD-LONG-DESC-GA32'
ZFLD030  DFHMDF POS=(12,27),LENGTH=0035,ATTRB=(PROT),COLOR=TURQUOISE,  X
               HILIGHT=OFF
* 'DATA-DESC-GA32'
ZFLD031  DFHMDF POS=(12,63),LENGTH=0015,ATTRB=(PROT),COLOR=TURQUOISE,  X
               HILIGHT=OFF
         DFHMDF POS=(12,79),LENGTH=0,ATTRB=(ASKIP,NORM)
* 'ACTN-CODE-GA32'
ZFLD032  DFHMDF POS=(13,02),LENGTH=0001,ATTRB=(UNPROT),COLOR=DEFAULT,  X
               HILIGHT=OFF
         DFHMDF POS=(13,04),LENGTH=0,ATTRB=(ASKIP,NORM)
* 'LEVEL-NMBR-GA32'
ZFLD033  DFHMDF POS=(13,06),LENGTH=0002,ATTRB=(PROT,ASKIP),            X
               COLOR=TURQUOISE,HILIGHT=OFF
* 'OPTN-1-CODE-GA32'
ZFLD034  DFHMDF POS=(13,09),LENGTH=0008,ATTRB=(PROT),COLOR=TURQUOISE,  X
               HILIGHT=OFF
* 'OPTN-2-CODE-GA32'
ZFLD035  DFHMDF POS=(13,18),LENGTH=0008,ATTRB=(PROT),COLOR=TURQUOISE,  X
               HILIGHT=OFF
* 'STNDD-LONG-DESC-GA32'
ZFLD036  DFHMDF POS=(13,27),LENGTH=0035,ATTRB=(PROT),COLOR=TURQUOISE,  X
               HILIGHT=OFF
* 'DATA-DESC-GA32'
ZFLD037  DFHMDF POS=(13,63),LENGTH=0015,ATTRB=(PROT),COLOR=TURQUOISE,  X
               HILIGHT=OFF
         DFHMDF POS=(13,79),LENGTH=0,ATTRB=(ASKIP,NORM)
* 'ACTN-CODE-GA32'
ZFLD038  DFHMDF POS=(14,02),LENGTH=0001,ATTRB=(UNPROT),COLOR=DEFAULT,  X
               HILIGHT=OFF
         DFHMDF POS=(14,04),LENGTH=0,ATTRB=(ASKIP,NORM)
* 'LEVEL-NMBR-GA32'
ZFLD039  DFHMDF POS=(14,06),LENGTH=0002,ATTRB=(PROT,ASKIP),            X
               COLOR=TURQUOISE,HILIGHT=OFF
* 'OPTN-1-CODE-GA32'
ZFLD040  DFHMDF POS=(14,09),LENGTH=0008,ATTRB=(PROT),COLOR=TURQUOISE,  X
               HILIGHT=OFF
* 'OPTN-2-CODE-GA32'
ZFLD041  DFHMDF POS=(14,18),LENGTH=0008,ATTRB=(PROT),COLOR=TURQUOISE,  X
               HILIGHT=OFF
* 'STNDD-LONG-DESC-GA32'
ZFLD042  DFHMDF POS=(14,27),LENGTH=0035,ATTRB=(PROT),COLOR=TURQUOISE,  X
               HILIGHT=OFF
* 'DATA-DESC-GA32'
ZFLD043  DFHMDF POS=(14,63),LENGTH=0015,ATTRB=(PROT),COLOR=TURQUOISE,  X
               HILIGHT=OFF
         DFHMDF POS=(14,79),LENGTH=0,ATTRB=(ASKIP,NORM)
* 'ACTN-CODE-GA32'
ZFLD044  DFHMDF POS=(15,02),LENGTH=0001,ATTRB=(UNPROT),COLOR=DEFAULT,  X
               HILIGHT=OFF
         DFHMDF POS=(15,04),LENGTH=0,ATTRB=(ASKIP,NORM)
* 'LEVEL-NMBR-GA32'
ZFLD045  DFHMDF POS=(15,06),LENGTH=0002,ATTRB=(PROT,ASKIP),            X
               COLOR=TURQUOISE,HILIGHT=OFF
* 'OPTN-1-CODE-GA32'
ZFLD046  DFHMDF POS=(15,09),LENGTH=0008,ATTRB=(PROT),COLOR=TURQUOISE,  X
               HILIGHT=OFF
* 'OPTN-2-CODE-GA32'
ZFLD047  DFHMDF POS=(15,18),LENGTH=0008,ATTRB=(PROT),COLOR=TURQUOISE,  X
               HILIGHT=OFF
* 'STNDD-LONG-DESC-GA32'
ZFLD048  DFHMDF POS=(15,27),LENGTH=0035,ATTRB=(PROT),COLOR=TURQUOISE,  X
               HILIGHT=OFF
* 'DATA-DESC-GA32'
ZFLD049  DFHMDF POS=(15,63),LENGTH=0015,ATTRB=(PROT),COLOR=TURQUOISE,  X
               HILIGHT=OFF
         DFHMDF POS=(15,79),LENGTH=0,ATTRB=(ASKIP,NORM)
* 'ACTN-CODE-GA32'
ZFLD050  DFHMDF POS=(16,02),LENGTH=0001,ATTRB=(UNPROT),COLOR=DEFAULT,  X
               HILIGHT=OFF
         DFHMDF POS=(16,04),LENGTH=0,ATTRB=(ASKIP,NORM)
* 'LEVEL-NMBR-GA32'
ZFLD051  DFHMDF POS=(16,06),LENGTH=0002,ATTRB=(PROT,ASKIP),            X
               COLOR=TURQUOISE,HILIGHT=OFF
* 'OPTN-1-CODE-GA32'
ZFLD052  DFHMDF POS=(16,09),LENGTH=0008,ATTRB=(PROT),COLOR=TURQUOISE,  X
               HILIGHT=OFF
* 'OPTN-2-CODE-GA32'
ZFLD053  DFHMDF POS=(16,18),LENGTH=0008,ATTRB=(PROT),COLOR=TURQUOISE,  X
               HILIGHT=OFF
* 'STNDD-LONG-DESC-GA32'
ZFLD054  DFHMDF POS=(16,27),LENGTH=0035,ATTRB=(PROT),COLOR=TURQUOISE,  X
               HILIGHT=OFF
* 'DATA-DESC-GA32'
ZFLD055  DFHMDF POS=(16,63),LENGTH=0015,ATTRB=(PROT),COLOR=TURQUOISE,  X
               HILIGHT=OFF
         DFHMDF POS=(16,79),LENGTH=0,ATTRB=(ASKIP,NORM)
* 'ACTN-CODE-GA32'
ZFLD056  DFHMDF POS=(17,02),LENGTH=0001,ATTRB=(UNPROT),COLOR=DEFAULT,  X
               HILIGHT=OFF
         DFHMDF POS=(17,04),LENGTH=0,ATTRB=(ASKIP,NORM)
* 'LEVEL-NMBR-GA32'
ZFLD057  DFHMDF POS=(17,06),LENGTH=0002,ATTRB=(PROT,ASKIP),            X
               COLOR=TURQUOISE,HILIGHT=OFF
* 'OPTN-1-CODE-GA32'
ZFLD058  DFHMDF POS=(17,09),LENGTH=0008,ATTRB=(PROT),COLOR=TURQUOISE,  X
               HILIGHT=OFF
* 'OPTN-2-CODE-GA32'
ZFLD059  DFHMDF POS=(17,18),LENGTH=0008,ATTRB=(PROT),COLOR=TURQUOISE,  X
               HILIGHT=OFF
* 'STNDD-LONG-DESC-GA32'
ZFLD060  DFHMDF POS=(17,27),LENGTH=0035,ATTRB=(PROT),COLOR=TURQUOISE,  X
               HILIGHT=OFF
* 'DATA-DESC-GA32'
ZFLD061  DFHMDF POS=(17,63),LENGTH=0015,ATTRB=(PROT),COLOR=TURQUOISE,  X
               HILIGHT=OFF
         DFHMDF POS=(17,79),LENGTH=0,ATTRB=(ASKIP,NORM)
* 'ACTN-CODE-GA32'
ZFLD062  DFHMDF POS=(18,02),LENGTH=0001,ATTRB=(UNPROT),COLOR=DEFAULT,  X
               HILIGHT=OFF
         DFHMDF POS=(18,04),LENGTH=0,ATTRB=(ASKIP,NORM)
* 'LEVEL-NMBR-GA32'
ZFLD063  DFHMDF POS=(18,06),LENGTH=0002,ATTRB=(PROT,ASKIP),            X
               COLOR=TURQUOISE,HILIGHT=OFF
* 'OPTN-1-CODE-GA32'
ZFLD064  DFHMDF POS=(18,09),LENGTH=0008,ATTRB=(PROT),COLOR=TURQUOISE,  X
               HILIGHT=OFF
* 'OPTN-2-CODE-GA32'
ZFLD065  DFHMDF POS=(18,18),LENGTH=0008,ATTRB=(PROT),COLOR=TURQUOISE,  X
               HILIGHT=OFF
* 'STNDD-LONG-DESC-GA32'
ZFLD066  DFHMDF POS=(18,27),LENGTH=0035,ATTRB=(PROT),COLOR=TURQUOISE,  X
               HILIGHT=OFF
* 'DATA-DESC-GA32'
ZFLD067  DFHMDF POS=(18,63),LENGTH=0015,ATTRB=(PROT),COLOR=TURQUOISE,  X
               HILIGHT=OFF
         DFHMDF POS=(18,79),LENGTH=0,ATTRB=(ASKIP,NORM)
* 'ACTN-CODE-GA32'
ZFLD068  DFHMDF POS=(19,02),LENGTH=0001,ATTRB=(UNPROT),COLOR=DEFAULT,  X
               HILIGHT=OFF
         DFHMDF POS=(19,04),LENGTH=0,ATTRB=(ASKIP,NORM)
* 'LEVEL-NMBR-GA32'
ZFLD069  DFHMDF POS=(19,06),LENGTH=0002,ATTRB=(PROT,ASKIP),            X
               COLOR=TURQUOISE,HILIGHT=OFF
* 'OPTN-1-CODE-GA32'
ZFLD070  DFHMDF POS=(19,09),LENGTH=0008,ATTRB=(PROT),COLOR=TURQUOISE,  X
               HILIGHT=OFF
* 'OPTN-2-CODE-GA32'
ZFLD071  DFHMDF POS=(19,18),LENGTH=0008,ATTRB=(PROT),COLOR=TURQUOISE,  X
               HILIGHT=OFF
* 'STNDD-LONG-DESC-GA32'
ZFLD072  DFHMDF POS=(19,27),LENGTH=0035,ATTRB=(PROT),COLOR=TURQUOISE,  X
               HILIGHT=OFF
* 'DATA-DESC-GA32'
ZFLD073  DFHMDF POS=(19,63),LENGTH=0015,ATTRB=(PROT),COLOR=TURQUOISE,  X
               HILIGHT=OFF
         DFHMDF POS=(19,79),LENGTH=0,ATTRB=(ASKIP,NORM)
         DFHMDF POS=(20,01),LENGTH=0004,ATTRB=(PROT,ASKIP),            X
               INITIAL='RQT:',COLOR=BLUE,HILIGHT=OFF
* 'RQST-LEVEL-NMBR-GA32'
ZFLD074  DFHMDF POS=(20,06),LENGTH=0002,ATTRB=(UNPROT),COLOR=DEFAULT,  X
               HILIGHT=UNDERLINE
* 'RQST-OPTN-1-CODE-GA32'
ZFLD075  DFHMDF POS=(20,09),LENGTH=0008,ATTRB=(UNPROT),COLOR=DEFAULT,  X
               HILIGHT=UNDERLINE
* 'RQST-OPTN-2-CODE-GA32'
ZFLD076  DFHMDF POS=(20,18),LENGTH=0008,ATTRB=(UNPROT),COLOR=DEFAULT,  X
               HILIGHT=UNDERLINE
         DFHMDF POS=(20,27),LENGTH=0,ATTRB=(ASKIP,NORM)
* 'DCLINK-MESSAGE'
ZFLD077  DFHMDF POS=(21,80),LENGTH=0160,ATTRB=(PROT,BRT),              X
               COLOR=DEFAULT,HILIGHT=OFF
         DFHMDF POS=(24,01),LENGTH=0012,ATTRB=(PROT,ASKIP,NUM),        X
               INITIAL='NEXT SCREEN:',COLOR=BLUE,HILIGHT=OFF
* 'AGR-PASSED-ONE'
ZFLD078  DFHMDF POS=(24,14),LENGTH=0030,ATTRB=(UNPROT),COLOR=DEFAULT,  X
               HILIGHT=UNDERLINE
         DFHMDF POS=(24,45),LENGTH=0009,ATTRB=(PROT,ASKIP),            X
               INITIAL='RESPONSE:',COLOR=BLUE,HILIGHT=OFF
* 'AGR-MAP-RESPONSE'
ZFLD079  DFHMDF POS=(24,55),LENGTH=0008,ATTRB=(UNPROT),COLOR=DEFAULT,  X
               HILIGHT=UNDERLINE
         DFHMDF POS=(24,64),LENGTH=0,ATTRB=(ASKIP,NORM)
* 'ERROR-TEXT-SY00'
ZFLD080  DFHMDF POS=(24,65),LENGTH=0014,ATTRB=(PROT,DRK),              X
               COLOR=DEFAULT,HILIGHT=OFF
         DFHMSD TYPE=FINAL
         END
