FGAMU18  DFHMSD TYPE=MAP,LANG=COBOL,TERM=3270,MODE=INOUT,              X
               TIOAPFX=YES,MAPATTS=(COLOR,HILIGHT),                    X
               DSATTS=(COLOR,HILIGHT)
FGAMU18  DFHMDI SIZE=(24,80),LINE=1,COLUMN=1,CTRL=FREEKB,TIOAPFX=YES
         DFHMDF POS=(01,01),LENGTH=0007,ATTRB=(PROT,ASKIP),            X
               INITIAL='FGAMU18',COLOR=BLUE,HILIGHT=OFF
* 'TRMNL-ID-SY00'
ZFLD002  DFHMDF POS=(01,10),LENGTH=0008,ATTRB=(PROT),COLOR=BLUE,       X
               HILIGHT=OFF
         DFHMDF POS=(01,19),LENGTH=0,ATTRB=(ASKIP,NORM)
* 'FULL-NAME-6001-SY00'
ZFLD003  DFHMDF POS=(01,23),LENGTH=0035,ATTRB=(PROT),COLOR=BLUE,       X
               HILIGHT=OFF
         DFHMDF POS=(01,59),LENGTH=0,ATTRB=(ASKIP,NORM)
* 'AGR-DATE'
ZFLD004  DFHMDF POS=(01,64),LENGTH=0008,ATTRB=(PROT),COLOR=BLUE,       X
               HILIGHT=OFF
* 'WORK-HH-MM-TIME-SY00'
ZFLD005  DFHMDF POS=(01,73),LENGTH=0005,ATTRB=(PROT),COLOR=BLUE,       X
               HILIGHT=OFF
* 'AM-PM-FLAG-SY00'
ZFLD006  DFHMDF POS=(01,79),LENGTH=0001,ATTRB=(PROT),COLOR=BLUE,       X
               HILIGHT=OFF
* 'AGR-USER-ID'
ZFLD007  DFHMDF POS=(02,01),LENGTH=0008,ATTRB=(PROT),COLOR=BLUE,       X
               HILIGHT=OFF
         DFHMDF POS=(02,10),LENGTH=0,ATTRB=(ASKIP,NORM)
* 'CURR-RSPNS-ID-SY00'
ZFLD008  DFHMDF POS=(02,21),LENGTH=0008,ATTRB=(PROT,BRT),              X
               COLOR=DEFAULT,HILIGHT=OFF
         DFHMDF POS=(02,30),LENGTH=0001,ATTRB=(PROT,ASKIP,BRT),        X
               INITIAL=':',COLOR=DEFAULT,HILIGHT=OFF
* 'AGR-FUNC-DESCRIPTION'
ZFLD009  DFHMDF POS=(02,32),LENGTH=0028,ATTRB=(PROT,BRT),              X
               COLOR=DEFAULT,HILIGHT=OFF
         DFHMDF POS=(02,61),LENGTH=0,ATTRB=(ASKIP,NORM)
* 'PAGE-STATUS-CODE-SY00'
ZFLD010  DFHMDF POS=(02,64),LENGTH=0010,ATTRB=(PROT,BRT),              X
               COLOR=DEFAULT,HILIGHT=OFF
         DFHMDF POS=(02,75),LENGTH=0,ATTRB=(ASKIP,NORM)
* 'SOURCE-DESC-GA18'
ZFLD011  DFHMDF POS=(05,01),LENGTH=0079,ATTRB=(PROT),COLOR=BLUE,       X
               HILIGHT=OFF
         DFHMDF POS=(06,01),LENGTH=0,ATTRB=(ASKIP,NORM)
         DFHMDF POS=(07,01),LENGTH=0025,ATTRB=(PROT,ASKIP),            X
               INITIAL='ACTION   BUDGET TREATMENT',COLOR=BLUE,         X
               HILIGHT=OFF
* 'ACTN-HDR-CODE-GA18'
ZFLD012  DFHMDF POS=(08,03),LENGTH=0001,ATTRB=(UNPROT,IC),             X
               COLOR=DEFAULT,HILIGHT=OFF
         DFHMDF POS=(08,05),LENGTH=0,ATTRB=(ASKIP,NORM)
* 'BDGT-TRTMNT-CODE-GA18'
ZFLD013  DFHMDF POS=(08,10),LENGTH=0004,ATTRB=(UNPROT),COLOR=DEFAULT,  X
               HILIGHT=UNDERLINE
         DFHMDF POS=(08,15),LENGTH=0,ATTRB=(ASKIP,NORM)
* 'BDGT-DESC-GA18'
ZFLD014  DFHMDF POS=(08,16),LENGTH=0035,ATTRB=(PROT),COLOR=BLUE,       X
               HILIGHT=OFF
         DFHMDF POS=(08,52),LENGTH=0,ATTRB=(ASKIP,NORM)
* 'BDGT-DEFAULT-MSG-GA18'
ZFLD14A  DFHMDF POS=(09,16),LENGTH=0035,ATTRB=(PROT),COLOR=TURQUOISE,  X
               HILIGHT=OFF
         DFHMDF POS=(09,52),LENGTH=0,ATTRB=(ASKIP,NORM)
         DFHMDF POS=(10,01),LENGTH=0044,ATTRB=(PROT,ASKIP),            X
               INITIAL='ACTION  ENCM   PO      ENCUMBRANCE TREATMENT', X
               COLOR=BLUE,HILIGHT=OFF
         DFHMDF POS=(11,01),LENGTH=0027,ATTRB=(PROT,ASKIP),            X
               INITIAL='        TYPE   CLASS   CODE',COLOR=BLUE,       X
               HILIGHT=OFF
* 'ACTN-CODE-GA18'
ZFLD015  DFHMDF POS=(12,03),LENGTH=0001,ATTRB=(UNPROT),COLOR=DEFAULT,  X
               HILIGHT=OFF
         DFHMDF POS=(12,05),LENGTH=0,ATTRB=(ASKIP,NORM)
* 'ENCMBRNC-TYPE-GA18'
ZFLD016  DFHMDF POS=(12,09),LENGTH=0001,ATTRB=(UNPROT),COLOR=DEFAULT,  X
               HILIGHT=UNDERLINE
         DFHMDF POS=(12,11),LENGTH=0,ATTRB=(ASKIP,NORM)
* 'PO-CLASS-CODE-GA18'
ZFLD017  DFHMDF POS=(12,16),LENGTH=0001,ATTRB=(UNPROT),COLOR=DEFAULT,  X
               HILIGHT=UNDERLINE
         DFHMDF POS=(12,18),LENGTH=0,ATTRB=(ASKIP,NORM)
* 'ENCMBRNC-TRTMNT-CODE-GA18'
ZFLD018  DFHMDF POS=(12,24),LENGTH=0004,ATTRB=(UNPROT),COLOR=DEFAULT,  X
               HILIGHT=UNDERLINE
         DFHMDF POS=(12,29),LENGTH=0,ATTRB=(ASKIP,NORM)
* 'ENC-DESC-GA18'
ZFLD019  DFHMDF POS=(12,30),LENGTH=0035,ATTRB=(PROT),COLOR=TURQUOISE,  X
               HILIGHT=OFF
         DFHMDF POS=(12,66),LENGTH=0,ATTRB=(ASKIP,NORM)
* 'ACTN-CODE-GA18'
ZFLD020  DFHMDF POS=(13,03),LENGTH=0001,ATTRB=(UNPROT),COLOR=DEFAULT,  X
               HILIGHT=OFF
         DFHMDF POS=(13,05),LENGTH=0,ATTRB=(ASKIP,NORM)
* 'ENCMBRNC-TYPE-GA18'
ZFLD021  DFHMDF POS=(13,09),LENGTH=0001,ATTRB=(UNPROT),COLOR=DEFAULT,  X
               HILIGHT=UNDERLINE
         DFHMDF POS=(13,11),LENGTH=0,ATTRB=(ASKIP,NORM)
* 'PO-CLASS-CODE-GA18'
ZFLD022  DFHMDF POS=(13,16),LENGTH=0001,ATTRB=(UNPROT),COLOR=DEFAULT,  X
               HILIGHT=UNDERLINE
         DFHMDF POS=(13,18),LENGTH=0,ATTRB=(ASKIP,NORM)
* 'ENCMBRNC-TRTMNT-CODE-GA18'
ZFLD023  DFHMDF POS=(13,24),LENGTH=0004,ATTRB=(UNPROT),COLOR=DEFAULT,  X
               HILIGHT=UNDERLINE
         DFHMDF POS=(13,29),LENGTH=0,ATTRB=(ASKIP,NORM)
* 'ENC-DESC-GA18'
ZFLD024  DFHMDF POS=(13,30),LENGTH=0035,ATTRB=(PROT),COLOR=TURQUOISE,  X
               HILIGHT=OFF
         DFHMDF POS=(13,66),LENGTH=0,ATTRB=(ASKIP,NORM)
* 'ACTN-CODE-GA18'
ZFLD025  DFHMDF POS=(14,03),LENGTH=0001,ATTRB=(UNPROT),COLOR=DEFAULT,  X
               HILIGHT=OFF
         DFHMDF POS=(14,05),LENGTH=0,ATTRB=(ASKIP,NORM)
* 'ENCMBRNC-TYPE-GA18'
ZFLD026  DFHMDF POS=(14,09),LENGTH=0001,ATTRB=(UNPROT),COLOR=DEFAULT,  X
               HILIGHT=UNDERLINE
         DFHMDF POS=(14,11),LENGTH=0,ATTRB=(ASKIP,NORM)
* 'PO-CLASS-CODE-GA18'
ZFLD027  DFHMDF POS=(14,16),LENGTH=0001,ATTRB=(UNPROT),COLOR=DEFAULT,  X
               HILIGHT=UNDERLINE
         DFHMDF POS=(14,18),LENGTH=0,ATTRB=(ASKIP,NORM)
* 'ENCMBRNC-TRTMNT-CODE-GA18'
ZFLD028  DFHMDF POS=(14,24),LENGTH=0004,ATTRB=(UNPROT),COLOR=DEFAULT,  X
               HILIGHT=UNDERLINE
         DFHMDF POS=(14,29),LENGTH=0,ATTRB=(ASKIP,NORM)
* 'ENC-DESC-GA18'
ZFLD029  DFHMDF POS=(14,30),LENGTH=0035,ATTRB=(PROT),COLOR=TURQUOISE,  X
               HILIGHT=OFF
         DFHMDF POS=(14,66),LENGTH=0,ATTRB=(ASKIP,NORM)
* 'ACTN-CODE-GA18'
ZFLD030  DFHMDF POS=(15,03),LENGTH=0001,ATTRB=(UNPROT),COLOR=DEFAULT,  X
               HILIGHT=OFF
         DFHMDF POS=(15,05),LENGTH=0,ATTRB=(ASKIP,NORM)
* 'ENCMBRNC-TYPE-GA18'
ZFLD031  DFHMDF POS=(15,09),LENGTH=0001,ATTRB=(UNPROT),COLOR=DEFAULT,  X
               HILIGHT=UNDERLINE
         DFHMDF POS=(15,11),LENGTH=0,ATTRB=(ASKIP,NORM)
* 'PO-CLASS-CODE-GA18'
ZFLD032  DFHMDF POS=(15,16),LENGTH=0001,ATTRB=(UNPROT),COLOR=DEFAULT,  X
               HILIGHT=UNDERLINE
         DFHMDF POS=(15,18),LENGTH=0,ATTRB=(ASKIP,NORM)
* 'ENCMBRNC-TRTMNT-CODE-GA18'
ZFLD033  DFHMDF POS=(15,24),LENGTH=0004,ATTRB=(UNPROT),COLOR=DEFAULT,  X
               HILIGHT=UNDERLINE
         DFHMDF POS=(15,29),LENGTH=0,ATTRB=(ASKIP,NORM)
* 'ENC-DESC-GA18'
ZFLD034  DFHMDF POS=(15,30),LENGTH=0035,ATTRB=(PROT),COLOR=TURQUOISE,  X
               HILIGHT=OFF
         DFHMDF POS=(15,66),LENGTH=0,ATTRB=(ASKIP,NORM)
* 'ACTN-CODE-GA18'
ZFLD035  DFHMDF POS=(16,03),LENGTH=0001,ATTRB=(UNPROT),COLOR=DEFAULT,  X
               HILIGHT=OFF
         DFHMDF POS=(16,05),LENGTH=0,ATTRB=(ASKIP,NORM)
* 'ENCMBRNC-TYPE-GA18'
ZFLD036  DFHMDF POS=(16,09),LENGTH=0001,ATTRB=(UNPROT),COLOR=DEFAULT,  X
               HILIGHT=UNDERLINE
         DFHMDF POS=(16,11),LENGTH=0,ATTRB=(ASKIP,NORM)
* 'PO-CLASS-CODE-GA18'
ZFLD037  DFHMDF POS=(16,16),LENGTH=0001,ATTRB=(UNPROT),COLOR=DEFAULT,  X
               HILIGHT=UNDERLINE
         DFHMDF POS=(16,18),LENGTH=0,ATTRB=(ASKIP,NORM)
* 'ENCMBRNC-TRTMNT-CODE-GA18'
ZFLD038  DFHMDF POS=(16,24),LENGTH=0004,ATTRB=(UNPROT),COLOR=DEFAULT,  X
               HILIGHT=UNDERLINE
         DFHMDF POS=(16,29),LENGTH=0,ATTRB=(ASKIP,NORM)
* 'ENC-DESC-GA18'
ZFLD039  DFHMDF POS=(16,30),LENGTH=0035,ATTRB=(PROT),COLOR=TURQUOISE,  X
               HILIGHT=OFF
         DFHMDF POS=(16,66),LENGTH=0,ATTRB=(ASKIP,NORM)
* 'ACTN-CODE-GA18'
ZFLD040  DFHMDF POS=(17,03),LENGTH=0001,ATTRB=(UNPROT),COLOR=DEFAULT,  X
               HILIGHT=OFF
         DFHMDF POS=(17,05),LENGTH=0,ATTRB=(ASKIP,NORM)
* 'ENCMBRNC-TYPE-GA18'
ZFLD041  DFHMDF POS=(17,09),LENGTH=0001,ATTRB=(UNPROT),COLOR=DEFAULT,  X
               HILIGHT=UNDERLINE
         DFHMDF POS=(17,11),LENGTH=0,ATTRB=(ASKIP,NORM)
* 'PO-CLASS-CODE-GA18'
ZFLD042  DFHMDF POS=(17,16),LENGTH=0001,ATTRB=(UNPROT),COLOR=DEFAULT,  X
               HILIGHT=UNDERLINE
         DFHMDF POS=(17,18),LENGTH=0,ATTRB=(ASKIP,NORM)
* 'ENCMBRNC-TRTMNT-CODE-GA18'
ZFLD043  DFHMDF POS=(17,24),LENGTH=0004,ATTRB=(UNPROT),COLOR=DEFAULT,  X
               HILIGHT=UNDERLINE
         DFHMDF POS=(17,29),LENGTH=0,ATTRB=(ASKIP,NORM)
* 'ENC-DESC-GA18'
ZFLD044  DFHMDF POS=(17,30),LENGTH=0035,ATTRB=(PROT),COLOR=TURQUOISE,  X
               HILIGHT=OFF
         DFHMDF POS=(17,66),LENGTH=0,ATTRB=(ASKIP,NORM)
* 'ACTN-CODE-GA18'
ZFLD045  DFHMDF POS=(18,03),LENGTH=0001,ATTRB=(UNPROT),COLOR=DEFAULT,  X
               HILIGHT=OFF
         DFHMDF POS=(18,05),LENGTH=0,ATTRB=(ASKIP,NORM)
* 'ENCMBRNC-TYPE-GA18'
ZFLD046  DFHMDF POS=(18,09),LENGTH=0001,ATTRB=(UNPROT),COLOR=DEFAULT,  X
               HILIGHT=UNDERLINE
         DFHMDF POS=(18,11),LENGTH=0,ATTRB=(ASKIP,NORM)
* 'PO-CLASS-CODE-GA18'
ZFLD047  DFHMDF POS=(18,16),LENGTH=0001,ATTRB=(UNPROT),COLOR=DEFAULT,  X
               HILIGHT=UNDERLINE
         DFHMDF POS=(18,18),LENGTH=0,ATTRB=(ASKIP,NORM)
* 'ENCMBRNC-TRTMNT-CODE-GA18'
ZFLD048  DFHMDF POS=(18,24),LENGTH=0004,ATTRB=(UNPROT),COLOR=DEFAULT,  X
               HILIGHT=UNDERLINE
         DFHMDF POS=(18,29),LENGTH=0,ATTRB=(ASKIP,NORM)
* 'ENC-DESC-GA18'
ZFLD049  DFHMDF POS=(18,30),LENGTH=0035,ATTRB=(PROT),COLOR=TURQUOISE,  X
               HILIGHT=OFF
         DFHMDF POS=(18,66),LENGTH=0,ATTRB=(ASKIP,NORM)
* 'ACTN-CODE-GA18'
ZFLD050  DFHMDF POS=(19,03),LENGTH=0001,ATTRB=(UNPROT),COLOR=DEFAULT,  X
               HILIGHT=OFF
         DFHMDF POS=(19,05),LENGTH=0,ATTRB=(ASKIP,NORM)
* 'ENCMBRNC-TYPE-GA18'
ZFLD051  DFHMDF POS=(19,09),LENGTH=0001,ATTRB=(UNPROT),COLOR=DEFAULT,  X
               HILIGHT=UNDERLINE
         DFHMDF POS=(19,11),LENGTH=0,ATTRB=(ASKIP,NORM)
* 'PO-CLASS-CODE-GA18'
ZFLD052  DFHMDF POS=(19,16),LENGTH=0001,ATTRB=(UNPROT),COLOR=DEFAULT,  X
               HILIGHT=UNDERLINE
         DFHMDF POS=(19,18),LENGTH=0,ATTRB=(ASKIP,NORM)
* 'ENCMBRNC-TRTMNT-CODE-GA18'
ZFLD053  DFHMDF POS=(19,24),LENGTH=0004,ATTRB=(UNPROT),COLOR=DEFAULT,  X
               HILIGHT=UNDERLINE
         DFHMDF POS=(19,29),LENGTH=0,ATTRB=(ASKIP,NORM)
* 'ENC-DESC-GA18'
ZFLD054  DFHMDF POS=(19,30),LENGTH=0035,ATTRB=(PROT),COLOR=TURQUOISE,  X
               HILIGHT=OFF
         DFHMDF POS=(19,66),LENGTH=0,ATTRB=(ASKIP,NORM)
* 'ACTN-CODE-GA18'
ZFLD055  DFHMDF POS=(20,03),LENGTH=0001,ATTRB=(UNPROT),COLOR=DEFAULT,  X
               HILIGHT=OFF
         DFHMDF POS=(20,05),LENGTH=0,ATTRB=(ASKIP,NORM)
* 'ENCMBRNC-TYPE-GA18'
ZFLD056  DFHMDF POS=(20,09),LENGTH=0001,ATTRB=(UNPROT),COLOR=DEFAULT,  X
               HILIGHT=UNDERLINE
         DFHMDF POS=(20,11),LENGTH=0,ATTRB=(ASKIP,NORM)
* 'PO-CLASS-CODE-GA18'
ZFLD057  DFHMDF POS=(20,16),LENGTH=0001,ATTRB=(UNPROT),COLOR=DEFAULT,  X
               HILIGHT=UNDERLINE
         DFHMDF POS=(20,18),LENGTH=0,ATTRB=(ASKIP,NORM)
* 'ENCMBRNC-TRTMNT-CODE-GA18'
ZFLD058  DFHMDF POS=(20,24),LENGTH=0004,ATTRB=(UNPROT),COLOR=DEFAULT,  X
               HILIGHT=UNDERLINE
         DFHMDF POS=(20,29),LENGTH=0,ATTRB=(ASKIP,NORM)
* 'ENC-DESC-GA18'
ZFLD059  DFHMDF POS=(20,30),LENGTH=0035,ATTRB=(PROT),COLOR=TURQUOISE,  X
               HILIGHT=OFF
         DFHMDF POS=(20,66),LENGTH=0,ATTRB=(ASKIP,NORM)
* 'ACTN-CODE-GA18'
ZFLD060  DFHMDF POS=(21,03),LENGTH=0001,ATTRB=(UNPROT),COLOR=DEFAULT,  X
               HILIGHT=OFF
         DFHMDF POS=(21,05),LENGTH=0,ATTRB=(ASKIP,NORM)
* 'ENCMBRNC-TYPE-GA18'
ZFLD061  DFHMDF POS=(21,09),LENGTH=0001,ATTRB=(UNPROT),COLOR=DEFAULT,  X
               HILIGHT=UNDERLINE
         DFHMDF POS=(21,11),LENGTH=0,ATTRB=(ASKIP,NORM)
* 'PO-CLASS-CODE-GA18'
ZFLD062  DFHMDF POS=(21,16),LENGTH=0001,ATTRB=(UNPROT),COLOR=DEFAULT,  X
               HILIGHT=UNDERLINE
         DFHMDF POS=(21,18),LENGTH=0,ATTRB=(ASKIP,NORM)
* 'ENCMBRNC-TRTMNT-CODE-GA18'
ZFLD063  DFHMDF POS=(21,24),LENGTH=0004,ATTRB=(UNPROT),COLOR=DEFAULT,  X
               HILIGHT=UNDERLINE
         DFHMDF POS=(21,29),LENGTH=0,ATTRB=(ASKIP,NORM)
* 'ENC-DESC-GA18'
ZFLD064  DFHMDF POS=(21,30),LENGTH=0035,ATTRB=(PROT),COLOR=TURQUOISE,  X
               HILIGHT=OFF
         DFHMDF POS=(21,66),LENGTH=0,ATTRB=(ASKIP,NORM)
* 'DCLINK-MESSAGE'
ZFLD065  DFHMDF POS=(21,80),LENGTH=0160,ATTRB=(PROT,BRT),              X
               COLOR=DEFAULT,HILIGHT=OFF
         DFHMDF POS=(24,01),LENGTH=0012,ATTRB=(PROT,ASKIP,NUM),        X
               INITIAL='NEXT SCREEN:',COLOR=BLUE,HILIGHT=OFF
* 'AGR-PASSED-ONE'
ZFLD066  DFHMDF POS=(24,14),LENGTH=0030,ATTRB=(UNPROT),COLOR=DEFAULT,  X
               HILIGHT=UNDERLINE
         DFHMDF POS=(24,45),LENGTH=0009,ATTRB=(PROT,ASKIP),            X
               INITIAL='RESPONSE:',COLOR=BLUE,HILIGHT=OFF
* 'AGR-MAP-RESPONSE'
ZFLD067  DFHMDF POS=(24,55),LENGTH=0008,ATTRB=(UNPROT),COLOR=DEFAULT,  X
               HILIGHT=UNDERLINE
         DFHMDF POS=(24,64),LENGTH=0,ATTRB=(ASKIP,NORM)
* 'ERROR-TEXT-SY00'
ZFLD068  DFHMDF POS=(24,65),LENGTH=0014,ATTRB=(PROT,DRK),              X
               COLOR=DEFAULT,HILIGHT=OFF
         DFHMSD TYPE=FINAL
         END
