FGAMU14  DFHMSD TYPE=MAP,LANG=COBOL,TERM=3270,MODE=INOUT,              X
               TIOAPFX=YES,MAPATTS=(COLOR,HILIGHT),                    X
               DSATTS=(COLOR,HILIGHT)
FGAMU14  DFHMDI SIZE=(24,80),LINE=1,COLUMN=1,CTRL=FREEKB,TIOAPFX=YES
         DFHMDF POS=(01,01),LENGTH=0007,ATTRB=(PROT,ASKIP),            X
               INITIAL='FGAMU14',COLOR=BLUE,HILIGHT=OFF
* 'TRMNL-ID-SY00'
ZFLD002  DFHMDF POS=(01,10),LENGTH=0008,ATTRB=(PROT),COLOR=BLUE,       X
               HILIGHT=OFF
         DFHMDF POS=(01,19),LENGTH=0,ATTRB=(ASKIP,NORM)
* 'FULL-NAME-6001-SY00'
ZFLD003  DFHMDF POS=(01,23),LENGTH=0035,ATTRB=(PROT),COLOR=BLUE,       X
               HILIGHT=OFF
         DFHMDF POS=(01,59),LENGTH=0,ATTRB=(ASKIP,NORM)
* 'AGR-DATE'
ZFLD004  DFHMDF POS=(01,64),LENGTH=0008,ATTRB=(PROT),COLOR=BLUE,       X
               HILIGHT=OFF
* 'WORK-HH-MM-TIME-SY00'
ZFLD005  DFHMDF POS=(01,73),LENGTH=0005,ATTRB=(PROT),COLOR=BLUE,       X
               HILIGHT=OFF
* 'AM-PM-FLAG-SY00'
ZFLD006  DFHMDF POS=(01,79),LENGTH=0001,ATTRB=(PROT),COLOR=BLUE,       X
               HILIGHT=OFF
* 'AGR-USER-ID'
ZFLD007  DFHMDF POS=(02,01),LENGTH=0008,ATTRB=(PROT),COLOR=BLUE,       X
               HILIGHT=OFF
         DFHMDF POS=(02,10),LENGTH=0,ATTRB=(ASKIP,NORM)
* 'CURR-RSPNS-ID-SY00'
ZFLD008  DFHMDF POS=(02,21),LENGTH=0008,ATTRB=(PROT,BRT),              X
               COLOR=DEFAULT,HILIGHT=OFF
         DFHMDF POS=(02,30),LENGTH=0001,ATTRB=(PROT,ASKIP,BRT),        X
               INITIAL=':',COLOR=DEFAULT,HILIGHT=OFF
* 'AGR-FUNC-DESCRIPTION'
ZFLD009  DFHMDF POS=(02,32),LENGTH=0028,ATTRB=(PROT,BRT),              X
               COLOR=DEFAULT,HILIGHT=OFF
         DFHMDF POS=(02,61),LENGTH=0,ATTRB=(ASKIP,NORM)
* 'PAGE-STATUS-CODE-SY00'
ZFLD010  DFHMDF POS=(02,64),LENGTH=0010,ATTRB=(PROT,BRT),              X
               COLOR=DEFAULT,HILIGHT=OFF
         DFHMDF POS=(02,75),LENGTH=0,ATTRB=(ASKIP,NORM)
         DFHMDF POS=(04,01),LENGTH=0016,ATTRB=(PROT,ASKIP),            X
               INITIAL='DISPLAY OPTIONS:',COLOR=BLUE,HILIGHT=OFF
* 'DSPLY-OPTN-GA14'
ZFLD011  DFHMDF POS=(04,18),LENGTH=0001,ATTRB=(UNPROT),COLOR=DEFAULT,  X
               HILIGHT=OFF
         DFHMDF POS=(04,20),LENGTH=0,ATTRB=(ASKIP,NORM)
         DFHMDF POS=(04,49),LENGTH=0017,ATTRB=(PROT,ASKIP),            X
               INITIAL='TRANSACTION TYPE:',COLOR=BLUE,HILIGHT=OFF
* 'TRANSACT-TYPE-GA14'
ZFLD012  DFHMDF POS=(04,67),LENGTH=0001,ATTRB=(UNPROT),COLOR=DEFAULT,  X
               HILIGHT=OFF
         DFHMDF POS=(04,69),LENGTH=0,ATTRB=(ASKIP,NORM)
         DFHMDF POS=(05,01),LENGTH=0054,ATTRB=(PROT,ASKIP),            X
               INITIAL='1. ORGANIZATION, FUND, ACCOUNT, PROGRM         X
                1. ALL',COLOR=BLUE,HILIGHT=OFF
         DFHMDF POS=(06,01),LENGTH=0062,ATTRB=(PROT,ASKIP),            X
               INITIAL='2. ORGANIZATION, FUND, PROGRAM, ACCOUNT        X
                2. BUDGET ONLY',COLOR=BLUE,HILIGHT=OFF
         DFHMDF POS=(07,01),LENGTH=0065,ATTRB=(PROT,ASKIP),            X
               INITIAL='3. FUND, ORGANIZATION, ACCOUNT, PROGRAM        X
                3. FINANCIAL ONLY',COLOR=BLUE,HILIGHT=OFF
         DFHMDF POS=(08,01),LENGTH=0067,ATTRB=(PROT,ASKIP),            X
               INITIAL='4. FUND, ORGANIZATION, PROGRAM, ACCOUNT        X
                4. ENCUMBRANCE ONLY',COLOR=BLUE,HILIGHT=OFF
         DFHMDF POS=(10,01),LENGTH=0020,ATTRB=(PROT,ASKIP),            X
               INITIAL='DATA SELECTION KEYS:',COLOR=BLUE,HILIGHT=OFF
         DFHMDF POS=(11,17),LENGTH=0004,ATTRB=(PROT,ASKIP),            X
               INITIAL='COA:',COLOR=BLUE,HILIGHT=OFF
* 'COA-CODE-GA14'
ZFLD013  DFHMDF POS=(11,22),LENGTH=0001,ATTRB=(UNPROT,IC),             X
               COLOR=DEFAULT,HILIGHT=UNDERLINE
         DFHMDF POS=(11,24),LENGTH=0,ATTRB=(ASKIP,NORM)
         DFHMDF POS=(12,18),LENGTH=0003,ATTRB=(PROT,ASKIP),            X
               INITIAL='FY:',COLOR=BLUE,HILIGHT=OFF
* 'FSCL-YR-GA14'
ZFLD014  DFHMDF POS=(12,22),LENGTH=0002,ATTRB=(UNPROT),COLOR=DEFAULT,  X
               HILIGHT=UNDERLINE
         DFHMDF POS=(12,25),LENGTH=0,ATTRB=(ASKIP,NORM)
         DFHMDF POS=(13,14),LENGTH=0007,ATTRB=(PROT,ASKIP),            X
               INITIAL='PERIOD:',COLOR=BLUE,HILIGHT=OFF
* 'ACTG-PRD-GA14'
ZFLD015  DFHMDF POS=(13,22),LENGTH=0002,ATTRB=(UNPROT),COLOR=DEFAULT,  X
               HILIGHT=UNDERLINE
         DFHMDF POS=(13,25),LENGTH=0,ATTRB=(ASKIP,NORM)
* 'PRD-START-DATE-4024-GA14'
ZFLD016  DFHMDF POS=(13,26),LENGTH=0008,ATTRB=(PROT),COLOR=BLUE,       X
               HILIGHT=OFF
         DFHMDF POS=(13,35),LENGTH=0,ATTRB=(ASKIP,NORM)
         DFHMDF POS=(13,36),LENGTH=0001,ATTRB=(PROT,ASKIP),            X
               INITIAL='-',COLOR=BLUE,HILIGHT=OFF
* 'PRD-END-DATE-4024-GA14'
ZFLD017  DFHMDF POS=(13,38),LENGTH=0008,ATTRB=(PROT),COLOR=BLUE,       X
               HILIGHT=OFF
         DFHMDF POS=(13,47),LENGTH=0,ATTRB=(ASKIP,NORM)
         DFHMDF POS=(14,15),LENGTH=0006,ATTRB=(PROT,ASKIP),            X
               INITIAL='INDEX:',COLOR=BLUE,HILIGHT=OFF
* 'ACCT-INDX-CODE-GA14'
ZFLD018  DFHMDF POS=(14,22),LENGTH=0010,ATTRB=(UNPROT),COLOR=DEFAULT,  X
               HILIGHT=UNDERLINE
* 'ACCT-INDX-TITLE-4067-GA14'
ZFLD019  DFHMDF POS=(14,33),LENGTH=0035,ATTRB=(PROT),COLOR=TURQUOISE,  X
               HILIGHT=OFF
         DFHMDF POS=(14,69),LENGTH=0,ATTRB=(ASKIP,NORM)
         DFHMDF POS=(15,16),LENGTH=0005,ATTRB=(PROT,ASKIP),            X
               INITIAL='FUND:',COLOR=BLUE,HILIGHT=OFF
* 'FUND-CODE-GA14'
ZFLD020  DFHMDF POS=(15,22),LENGTH=0006,ATTRB=(UNPROT),COLOR=DEFAULT,  X
               HILIGHT=UNDERLINE
         DFHMDF POS=(15,29),LENGTH=0,ATTRB=(ASKIP,NORM)
* 'FUND-TITLE-4005-GA14'
ZFLD021  DFHMDF POS=(15,33),LENGTH=0035,ATTRB=(PROT),COLOR=TURQUOISE,  X
               HILIGHT=OFF
         DFHMDF POS=(15,69),LENGTH=0,ATTRB=(ASKIP,NORM)
         DFHMDF POS=(16,08),LENGTH=0013,ATTRB=(PROT,ASKIP),            X
               INITIAL='ORGANIZATION:',COLOR=BLUE,HILIGHT=OFF
* 'ORGZN-CODE-GA14'
ZFLD022  DFHMDF POS=(16,22),LENGTH=0006,ATTRB=(UNPROT),COLOR=DEFAULT,  X
               HILIGHT=UNDERLINE
         DFHMDF POS=(16,29),LENGTH=0,ATTRB=(ASKIP,NORM)
* 'ORGZN-TITLE-4010-GA14'
ZFLD023  DFHMDF POS=(16,33),LENGTH=0035,ATTRB=(PROT),COLOR=TURQUOISE,  X
               HILIGHT=OFF
         DFHMDF POS=(16,69),LENGTH=0,ATTRB=(ASKIP,NORM)
         DFHMDF POS=(17,13),LENGTH=0008,ATTRB=(PROT,ASKIP),            X
               INITIAL='ACCOUNT:',COLOR=BLUE,HILIGHT=OFF
* 'ACCT-CODE-GA14'
ZFLD024  DFHMDF POS=(17,22),LENGTH=0006,ATTRB=(UNPROT),COLOR=DEFAULT,  X
               HILIGHT=UNDERLINE
         DFHMDF POS=(17,29),LENGTH=0,ATTRB=(ASKIP,NORM)
* 'ACCT-CODE-TITLE-4034-GA14'
ZFLD025  DFHMDF POS=(17,33),LENGTH=0035,ATTRB=(PROT),COLOR=TURQUOISE,  X
               HILIGHT=OFF
         DFHMDF POS=(17,69),LENGTH=0,ATTRB=(ASKIP,NORM)
         DFHMDF POS=(18,13),LENGTH=0008,ATTRB=(PROT,ASKIP),            X
               INITIAL='PROGRAM:',COLOR=BLUE,HILIGHT=OFF
* 'PRGRM-CODE-GA14'
ZFLD026  DFHMDF POS=(18,22),LENGTH=0006,ATTRB=(UNPROT),COLOR=DEFAULT,  X
               HILIGHT=UNDERLINE
         DFHMDF POS=(18,29),LENGTH=0,ATTRB=(ASKIP,NORM)
* 'PRGRM-TITLE-4105-GA14'
ZFLD027  DFHMDF POS=(18,33),LENGTH=0035,ATTRB=(PROT),COLOR=TURQUOISE,  X
               HILIGHT=OFF
         DFHMDF POS=(18,69),LENGTH=0,ATTRB=(ASKIP,NORM)
* 'DCLINK-MESSAGE'
ZFLD028  DFHMDF POS=(21,80),LENGTH=0160,ATTRB=(PROT,BRT),              X
               COLOR=DEFAULT,HILIGHT=OFF
         DFHMDF POS=(24,01),LENGTH=0012,ATTRB=(PROT,ASKIP,NUM),        X
               INITIAL='NEXT SCREEN:',COLOR=BLUE,HILIGHT=OFF
* 'AGR-PASSED-ONE'
ZFLD029  DFHMDF POS=(24,14),LENGTH=0030,ATTRB=(UNPROT),COLOR=DEFAULT,  X
               HILIGHT=UNDERLINE
         DFHMDF POS=(24,45),LENGTH=0009,ATTRB=(PROT,ASKIP),            X
               INITIAL='RESPONSE:',COLOR=BLUE,HILIGHT=OFF
* 'AGR-MAP-RESPONSE'
ZFLD030  DFHMDF POS=(24,55),LENGTH=0008,ATTRB=(UNPROT),COLOR=DEFAULT,  X
               HILIGHT=UNDERLINE
         DFHMDF POS=(24,64),LENGTH=0,ATTRB=(ASKIP,NORM)
* 'ERROR-TEXT-SY00'
ZFLD031  DFHMDF POS=(24,65),LENGTH=0014,ATTRB=(PROT,DRK),              X
               COLOR=DEFAULT,HILIGHT=OFF
         DFHMSD TYPE=FINAL
         END
