FPEMI39  DFHMSD TYPE=MAP,LANG=COBOL,TERM=3270,MODE=INOUT,              X
               TIOAPFX=YES,MAPATTS=(COLOR,HILIGHT),                    X
               DSATTS=(COLOR,HILIGHT)
FPEMI39  DFHMDI SIZE=(24,80),LINE=1,COLUMN=1,CTRL=FREEKB,TIOAPFX=YES
         DFHMDF POS=(01,01),LENGTH=0007,ATTRB=(PROT,ASKIP),            X
               INITIAL='FPEMI39',COLOR=BLUE,HILIGHT=OFF
* 'TRMNL-ID-SY00'
ZFLD002  DFHMDF POS=(01,10),LENGTH=0008,ATTRB=(PROT),COLOR=BLUE,       X
               HILIGHT=OFF
         DFHMDF POS=(01,19),LENGTH=0,ATTRB=(ASKIP,NORM)
* 'FULL-NAME-6001-SY00'
ZFLD003  DFHMDF POS=(01,23),LENGTH=0035,ATTRB=(PROT),COLOR=BLUE,       X
               HILIGHT=OFF
         DFHMDF POS=(01,59),LENGTH=0,ATTRB=(ASKIP,NORM)
* 'AGR-DATE'
ZFLD004  DFHMDF POS=(01,64),LENGTH=0008,ATTRB=(PROT),COLOR=BLUE,       X
               HILIGHT=OFF
* 'WORK-HH-MM-TIME-SY00'
ZFLD005  DFHMDF POS=(01,73),LENGTH=0005,ATTRB=(PROT),COLOR=BLUE,       X
               HILIGHT=OFF
* 'AM-PM-FLAG-SY00'
ZFLD006  DFHMDF POS=(01,79),LENGTH=0001,ATTRB=(PROT),COLOR=BLUE,       X
               HILIGHT=OFF
* 'AGR-USER-ID'
ZFLD007  DFHMDF POS=(02,01),LENGTH=0008,ATTRB=(PROT),COLOR=BLUE,       X
               HILIGHT=OFF
         DFHMDF POS=(02,10),LENGTH=0,ATTRB=(ASKIP,NORM)
* 'CURR-RSPNS-ID-SY00'
ZFLD008  DFHMDF POS=(02,21),LENGTH=0008,ATTRB=(PROT,BRT),              X
               COLOR=DEFAULT,HILIGHT=OFF
         DFHMDF POS=(02,30),LENGTH=0001,ATTRB=(PROT,ASKIP,BRT),        X
               INITIAL=':',COLOR=DEFAULT,HILIGHT=OFF
* 'AGR-FUNC-DESCRIPTION'
ZFLD009  DFHMDF POS=(02,32),LENGTH=0028,ATTRB=(PROT,BRT),              X
               COLOR=DEFAULT,HILIGHT=OFF
         DFHMDF POS=(02,61),LENGTH=0,ATTRB=(ASKIP,NORM)
* 'PAGE-STATUS-CODE-SY00'
ZFLD010  DFHMDF POS=(02,64),LENGTH=0010,ATTRB=(PROT,BRT),              X
               COLOR=DEFAULT,HILIGHT=OFF
         DFHMDF POS=(02,75),LENGTH=0,ATTRB=(ASKIP,NORM)
         DFHMDF POS=(04,01),LENGTH=0009,ATTRB=(PROT,ASKIP),            X
               INITIAL='NAME KEY:',COLOR=BLUE,HILIGHT=OFF
* 'NAME-KEY-PE39'
ZFLD011  DFHMDF POS=(04,11),LENGTH=0035,ATTRB=(UNPROT,IC),             X
               COLOR=DEFAULT,HILIGHT=UNDERLINE
         DFHMDF POS=(04,47),LENGTH=0,ATTRB=(ASKIP,NORM)
         DFHMDF POS=(06,01),LENGTH=0039,ATTRB=(PROT,ASKIP),            X
               INITIAL='ACTION     ENTITY ID       CURRENT NAME',      X
               COLOR=BLUE,HILIGHT=OFF
         DFHMDF POS=(07,01),LENGTH=0045,ATTRB=(PROT,ASKIP),            X
               INITIAL=' (L)                            PREVIOUS NAME',X
               COLOR=BLUE,HILIGHT=OFF
* 'ACTN-CODE-PE39'
ZFLD012  DFHMDF POS=(08,03),LENGTH=0001,ATTRB=(UNPROT),COLOR=DEFAULT,  X
               HILIGHT=OFF
         DFHMDF POS=(08,05),LENGTH=0,ATTRB=(ASKIP,NORM)
* 'ENTY-ID-LAST-NINE-6186-PE39'
ZFLD013  DFHMDF POS=(08,12),LENGTH=0009,ATTRB=(PROT),COLOR=TURQUOISE,  X
               HILIGHT=OFF
         DFHMDF POS=(08,22),LENGTH=0,ATTRB=(ASKIP,NORM)
* 'NAME-KEY-6311-PE39'
ZFLD014  DFHMDF POS=(08,28),LENGTH=0040,ATTRB=(PROT),COLOR=TURQUOISE,  X
               HILIGHT=OFF
         DFHMDF POS=(08,69),LENGTH=0,ATTRB=(ASKIP,NORM)
* 'ACTN-CODE-PE39'
ZFLD015  DFHMDF POS=(09,03),LENGTH=0001,ATTRB=(UNPROT),COLOR=DEFAULT,  X
               HILIGHT=OFF
         DFHMDF POS=(09,05),LENGTH=0,ATTRB=(ASKIP,NORM)
* 'ENTY-ID-LAST-NINE-6186-PE39'
ZFLD016  DFHMDF POS=(09,12),LENGTH=0009,ATTRB=(PROT),COLOR=TURQUOISE,  X
               HILIGHT=OFF
         DFHMDF POS=(09,22),LENGTH=0,ATTRB=(ASKIP,NORM)
* 'NAME-KEY-6311-PE39'
ZFLD017  DFHMDF POS=(09,28),LENGTH=0040,ATTRB=(PROT),COLOR=TURQUOISE,  X
               HILIGHT=OFF
         DFHMDF POS=(09,69),LENGTH=0,ATTRB=(ASKIP,NORM)
* 'ACTN-CODE-PE39'
ZFLD018  DFHMDF POS=(10,03),LENGTH=0001,ATTRB=(UNPROT),COLOR=DEFAULT,  X
               HILIGHT=OFF
         DFHMDF POS=(10,05),LENGTH=0,ATTRB=(ASKIP,NORM)
* 'ENTY-ID-LAST-NINE-6186-PE39'
ZFLD019  DFHMDF POS=(10,12),LENGTH=0009,ATTRB=(PROT),COLOR=TURQUOISE,  X
               HILIGHT=OFF
         DFHMDF POS=(10,22),LENGTH=0,ATTRB=(ASKIP,NORM)
* 'NAME-KEY-6311-PE39'
ZFLD020  DFHMDF POS=(10,28),LENGTH=0040,ATTRB=(PROT),COLOR=TURQUOISE,  X
               HILIGHT=OFF
         DFHMDF POS=(10,69),LENGTH=0,ATTRB=(ASKIP,NORM)
* 'ACTN-CODE-PE39'
ZFLD021  DFHMDF POS=(11,03),LENGTH=0001,ATTRB=(UNPROT),COLOR=DEFAULT,  X
               HILIGHT=OFF
         DFHMDF POS=(11,05),LENGTH=0,ATTRB=(ASKIP,NORM)
* 'ENTY-ID-LAST-NINE-6186-PE39'
ZFLD022  DFHMDF POS=(11,12),LENGTH=0009,ATTRB=(PROT),COLOR=TURQUOISE,  X
               HILIGHT=OFF
         DFHMDF POS=(11,22),LENGTH=0,ATTRB=(ASKIP,NORM)
* 'NAME-KEY-6311-PE39'
ZFLD023  DFHMDF POS=(11,28),LENGTH=0040,ATTRB=(PROT),COLOR=TURQUOISE,  X
               HILIGHT=OFF
         DFHMDF POS=(11,69),LENGTH=0,ATTRB=(ASKIP,NORM)
* 'ACTN-CODE-PE39'
ZFLD024  DFHMDF POS=(12,03),LENGTH=0001,ATTRB=(UNPROT),COLOR=DEFAULT,  X
               HILIGHT=OFF
         DFHMDF POS=(12,05),LENGTH=0,ATTRB=(ASKIP,NORM)
* 'ENTY-ID-LAST-NINE-6186-PE39'
ZFLD025  DFHMDF POS=(12,12),LENGTH=0009,ATTRB=(PROT),COLOR=TURQUOISE,  X
               HILIGHT=OFF
         DFHMDF POS=(12,22),LENGTH=0,ATTRB=(ASKIP,NORM)
* 'NAME-KEY-6311-PE39'
ZFLD026  DFHMDF POS=(12,28),LENGTH=0040,ATTRB=(PROT),COLOR=TURQUOISE,  X
               HILIGHT=OFF
         DFHMDF POS=(12,69),LENGTH=0,ATTRB=(ASKIP,NORM)
* 'ACTN-CODE-PE39'
ZFLD027  DFHMDF POS=(13,03),LENGTH=0001,ATTRB=(UNPROT),COLOR=DEFAULT,  X
               HILIGHT=OFF
         DFHMDF POS=(13,05),LENGTH=0,ATTRB=(ASKIP,NORM)
* 'ENTY-ID-LAST-NINE-6186-PE39'
ZFLD028  DFHMDF POS=(13,12),LENGTH=0009,ATTRB=(PROT),COLOR=TURQUOISE,  X
               HILIGHT=OFF
         DFHMDF POS=(13,22),LENGTH=0,ATTRB=(ASKIP,NORM)
* 'NAME-KEY-6311-PE39'
ZFLD029  DFHMDF POS=(13,28),LENGTH=0040,ATTRB=(PROT),COLOR=TURQUOISE,  X
               HILIGHT=OFF
         DFHMDF POS=(13,69),LENGTH=0,ATTRB=(ASKIP,NORM)
* 'ACTN-CODE-PE39'
ZFLD030  DFHMDF POS=(14,03),LENGTH=0001,ATTRB=(UNPROT),COLOR=DEFAULT,  X
               HILIGHT=OFF
         DFHMDF POS=(14,05),LENGTH=0,ATTRB=(ASKIP,NORM)
* 'ENTY-ID-LAST-NINE-6186-PE39'
ZFLD031  DFHMDF POS=(14,12),LENGTH=0009,ATTRB=(PROT),COLOR=TURQUOISE,  X
               HILIGHT=OFF
         DFHMDF POS=(14,22),LENGTH=0,ATTRB=(ASKIP,NORM)
* 'NAME-KEY-6311-PE39'
ZFLD032  DFHMDF POS=(14,28),LENGTH=0040,ATTRB=(PROT),COLOR=TURQUOISE,  X
               HILIGHT=OFF
         DFHMDF POS=(14,69),LENGTH=0,ATTRB=(ASKIP,NORM)
* 'ACTN-CODE-PE39'
ZFLD033  DFHMDF POS=(15,03),LENGTH=0001,ATTRB=(UNPROT),COLOR=DEFAULT,  X
               HILIGHT=OFF
         DFHMDF POS=(15,05),LENGTH=0,ATTRB=(ASKIP,NORM)
* 'ENTY-ID-LAST-NINE-6186-PE39'
ZFLD034  DFHMDF POS=(15,12),LENGTH=0009,ATTRB=(PROT),COLOR=TURQUOISE,  X
               HILIGHT=OFF
         DFHMDF POS=(15,22),LENGTH=0,ATTRB=(ASKIP,NORM)
* 'NAME-KEY-6311-PE39'
ZFLD035  DFHMDF POS=(15,28),LENGTH=0040,ATTRB=(PROT),COLOR=TURQUOISE,  X
               HILIGHT=OFF
         DFHMDF POS=(15,69),LENGTH=0,ATTRB=(ASKIP,NORM)
* 'ACTN-CODE-PE39'
ZFLD036  DFHMDF POS=(16,03),LENGTH=0001,ATTRB=(UNPROT),COLOR=DEFAULT,  X
               HILIGHT=OFF
         DFHMDF POS=(16,05),LENGTH=0,ATTRB=(ASKIP,NORM)
* 'ENTY-ID-LAST-NINE-6186-PE39'
ZFLD037  DFHMDF POS=(16,12),LENGTH=0009,ATTRB=(PROT),COLOR=TURQUOISE,  X
               HILIGHT=OFF
         DFHMDF POS=(16,22),LENGTH=0,ATTRB=(ASKIP,NORM)
* 'NAME-KEY-6311-PE39'
ZFLD038  DFHMDF POS=(16,28),LENGTH=0040,ATTRB=(PROT),COLOR=TURQUOISE,  X
               HILIGHT=OFF
         DFHMDF POS=(16,69),LENGTH=0,ATTRB=(ASKIP,NORM)
* 'ACTN-CODE-PE39'
ZFLD039  DFHMDF POS=(17,03),LENGTH=0001,ATTRB=(UNPROT),COLOR=DEFAULT,  X
               HILIGHT=OFF
         DFHMDF POS=(17,05),LENGTH=0,ATTRB=(ASKIP,NORM)
* 'ENTY-ID-LAST-NINE-6186-PE39'
ZFLD040  DFHMDF POS=(17,12),LENGTH=0009,ATTRB=(PROT),COLOR=TURQUOISE,  X
               HILIGHT=OFF
         DFHMDF POS=(17,22),LENGTH=0,ATTRB=(ASKIP,NORM)
* 'NAME-KEY-6311-PE39'
ZFLD041  DFHMDF POS=(17,28),LENGTH=0040,ATTRB=(PROT),COLOR=TURQUOISE,  X
               HILIGHT=OFF
         DFHMDF POS=(17,69),LENGTH=0,ATTRB=(ASKIP,NORM)
* 'ACTN-CODE-PE39'
ZFLD042  DFHMDF POS=(18,03),LENGTH=0001,ATTRB=(UNPROT),COLOR=DEFAULT,  X
               HILIGHT=OFF
         DFHMDF POS=(18,05),LENGTH=0,ATTRB=(ASKIP,NORM)
* 'ENTY-ID-LAST-NINE-6186-PE39'
ZFLD043  DFHMDF POS=(18,12),LENGTH=0009,ATTRB=(PROT),COLOR=TURQUOISE,  X
               HILIGHT=OFF
         DFHMDF POS=(18,22),LENGTH=0,ATTRB=(ASKIP,NORM)
* 'NAME-KEY-6311-PE39'
ZFLD044  DFHMDF POS=(18,28),LENGTH=0040,ATTRB=(PROT),COLOR=TURQUOISE,  X
               HILIGHT=OFF
         DFHMDF POS=(18,69),LENGTH=0,ATTRB=(ASKIP,NORM)
* 'ACTN-CODE-PE39'
ZFLD045  DFHMDF POS=(19,03),LENGTH=0001,ATTRB=(UNPROT),COLOR=DEFAULT,  X
               HILIGHT=OFF
         DFHMDF POS=(19,05),LENGTH=0,ATTRB=(ASKIP,NORM)
* 'ENTY-ID-LAST-NINE-6186-PE39'
ZFLD046  DFHMDF POS=(19,12),LENGTH=0009,ATTRB=(PROT),COLOR=TURQUOISE,  X
               HILIGHT=OFF
         DFHMDF POS=(19,22),LENGTH=0,ATTRB=(ASKIP,NORM)
* 'NAME-KEY-6311-PE39'
ZFLD047  DFHMDF POS=(19,28),LENGTH=0040,ATTRB=(PROT),COLOR=TURQUOISE,  X
               HILIGHT=OFF
         DFHMDF POS=(19,69),LENGTH=0,ATTRB=(ASKIP,NORM)
* 'DCLINK-MESSAGE'
ZFLD048  DFHMDF POS=(21,80),LENGTH=0160,ATTRB=(PROT,BRT),              X
               COLOR=DEFAULT,HILIGHT=OFF
         DFHMDF POS=(24,01),LENGTH=0012,ATTRB=(PROT,ASKIP,NUM),        X
               INITIAL='NEXT SCREEN:',COLOR=BLUE,HILIGHT=OFF
* 'AGR-PASSED-ONE'
ZFLD049  DFHMDF POS=(24,14),LENGTH=0030,ATTRB=(UNPROT),COLOR=DEFAULT,  X
               HILIGHT=UNDERLINE
         DFHMDF POS=(24,45),LENGTH=0009,ATTRB=(PROT,ASKIP),            X
               INITIAL='RESPONSE:',COLOR=BLUE,HILIGHT=OFF
* 'AGR-MAP-RESPONSE'
ZFLD050  DFHMDF POS=(24,55),LENGTH=0008,ATTRB=(UNPROT),COLOR=DEFAULT,  X
               HILIGHT=UNDERLINE
         DFHMDF POS=(24,64),LENGTH=0,ATTRB=(ASKIP,NORM)
* 'ERROR-TEXT-SY00'
ZFLD051  DFHMDF POS=(24,65),LENGTH=0014,ATTRB=(PROT,DRK),              X
               COLOR=DEFAULT,HILIGHT=OFF
         DFHMSD TYPE=FINAL
         END
