FPUMU32  DFHMSD TYPE=MAP,LANG=COBOL,TERM=3270,MODE=INOUT,              X
               TIOAPFX=YES,MAPATTS=(COLOR,HILIGHT),                    X
               DSATTS=(COLOR,HILIGHT)
FPUMU32  DFHMDI SIZE=(24,80),LINE=1,COLUMN=1,CTRL=FREEKB,TIOAPFX=YES
         DFHMDF POS=(01,01),LENGTH=0007,ATTRB=(PROT,ASKIP),            X
               INITIAL='FPUMU32',COLOR=BLUE,HILIGHT=OFF
* 'TRMNL-ID-SY00'
ZFLD002  DFHMDF POS=(01,10),LENGTH=0008,ATTRB=(PROT),COLOR=BLUE,       X
               HILIGHT=OFF
         DFHMDF POS=(01,19),LENGTH=0,ATTRB=(ASKIP,NORM)
* 'FULL-NAME-6001-SY00'
ZFLD003  DFHMDF POS=(01,23),LENGTH=0035,ATTRB=(PROT),COLOR=BLUE,       X
               HILIGHT=OFF
         DFHMDF POS=(01,59),LENGTH=0,ATTRB=(ASKIP,NORM)
* 'AGR-DATE'
ZFLD004  DFHMDF POS=(01,64),LENGTH=0008,ATTRB=(PROT),COLOR=BLUE,       X
               HILIGHT=OFF
* 'WORK-HH-MM-TIME-SY00'
ZFLD005  DFHMDF POS=(01,73),LENGTH=0004,ATTRB=(PROT),COLOR=BLUE,       X
               HILIGHT=OFF
         DFHMDF POS=(01,78),LENGTH=0,ATTRB=(ASKIP,NORM)
* 'AM-PM-FLAG-SY00'
ZFLD006  DFHMDF POS=(01,79),LENGTH=0001,ATTRB=(PROT),COLOR=BLUE,       X
               HILIGHT=OFF
* 'AGR-USER-ID'
ZFLD007  DFHMDF POS=(02,01),LENGTH=0008,ATTRB=(PROT),COLOR=BLUE,       X
               HILIGHT=OFF
         DFHMDF POS=(02,10),LENGTH=0,ATTRB=(ASKIP,NORM)
* 'CURR-RSPNS-ID-SY00'
ZFLD008  DFHMDF POS=(02,21),LENGTH=0008,ATTRB=(PROT,BRT),              X
               COLOR=DEFAULT,HILIGHT=OFF
         DFHMDF POS=(02,30),LENGTH=0001,ATTRB=(PROT,ASKIP,BRT),        X
               INITIAL=':',COLOR=DEFAULT,HILIGHT=OFF
* 'AGR-FUNC-DESCRIPTION'
ZFLD009  DFHMDF POS=(02,32),LENGTH=0028,ATTRB=(PROT,BRT),              X
               COLOR=DEFAULT,HILIGHT=OFF
         DFHMDF POS=(02,61),LENGTH=0,ATTRB=(ASKIP,NORM)
* 'PAGE-STATUS-CODE-SY00'
ZFLD010  DFHMDF POS=(02,64),LENGTH=0010,ATTRB=(PROT,DRK),              X
               COLOR=DEFAULT,HILIGHT=OFF
         DFHMDF POS=(02,75),LENGTH=0,ATTRB=(ASKIP,NORM)
         DFHMDF POS=(03,01),LENGTH=0006,ATTRB=(PROT,ASKIP),            X
               INITIAL='ACTION',COLOR=BLUE,HILIGHT=OFF
         DFHMDF POS=(04,01),LENGTH=0016,ATTRB=(PROT,ASKIP),            X
               INITIAL='(ACD) BUYER CODE',COLOR=BLUE,HILIGHT=OFF
* 'ACTN-CODE-4072-PU32'
ZFLD011  DFHMDF POS=(05,02),LENGTH=0001,ATTRB=(UNPROT,IC),             X
               COLOR=DEFAULT,HILIGHT=OFF
         DFHMDF POS=(05,04),LENGTH=0,ATTRB=(ASKIP,NORM)
* 'BUYER-CODE-KEY-4072-PU32'
ZFLD012  DFHMDF POS=(05,09),LENGTH=0004,ATTRB=(UNPROT),COLOR=DEFAULT,  X
               HILIGHT=UNDERLINE
         DFHMDF POS=(05,14),LENGTH=0,ATTRB=(ASKIP,NORM)
* 'BUYER-EMAIL-ADR-PU32'
ZFLD113  DFHMDF POS=(05,17),LENGTH=0035,ATTRB=(PROT),COLOR=TURQUOISE,  X
               HILIGHT=OFF
         DFHMDF POS=(06,01),LENGTH=0004,ATTRB=(PROT,ASKIP),            X
               INITIAL='PID:',COLOR=TURQUOISE,HILIGHT=OFF
* 'BUYER-ID-LAST-NINE-PU32'
ZFLD013  DFHMDF POS=(06,06),LENGTH=0009,ATTRB=(UNPROT),COLOR=DEFAULT,  X
               HILIGHT=UNDERLINE
         DFHMDF POS=(06,16),LENGTH=0,ATTRB=(ASKIP,NORM)
* 'BUYER-NAME-4072-PU32'
ZFLD014  DFHMDF POS=(06,17),LENGTH=0035,ATTRB=(PROT),COLOR=TURQUOISE,  X
               HILIGHT=OFF
         DFHMDF POS=(06,53),LENGTH=0,ATTRB=(ASKIP,NORM)
* 'TLPHN-AREA-CODE-PU32'
ZFLD015  DFHMDF POS=(06,54),LENGTH=0003,ATTRB=(PROT),COLOR=TURQUOISE,  X
               HILIGHT=OFF
* 'TLPHN-XCHNG-ID-PU32'
ZFLD016  DFHMDF POS=(06,58),LENGTH=0003,ATTRB=(PROT),COLOR=TURQUOISE,  X
               HILIGHT=OFF
* 'TLPHN-SEQ-ID-PU32'
ZFLD017  DFHMDF POS=(06,62),LENGTH=0004,ATTRB=(PROT),COLOR=TURQUOISE,  X
               HILIGHT=OFF
* 'TLPHN-XTNSN-ID-PU32'
ZFLD018  DFHMDF POS=(06,67),LENGTH=0004,ATTRB=(PROT),COLOR=TURQUOISE,  X
               HILIGHT=OFF
         DFHMDF POS=(06,72),LENGTH=0,ATTRB=(ASKIP,NORM)
         DFHMDF POS=(08,01),LENGTH=0064,ATTRB=(PROT,ASKIP),            X
               INITIAL='EFFECTIVE DATE        TERMINATION DATE        LX
               AST ACTIVITY DATE',COLOR=BLUE,HILIGHT=OFF
         DFHMDF POS=(07,01),LENGTH=0007,ATTRB=(PROT,ASKIP),            X
               INITIAL='EMP ID:',COLOR=TURQUOISE,HILIGHT=OFF
* 'EMPID-PU32'            '
EMPID    DFHMDF POS=(07,09),LENGTH=0009,ATTRB=(ASKIP,PROT),            X
               COLOR=DEFAULT
         DFHMDF POS=(07,19),LENGTH=7,ATTRB=(ASKIP,NORM)                X
               INITIAL='TAX ID:',COLOR=TURQUOISE,HILIGHT=OFF
* 'TAXID-PU32'            '
TAXID    DFHMDF POS=(07,27),LENGTH=0009,ATTRB=(ASKIP,PROT),            X
               COLOR=DEFAULT
         DFHMDF POS=(07,37),LENGTH=0,ATTRB=(ASKIP,NORM)
         DFHMDF POS=(07,38),LENGTH=11,ATTRB=(ASKIP,NORM)               X
               INITIAL='EMP STATUS:',COLOR=TURQUOISE,HILIGHT=OFF
* 'EMP-STATUS-PU32'       '
EMPSTA   DFHMDF POS=(07,50),LENGTH=0025,ATTRB=(PROT),COLOR=TURQUOISE,  X
               HILIGHT=OFF
         DFHMDF POS=(07,76),LENGTH=0,ATTRB=(ASKIP,NORM)
* 'START-DATE-4072-PU32'
ZFLD019  DFHMDF POS=(09,04),LENGTH=0008,ATTRB=(UNPROT),COLOR=DEFAULT,  X
               HILIGHT=UNDERLINE
         DFHMDF POS=(09,13),LENGTH=0,ATTRB=(ASKIP,NORM)
* 'END-DATE-4072-PU32'
ZFLD020  DFHMDF POS=(09,26),LENGTH=0008,ATTRB=(UNPROT),COLOR=DEFAULT,  X
               HILIGHT=UNDERLINE
         DFHMDF POS=(09,35),LENGTH=0,ATTRB=(ASKIP,NORM)
* 'ACTVY-DATE-4072-PU32'
ZFLD021  DFHMDF POS=(09,52),LENGTH=0008,ATTRB=(PROT),COLOR=TURQUOISE,  X
               HILIGHT=OFF
         DFHMDF POS=(09,61),LENGTH=0,ATTRB=(ASKIP,NORM)
         DFHMDF POS=(11,01),LENGTH=0074,ATTRB=(PROT,ASKIP),            X
               INITIAL='(AD)   COMMODITY     (AD)   COA    ORGN       (X
               AD)  PO CLASS    MAX AMOUNT',COLOR=BLUE,HILIGHT=OFF
* 'ACTN-CODE-4101-PU32'
ZFLD022  DFHMDF POS=(12,02),LENGTH=0001,ATTRB=(UNPROT),COLOR=DEFAULT,  X
               HILIGHT=OFF
         DFHMDF POS=(12,04),LENGTH=0,ATTRB=(ASKIP,NORM)
* 'CMDTY-CODE-4101-PU32'
ZFLD023  DFHMDF POS=(12,08),LENGTH=0008,ATTRB=(UNPROT),COLOR=DEFAULT,  X
               HILIGHT=UNDERLINE
         DFHMDF POS=(12,17),LENGTH=0,ATTRB=(ASKIP,NORM)
* 'ACTN-CODE-4100-PU32'
ZFLD024  DFHMDF POS=(12,23),LENGTH=0001,ATTRB=(UNPROT),COLOR=DEFAULT,  X
               HILIGHT=OFF
         DFHMDF POS=(12,25),LENGTH=0,ATTRB=(ASKIP,NORM)
* 'CHART-CODE-4100-PU32'
ZFLD025  DFHMDF POS=(12,30),LENGTH=0001,ATTRB=(UNPROT),COLOR=DEFAULT,  X
               HILIGHT=UNDERLINE
         DFHMDF POS=(12,32),LENGTH=0,ATTRB=(ASKIP,NORM)
* 'ORGZN-CODE-4100-PU32'
ZFLD026  DFHMDF POS=(12,35),LENGTH=0006,ATTRB=(UNPROT),COLOR=DEFAULT,  X
               HILIGHT=UNDERLINE
         DFHMDF POS=(12,42),LENGTH=0,ATTRB=(ASKIP,NORM)
* 'ACTN-CODE-4138-PU32'
ZFLD027  DFHMDF POS=(12,48),LENGTH=0001,ATTRB=(UNPROT),COLOR=DEFAULT,  X
               HILIGHT=OFF
         DFHMDF POS=(12,50),LENGTH=0,ATTRB=(ASKIP,NORM)
* 'PO-CLASS-CODE-4138-PU32'
ZFLD028  DFHMDF POS=(12,56),LENGTH=0001,ATTRB=(UNPROT),COLOR=DEFAULT,  X
               HILIGHT=UNDERLINE
         DFHMDF POS=(12,58),LENGTH=0,ATTRB=(ASKIP,NORM)
* 'MAX-AMT-4084-PU32'
ZFLD029  DFHMDF POS=(12,64),LENGTH=0012,ATTRB=(PROT),COLOR=TURQUOISE,  X
               HILIGHT=OFF
         DFHMDF POS=(12,77),LENGTH=0,ATTRB=(ASKIP,NORM)
* 'ACTN-CODE-4101-PU32'
ZFLD030  DFHMDF POS=(13,02),LENGTH=0001,ATTRB=(UNPROT),COLOR=DEFAULT,  X
               HILIGHT=OFF
         DFHMDF POS=(13,04),LENGTH=0,ATTRB=(ASKIP,NORM)
* 'CMDTY-CODE-4101-PU32'
ZFLD031  DFHMDF POS=(13,08),LENGTH=0008,ATTRB=(UNPROT),COLOR=DEFAULT,  X
               HILIGHT=UNDERLINE
         DFHMDF POS=(13,17),LENGTH=0,ATTRB=(ASKIP,NORM)
* 'ACTN-CODE-4100-PU32'
ZFLD032  DFHMDF POS=(13,23),LENGTH=0001,ATTRB=(UNPROT),COLOR=DEFAULT,  X
               HILIGHT=OFF
         DFHMDF POS=(13,25),LENGTH=0,ATTRB=(ASKIP,NORM)
* 'CHART-CODE-4100-PU32'
ZFLD033  DFHMDF POS=(13,30),LENGTH=0001,ATTRB=(UNPROT),COLOR=DEFAULT,  X
               HILIGHT=UNDERLINE
         DFHMDF POS=(13,32),LENGTH=0,ATTRB=(ASKIP,NORM)
* 'ORGZN-CODE-4100-PU32'
ZFLD034  DFHMDF POS=(13,35),LENGTH=0006,ATTRB=(UNPROT),COLOR=DEFAULT,  X
               HILIGHT=UNDERLINE
         DFHMDF POS=(13,42),LENGTH=0,ATTRB=(ASKIP,NORM)
* 'ACTN-CODE-4138-PU32'
ZFLD035  DFHMDF POS=(13,48),LENGTH=0001,ATTRB=(UNPROT),COLOR=DEFAULT,  X
               HILIGHT=OFF
         DFHMDF POS=(13,50),LENGTH=0,ATTRB=(ASKIP,NORM)
* 'PO-CLASS-CODE-4138-PU32'
ZFLD036  DFHMDF POS=(13,56),LENGTH=0001,ATTRB=(UNPROT),COLOR=DEFAULT,  X
               HILIGHT=UNDERLINE
         DFHMDF POS=(13,58),LENGTH=0,ATTRB=(ASKIP,NORM)
* 'MAX-AMT-4084-PU32'
ZFLD037  DFHMDF POS=(13,64),LENGTH=0012,ATTRB=(PROT),COLOR=TURQUOISE,  X
               HILIGHT=OFF
         DFHMDF POS=(13,77),LENGTH=0,ATTRB=(ASKIP,NORM)
* 'ACTN-CODE-4101-PU32'
ZFLD038  DFHMDF POS=(14,02),LENGTH=0001,ATTRB=(UNPROT),COLOR=DEFAULT,  X
               HILIGHT=OFF
         DFHMDF POS=(14,04),LENGTH=0,ATTRB=(ASKIP,NORM)
* 'CMDTY-CODE-4101-PU32'
ZFLD039  DFHMDF POS=(14,08),LENGTH=0008,ATTRB=(UNPROT),COLOR=DEFAULT,  X
               HILIGHT=UNDERLINE
         DFHMDF POS=(14,17),LENGTH=0,ATTRB=(ASKIP,NORM)
* 'ACTN-CODE-4100-PU32'
ZFLD040  DFHMDF POS=(14,23),LENGTH=0001,ATTRB=(UNPROT),COLOR=DEFAULT,  X
               HILIGHT=OFF
         DFHMDF POS=(14,25),LENGTH=0,ATTRB=(ASKIP,NORM)
* 'CHART-CODE-4100-PU32'
ZFLD041  DFHMDF POS=(14,30),LENGTH=0001,ATTRB=(UNPROT),COLOR=DEFAULT,  X
               HILIGHT=UNDERLINE
         DFHMDF POS=(14,32),LENGTH=0,ATTRB=(ASKIP,NORM)
* 'ORGZN-CODE-4100-PU32'
ZFLD042  DFHMDF POS=(14,35),LENGTH=0006,ATTRB=(UNPROT),COLOR=DEFAULT,  X
               HILIGHT=UNDERLINE
         DFHMDF POS=(14,42),LENGTH=0,ATTRB=(ASKIP,NORM)
* 'ACTN-CODE-4138-PU32'
ZFLD043  DFHMDF POS=(14,48),LENGTH=0001,ATTRB=(UNPROT),COLOR=DEFAULT,  X
               HILIGHT=OFF
         DFHMDF POS=(14,50),LENGTH=0,ATTRB=(ASKIP,NORM)
* 'PO-CLASS-CODE-4138-PU32'
ZFLD044  DFHMDF POS=(14,56),LENGTH=0001,ATTRB=(UNPROT),COLOR=DEFAULT,  X
               HILIGHT=UNDERLINE
         DFHMDF POS=(14,58),LENGTH=0,ATTRB=(ASKIP,NORM)
* 'MAX-AMT-4084-PU32'
ZFLD045  DFHMDF POS=(14,64),LENGTH=0012,ATTRB=(PROT),COLOR=TURQUOISE,  X
               HILIGHT=OFF
         DFHMDF POS=(14,77),LENGTH=0,ATTRB=(ASKIP,NORM)
* 'ACTN-CODE-4101-PU32'
ZFLD046  DFHMDF POS=(15,02),LENGTH=0001,ATTRB=(UNPROT),COLOR=DEFAULT,  X
               HILIGHT=OFF
         DFHMDF POS=(15,04),LENGTH=0,ATTRB=(ASKIP,NORM)
* 'CMDTY-CODE-4101-PU32'
ZFLD047  DFHMDF POS=(15,08),LENGTH=0008,ATTRB=(UNPROT),COLOR=DEFAULT,  X
               HILIGHT=UNDERLINE
         DFHMDF POS=(15,17),LENGTH=0,ATTRB=(ASKIP,NORM)
* 'ACTN-CODE-4100-PU32'
ZFLD048  DFHMDF POS=(15,23),LENGTH=0001,ATTRB=(UNPROT),COLOR=DEFAULT,  X
               HILIGHT=OFF
         DFHMDF POS=(15,25),LENGTH=0,ATTRB=(ASKIP,NORM)
* 'CHART-CODE-4100-PU32'
ZFLD049  DFHMDF POS=(15,30),LENGTH=0001,ATTRB=(UNPROT),COLOR=DEFAULT,  X
               HILIGHT=UNDERLINE
         DFHMDF POS=(15,32),LENGTH=0,ATTRB=(ASKIP,NORM)
* 'ORGZN-CODE-4100-PU32'
ZFLD050  DFHMDF POS=(15,35),LENGTH=0006,ATTRB=(UNPROT),COLOR=DEFAULT,  X
               HILIGHT=UNDERLINE
         DFHMDF POS=(15,42),LENGTH=0,ATTRB=(ASKIP,NORM)
* 'ACTN-CODE-4138-PU32'
ZFLD051  DFHMDF POS=(15,48),LENGTH=0001,ATTRB=(UNPROT),COLOR=DEFAULT,  X
               HILIGHT=OFF
         DFHMDF POS=(15,50),LENGTH=0,ATTRB=(ASKIP,NORM)
* 'PO-CLASS-CODE-4138-PU32'
ZFLD052  DFHMDF POS=(15,56),LENGTH=0001,ATTRB=(UNPROT),COLOR=DEFAULT,  X
               HILIGHT=UNDERLINE
         DFHMDF POS=(15,58),LENGTH=0,ATTRB=(ASKIP,NORM)
* 'MAX-AMT-4084-PU32'
ZFLD053  DFHMDF POS=(15,64),LENGTH=0012,ATTRB=(PROT),COLOR=TURQUOISE,  X
               HILIGHT=OFF
         DFHMDF POS=(15,77),LENGTH=0,ATTRB=(ASKIP,NORM)
* 'ACTN-CODE-4101-PU32'
ZFLD054  DFHMDF POS=(16,02),LENGTH=0001,ATTRB=(UNPROT),COLOR=DEFAULT,  X
               HILIGHT=OFF
         DFHMDF POS=(16,04),LENGTH=0,ATTRB=(ASKIP,NORM)
* 'CMDTY-CODE-4101-PU32'
ZFLD055  DFHMDF POS=(16,08),LENGTH=0008,ATTRB=(UNPROT),COLOR=DEFAULT,  X
               HILIGHT=UNDERLINE
         DFHMDF POS=(16,17),LENGTH=0,ATTRB=(ASKIP,NORM)
* 'ACTN-CODE-4100-PU32'
ZFLD056  DFHMDF POS=(16,23),LENGTH=0001,ATTRB=(UNPROT),COLOR=DEFAULT,  X
               HILIGHT=OFF
         DFHMDF POS=(16,25),LENGTH=0,ATTRB=(ASKIP,NORM)
* 'CHART-CODE-4100-PU32'
ZFLD057  DFHMDF POS=(16,30),LENGTH=0001,ATTRB=(UNPROT),COLOR=DEFAULT,  X
               HILIGHT=UNDERLINE
         DFHMDF POS=(16,32),LENGTH=0,ATTRB=(ASKIP,NORM)
* 'ORGZN-CODE-4100-PU32'
ZFLD058  DFHMDF POS=(16,35),LENGTH=0006,ATTRB=(UNPROT),COLOR=DEFAULT,  X
               HILIGHT=UNDERLINE
         DFHMDF POS=(16,42),LENGTH=0,ATTRB=(ASKIP,NORM)
* 'ACTN-CODE-4138-PU32'
ZFLD059  DFHMDF POS=(16,48),LENGTH=0001,ATTRB=(UNPROT),COLOR=DEFAULT,  X
               HILIGHT=OFF
         DFHMDF POS=(16,50),LENGTH=0,ATTRB=(ASKIP,NORM)
* 'PO-CLASS-CODE-4138-PU32'
ZFLD060  DFHMDF POS=(16,56),LENGTH=0001,ATTRB=(UNPROT),COLOR=DEFAULT,  X
               HILIGHT=UNDERLINE
         DFHMDF POS=(16,58),LENGTH=0,ATTRB=(ASKIP,NORM)
* 'MAX-AMT-4084-PU32'
ZFLD061  DFHMDF POS=(16,64),LENGTH=0012,ATTRB=(PROT),COLOR=TURQUOISE,  X
               HILIGHT=OFF
         DFHMDF POS=(16,77),LENGTH=0,ATTRB=(ASKIP,NORM)
* 'ACTN-CODE-4101-PU32'
ZFLD062  DFHMDF POS=(17,02),LENGTH=0001,ATTRB=(UNPROT),COLOR=DEFAULT,  X
               HILIGHT=OFF
         DFHMDF POS=(17,04),LENGTH=0,ATTRB=(ASKIP,NORM)
* 'CMDTY-CODE-4101-PU32'
ZFLD063  DFHMDF POS=(17,08),LENGTH=0008,ATTRB=(UNPROT),COLOR=DEFAULT,  X
               HILIGHT=UNDERLINE
         DFHMDF POS=(17,17),LENGTH=0,ATTRB=(ASKIP,NORM)
* 'ACTN-CODE-4100-PU32'
ZFLD064  DFHMDF POS=(17,23),LENGTH=0001,ATTRB=(UNPROT),COLOR=DEFAULT,  X
               HILIGHT=OFF
         DFHMDF POS=(17,25),LENGTH=0,ATTRB=(ASKIP,NORM)
* 'CHART-CODE-4100-PU32'
ZFLD065  DFHMDF POS=(17,30),LENGTH=0001,ATTRB=(UNPROT),COLOR=DEFAULT,  X
               HILIGHT=UNDERLINE
         DFHMDF POS=(17,32),LENGTH=0,ATTRB=(ASKIP,NORM)
* 'ORGZN-CODE-4100-PU32'
ZFLD066  DFHMDF POS=(17,35),LENGTH=0006,ATTRB=(UNPROT),COLOR=DEFAULT,  X
               HILIGHT=UNDERLINE
         DFHMDF POS=(17,42),LENGTH=0,ATTRB=(ASKIP,NORM)
* 'ACTN-CODE-4138-PU32'
ZFLD067  DFHMDF POS=(17,48),LENGTH=0001,ATTRB=(UNPROT),COLOR=DEFAULT,  X
               HILIGHT=OFF
         DFHMDF POS=(17,50),LENGTH=0,ATTRB=(ASKIP,NORM)
* 'PO-CLASS-CODE-4138-PU32'
ZFLD068  DFHMDF POS=(17,56),LENGTH=0001,ATTRB=(UNPROT),COLOR=DEFAULT,  X
               HILIGHT=UNDERLINE
         DFHMDF POS=(17,58),LENGTH=0,ATTRB=(ASKIP,NORM)
* 'MAX-AMT-4084-PU32'
ZFLD069  DFHMDF POS=(17,64),LENGTH=0012,ATTRB=(PROT),COLOR=TURQUOISE,  X
               HILIGHT=OFF
         DFHMDF POS=(17,77),LENGTH=0,ATTRB=(ASKIP,NORM)
* 'ACTN-CODE-4101-PU32'
ZFLD070  DFHMDF POS=(18,02),LENGTH=0001,ATTRB=(UNPROT),COLOR=DEFAULT,  X
               HILIGHT=OFF
         DFHMDF POS=(18,04),LENGTH=0,ATTRB=(ASKIP,NORM)
* 'CMDTY-CODE-4101-PU32'
ZFLD071  DFHMDF POS=(18,08),LENGTH=0008,ATTRB=(UNPROT),COLOR=DEFAULT,  X
               HILIGHT=UNDERLINE
         DFHMDF POS=(18,17),LENGTH=0,ATTRB=(ASKIP,NORM)
* 'ACTN-CODE-4100-PU32'
ZFLD072  DFHMDF POS=(18,23),LENGTH=0001,ATTRB=(UNPROT),COLOR=DEFAULT,  X
               HILIGHT=OFF
         DFHMDF POS=(18,25),LENGTH=0,ATTRB=(ASKIP,NORM)
* 'CHART-CODE-4100-PU32'
ZFLD073  DFHMDF POS=(18,30),LENGTH=0001,ATTRB=(UNPROT),COLOR=DEFAULT,  X
               HILIGHT=UNDERLINE
         DFHMDF POS=(18,32),LENGTH=0,ATTRB=(ASKIP,NORM)
* 'ORGZN-CODE-4100-PU32'
ZFLD074  DFHMDF POS=(18,35),LENGTH=0006,ATTRB=(UNPROT),COLOR=DEFAULT,  X
               HILIGHT=UNDERLINE
         DFHMDF POS=(18,42),LENGTH=0,ATTRB=(ASKIP,NORM)
* 'ACTN-CODE-4138-PU32'
ZFLD075  DFHMDF POS=(18,48),LENGTH=0001,ATTRB=(UNPROT),COLOR=DEFAULT,  X
               HILIGHT=OFF
         DFHMDF POS=(18,50),LENGTH=0,ATTRB=(ASKIP,NORM)
* 'PO-CLASS-CODE-4138-PU32'
ZFLD076  DFHMDF POS=(18,56),LENGTH=0001,ATTRB=(UNPROT),COLOR=DEFAULT,  X
               HILIGHT=UNDERLINE
         DFHMDF POS=(18,58),LENGTH=0,ATTRB=(ASKIP,NORM)
* 'MAX-AMT-4084-PU32'
ZFLD077  DFHMDF POS=(18,64),LENGTH=0012,ATTRB=(PROT),COLOR=TURQUOISE,  X
               HILIGHT=OFF
         DFHMDF POS=(18,77),LENGTH=0,ATTRB=(ASKIP,NORM)
* 'ACTN-CODE-4101-PU32'
ZFLD078  DFHMDF POS=(19,02),LENGTH=0001,ATTRB=(UNPROT),COLOR=DEFAULT,  X
               HILIGHT=OFF
         DFHMDF POS=(19,04),LENGTH=0,ATTRB=(ASKIP,NORM)
* 'CMDTY-CODE-4101-PU32'
ZFLD079  DFHMDF POS=(19,08),LENGTH=0008,ATTRB=(UNPROT),COLOR=DEFAULT,  X
               HILIGHT=UNDERLINE
         DFHMDF POS=(19,17),LENGTH=0,ATTRB=(ASKIP,NORM)
* 'ACTN-CODE-4100-PU32'
ZFLD080  DFHMDF POS=(19,23),LENGTH=0001,ATTRB=(UNPROT),COLOR=DEFAULT,  X
               HILIGHT=OFF
         DFHMDF POS=(19,25),LENGTH=0,ATTRB=(ASKIP,NORM)
* 'CHART-CODE-4100-PU32'
ZFLD081  DFHMDF POS=(19,30),LENGTH=0001,ATTRB=(UNPROT),COLOR=DEFAULT,  X
               HILIGHT=UNDERLINE
         DFHMDF POS=(19,32),LENGTH=0,ATTRB=(ASKIP,NORM)
* 'ORGZN-CODE-4100-PU32'
ZFLD082  DFHMDF POS=(19,35),LENGTH=0006,ATTRB=(UNPROT),COLOR=DEFAULT,  X
               HILIGHT=UNDERLINE
         DFHMDF POS=(19,42),LENGTH=0,ATTRB=(ASKIP,NORM)
* 'ACTN-CODE-4138-PU32'
ZFLD083  DFHMDF POS=(19,48),LENGTH=0001,ATTRB=(UNPROT),COLOR=DEFAULT,  X
               HILIGHT=OFF
         DFHMDF POS=(19,50),LENGTH=0,ATTRB=(ASKIP,NORM)
* 'PO-CLASS-CODE-4138-PU32'
ZFLD084  DFHMDF POS=(19,56),LENGTH=0001,ATTRB=(UNPROT),COLOR=DEFAULT,  X
               HILIGHT=UNDERLINE
         DFHMDF POS=(19,58),LENGTH=0,ATTRB=(ASKIP,NORM)
* 'MAX-AMT-4084-PU32'
ZFLD085  DFHMDF POS=(19,64),LENGTH=0012,ATTRB=(PROT),COLOR=TURQUOISE,  X
               HILIGHT=OFF
         DFHMDF POS=(19,77),LENGTH=0,ATTRB=(ASKIP,NORM)
         DFHMDF POS=(21,01),LENGTH=0009,ATTRB=(PROT,ASKIP),            X
               INITIAL='RQST CMD:',COLOR=BLUE,HILIGHT=OFF
* 'RQST-CMDTY-CODE-PU32'
ZFLD086  DFHMDF POS=(21,11),LENGTH=0008,ATTRB=(UNPROT),COLOR=DEFAULT,  X
               HILIGHT=UNDERLINE
         DFHMDF POS=(21,20),LENGTH=0,ATTRB=(ASKIP,NORM)
         DFHMDF POS=(21,22),LENGTH=0014,ATTRB=(PROT,ASKIP),            X
               INITIAL='RQST COA/ORGN:',COLOR=BLUE,HILIGHT=OFF
* 'RQST-COA-CODE-PU32'
ZFLD087  DFHMDF POS=(21,37),LENGTH=0001,ATTRB=(UNPROT),COLOR=DEFAULT,  X
               HILIGHT=UNDERLINE
* 'RQST-ORGZN-CODE-PU32'
ZFLD088  DFHMDF POS=(21,39),LENGTH=0006,ATTRB=(UNPROT),COLOR=DEFAULT,  X
               HILIGHT=UNDERLINE
         DFHMDF POS=(21,46),LENGTH=0,ATTRB=(ASKIP,NORM)
         DFHMDF POS=(21,50),LENGTH=0013,ATTRB=(PROT,ASKIP),            X
               INITIAL='RQST POCLASS:',COLOR=BLUE,HILIGHT=OFF
* 'RQST-PO-CLASS-CODE-PU32'
ZFLD089  DFHMDF POS=(21,64),LENGTH=0001,ATTRB=(UNPROT),COLOR=DEFAULT,  X
               HILIGHT=UNDERLINE
         DFHMDF POS=(21,66),LENGTH=0,ATTRB=(ASKIP,NORM)
* 'DCLINK-MESSAGE'
ZFLD090  DFHMDF POS=(21,80),LENGTH=0160,ATTRB=(PROT,BRT),              X
               COLOR=DEFAULT,HILIGHT=OFF
         DFHMDF POS=(24,01),LENGTH=0012,ATTRB=(PROT,ASKIP,NUM),        X
               INITIAL='NEXT SCREEN:',COLOR=BLUE,HILIGHT=OFF
* 'AGR-PASSED-ONE'
ZFLD091  DFHMDF POS=(24,14),LENGTH=0030,ATTRB=(UNPROT),COLOR=DEFAULT,  X
               HILIGHT=UNDERLINE
         DFHMDF POS=(24,45),LENGTH=0009,ATTRB=(PROT,ASKIP),            X
               INITIAL='RESPONSE:',COLOR=BLUE,HILIGHT=OFF
* 'AGR-MAP-RESPONSE'
ZFLD092  DFHMDF POS=(24,55),LENGTH=0008,ATTRB=(UNPROT),COLOR=DEFAULT,  X
               HILIGHT=UNDERLINE
         DFHMDF POS=(24,64),LENGTH=0,ATTRB=(ASKIP,NORM)
* 'ERROR-TEXT-SY00'
ZFLD093  DFHMDF POS=(24,65),LENGTH=0014,ATTRB=(PROT,DRK),              X
               COLOR=DEFAULT,HILIGHT=OFF
         DFHMSD TYPE=FINAL
         END
