FPUMI48  DFHMSD TYPE=MAP,LANG=COBOL,TERM=3270,MODE=INOUT,              X
               TIOAPFX=YES,MAPATTS=(COLOR,HILIGHT),                    X
               DSATTS=(COLOR,HILIGHT)
FPUMI48  DFHMDI SIZE=(24,80),LINE=1,COLUMN=1,CTRL=FREEKB,TIOAPFX=YES
         DFHMDF POS=(01,01),LENGTH=0007,ATTRB=(PROT,ASKIP),            X
               INITIAL='FPUMI48',COLOR=BLUE,HILIGHT=OFF
* 'TRMNL-ID-SY00'
ZFLD002  DFHMDF POS=(01,10),LENGTH=0008,ATTRB=(PROT),COLOR=BLUE,       X
               HILIGHT=OFF
         DFHMDF POS=(01,19),LENGTH=0,ATTRB=(ASKIP,NORM)
* 'FULL-NAME-6001-SY00'
ZFLD003  DFHMDF POS=(01,23),LENGTH=0035,ATTRB=(PROT),COLOR=BLUE,       X
               HILIGHT=OFF
         DFHMDF POS=(01,59),LENGTH=0,ATTRB=(ASKIP,NORM)
* 'AGR-DATE'
ZFLD004  DFHMDF POS=(01,64),LENGTH=0008,ATTRB=(PROT),COLOR=BLUE,       X
               HILIGHT=OFF
* 'WORK-HH-MM-TIME-SY00'
ZFLD005  DFHMDF POS=(01,73),LENGTH=0005,ATTRB=(PROT),COLOR=BLUE,       X
               HILIGHT=OFF
* 'AM-PM-FLAG-SY00'
ZFLD006  DFHMDF POS=(01,79),LENGTH=0001,ATTRB=(PROT),COLOR=BLUE,       X
               HILIGHT=OFF
* 'AGR-USER-ID'
ZFLD007  DFHMDF POS=(02,01),LENGTH=0008,ATTRB=(PROT),COLOR=BLUE,       X
               HILIGHT=OFF
         DFHMDF POS=(02,10),LENGTH=0,ATTRB=(ASKIP,NORM)
* 'CURR-RSPNS-ID-SY00'
ZFLD008  DFHMDF POS=(02,21),LENGTH=0008,ATTRB=(PROT,BRT),              X
               COLOR=DEFAULT,HILIGHT=OFF
         DFHMDF POS=(02,30),LENGTH=0001,ATTRB=(PROT,ASKIP,BRT),        X
               INITIAL=':',COLOR=DEFAULT,HILIGHT=OFF
* 'AGR-FUNC-DESCRIPTION'
ZFLD009  DFHMDF POS=(02,32),LENGTH=0028,ATTRB=(PROT,BRT),              X
               COLOR=DEFAULT,HILIGHT=OFF
         DFHMDF POS=(02,61),LENGTH=0,ATTRB=(ASKIP,NORM)
* 'PAGE-STATUS-CODE-SY00'
ZFLD010  DFHMDF POS=(02,64),LENGTH=0010,ATTRB=(PROT,BRT),              X
               COLOR=DEFAULT,HILIGHT=OFF
         DFHMDF POS=(02,75),LENGTH=0,ATTRB=(ASKIP,NORM)
         DFHMDF POS=(04,02),LENGTH=0010,ATTRB=(PROT,ASKIP),            X
               INITIAL='SELECTION:',COLOR=BLUE,HILIGHT=OFF
* 'SELECT-FLAG-PU48'
ZFLD011  DFHMDF POS=(04,13),LENGTH=0001,ATTRB=(UNPROT,IC),             X
               COLOR=DEFAULT,HILIGHT=UNDERLINE
         DFHMDF POS=(04,15),LENGTH=0,ATTRB=(ASKIP,NORM)
         DFHMDF POS=(06,02),LENGTH=0076,ATTRB=(PROT,ASKIP),            X
               INITIAL='ACT    REQUEST           NAME                  X
                    REQUEST DATE  DELIVER BY',COLOR=BLUE,HILIGHT=OFF
         DFHMDF POS=(07,02),LENGTH=0004,ATTRB=(PROT,ASKIP),            X
               INITIAL='(AL)',COLOR=BLUE,HILIGHT=OFF
* 'RQST-CODE-4070-PU48'
ZFLD012  DFHMDF POS=(07,08),LENGTH=0008,ATTRB=(PROT,ASKIP),            X
               COLOR=TURQUOISE,HILIGHT=OFF
         DFHMDF POS=(07,17),LENGTH=0,ATTRB=(ASKIP,NORM)
* 'RQST-NAME-4070-PU48'
ZFLD013  DFHMDF POS=(07,18),LENGTH=0035,ATTRB=(PROT,ASKIP),            X
               COLOR=TURQUOISE,HILIGHT=OFF
         DFHMDF POS=(07,54),LENGTH=0,ATTRB=(ASKIP,NORM)
* 'TRANS-DATE-4070-PU48'
ZFLD014  DFHMDF POS=(07,56),LENGTH=0008,ATTRB=(PROT,ASKIP),            X
               COLOR=TURQUOISE,HILIGHT=OFF
         DFHMDF POS=(07,65),LENGTH=0,ATTRB=(ASKIP,NORM)
* 'DLVRY-DATE-4070-PU48'
ZFLD015  DFHMDF POS=(07,69),LENGTH=0008,ATTRB=(PROT,ASKIP),            X
               COLOR=TURQUOISE,HILIGHT=OFF
         DFHMDF POS=(07,78),LENGTH=0,ATTRB=(ASKIP,NORM)
* 'ACTN-CODE-PU48'
ZFLD016  DFHMDF POS=(08,03),LENGTH=0001,ATTRB=(UNPROT),COLOR=DEFAULT,  X
               HILIGHT=OFF
         DFHMDF POS=(08,05),LENGTH=0,ATTRB=(ASKIP,NORM)
         DFHMDF POS=(08,07),LENGTH=0032,ATTRB=(PROT,ASKIP),            X
               INITIAL='COMP IND      ORGANIZATION TITLE',COLOR=BLUE,  X
               HILIGHT=OFF
* 'RQST-CMPLT-IND-4070-PU48'
ZFLD017  DFHMDF POS=(09,10),LENGTH=0001,ATTRB=(PROT,ASKIP),            X
               COLOR=TURQUOISE,HILIGHT=OFF
         DFHMDF POS=(09,12),LENGTH=0,ATTRB=(ASKIP,NORM)
* 'ORGZN-TITLE-4010-PU48'
ZFLD018  DFHMDF POS=(09,18),LENGTH=0035,ATTRB=(PROT,ASKIP),            X
               COLOR=TURQUOISE,HILIGHT=OFF
         DFHMDF POS=(09,54),LENGTH=0,ATTRB=(ASKIP,NORM)
         DFHMDF POS=(11,02),LENGTH=0076,ATTRB=(PROT,ASKIP),            X
               INITIAL='ACT    REQUEST           NAME                  X
                    REQUEST DATE  DELIVER BY',COLOR=BLUE,HILIGHT=OFF
         DFHMDF POS=(12,02),LENGTH=0004,ATTRB=(PROT,ASKIP),            X
               INITIAL='(AL)',COLOR=BLUE,HILIGHT=OFF
* 'RQST-CODE-4070-PU48'
ZFLD019  DFHMDF POS=(12,08),LENGTH=0008,ATTRB=(PROT,ASKIP),            X
               COLOR=TURQUOISE,HILIGHT=OFF
         DFHMDF POS=(12,17),LENGTH=0,ATTRB=(ASKIP,NORM)
* 'RQST-NAME-4070-PU48'
ZFLD020  DFHMDF POS=(12,18),LENGTH=0035,ATTRB=(PROT,ASKIP),            X
               COLOR=TURQUOISE,HILIGHT=OFF
         DFHMDF POS=(12,54),LENGTH=0,ATTRB=(ASKIP,NORM)
* 'TRANS-DATE-4070-PU48'
ZFLD021  DFHMDF POS=(12,56),LENGTH=0008,ATTRB=(PROT,ASKIP),            X
               COLOR=TURQUOISE,HILIGHT=OFF
         DFHMDF POS=(12,65),LENGTH=0,ATTRB=(ASKIP,NORM)
* 'DLVRY-DATE-4070-PU48'
ZFLD022  DFHMDF POS=(12,69),LENGTH=0008,ATTRB=(PROT,ASKIP),            X
               COLOR=TURQUOISE,HILIGHT=OFF
         DFHMDF POS=(12,78),LENGTH=0,ATTRB=(ASKIP,NORM)
* 'ACTN-CODE-PU48'
ZFLD023  DFHMDF POS=(13,03),LENGTH=0001,ATTRB=(UNPROT),COLOR=DEFAULT,  X
               HILIGHT=OFF
         DFHMDF POS=(13,05),LENGTH=0,ATTRB=(ASKIP,NORM)
         DFHMDF POS=(13,07),LENGTH=0032,ATTRB=(PROT,ASKIP),            X
               INITIAL='COMP IND      ORGANIZATION TITLE',COLOR=BLUE,  X
               HILIGHT=OFF
* 'RQST-CMPLT-IND-4070-PU48'
ZFLD024  DFHMDF POS=(14,10),LENGTH=0001,ATTRB=(PROT,ASKIP),            X
               COLOR=TURQUOISE,HILIGHT=OFF
         DFHMDF POS=(14,12),LENGTH=0,ATTRB=(ASKIP,NORM)
* 'ORGZN-TITLE-4010-PU48'
ZFLD025  DFHMDF POS=(14,18),LENGTH=0035,ATTRB=(PROT,ASKIP),            X
               COLOR=TURQUOISE,HILIGHT=OFF
         DFHMDF POS=(14,54),LENGTH=0,ATTRB=(ASKIP,NORM)
         DFHMDF POS=(16,02),LENGTH=0076,ATTRB=(PROT,ASKIP),            X
               INITIAL='ACT    REQUEST           NAME                  X
                    REQUEST DATE  DELIVER BY',COLOR=BLUE,HILIGHT=OFF
         DFHMDF POS=(17,02),LENGTH=0004,ATTRB=(PROT,ASKIP),            X
               INITIAL='(AL)',COLOR=BLUE,HILIGHT=OFF
* 'RQST-CODE-4070-PU48'
ZFLD026  DFHMDF POS=(17,08),LENGTH=0008,ATTRB=(PROT,ASKIP),            X
               COLOR=TURQUOISE,HILIGHT=OFF
         DFHMDF POS=(17,17),LENGTH=0,ATTRB=(ASKIP,NORM)
* 'RQST-NAME-4070-PU48'
ZFLD027  DFHMDF POS=(17,18),LENGTH=0035,ATTRB=(PROT,ASKIP),            X
               COLOR=TURQUOISE,HILIGHT=OFF
         DFHMDF POS=(17,54),LENGTH=0,ATTRB=(ASKIP,NORM)
* 'TRANS-DATE-4070-PU48'
ZFLD028  DFHMDF POS=(17,56),LENGTH=0008,ATTRB=(PROT,ASKIP),            X
               COLOR=TURQUOISE,HILIGHT=OFF
         DFHMDF POS=(17,65),LENGTH=0,ATTRB=(ASKIP,NORM)
* 'DLVRY-DATE-4070-PU48'
ZFLD029  DFHMDF POS=(17,69),LENGTH=0008,ATTRB=(PROT,ASKIP),            X
               COLOR=TURQUOISE,HILIGHT=OFF
         DFHMDF POS=(17,78),LENGTH=0,ATTRB=(ASKIP,NORM)
* 'ACTN-CODE-PU48'
ZFLD030  DFHMDF POS=(18,03),LENGTH=0001,ATTRB=(UNPROT),COLOR=DEFAULT,  X
               HILIGHT=OFF
         DFHMDF POS=(18,05),LENGTH=0,ATTRB=(ASKIP,NORM)
         DFHMDF POS=(18,07),LENGTH=0032,ATTRB=(PROT,ASKIP),            X
               INITIAL='COMP IND      ORGANIZATION TITLE',COLOR=BLUE,  X
               HILIGHT=OFF
* 'RQST-CMPLT-IND-4070-PU48'
ZFLD031  DFHMDF POS=(19,10),LENGTH=0001,ATTRB=(PROT,ASKIP),            X
               COLOR=TURQUOISE,HILIGHT=OFF
         DFHMDF POS=(19,12),LENGTH=0,ATTRB=(ASKIP,NORM)
* 'ORGZN-TITLE-4010-PU48'
ZFLD032  DFHMDF POS=(19,18),LENGTH=0035,ATTRB=(PROT,ASKIP),            X
               COLOR=TURQUOISE,HILIGHT=OFF
         DFHMDF POS=(19,54),LENGTH=0,ATTRB=(ASKIP,NORM)
         DFHMDF POS=(20,01),LENGTH=0021,ATTRB=(PROT,ASKIP),            X
               INITIAL='REQUEST CODE REQUEST:',COLOR=BLUE,HILIGHT=OFF
* 'RQST-RQST-CODE-PU48'
ZFLD033  DFHMDF POS=(20,23),LENGTH=0008,ATTRB=(UNPROT),COLOR=DEFAULT,  X
               HILIGHT=UNDERLINE
         DFHMDF POS=(20,32),LENGTH=0,ATTRB=(ASKIP,NORM)
* 'DCLINK-MESSAGE'
ZFLD034  DFHMDF POS=(21,80),LENGTH=0160,ATTRB=(PROT,BRT),              X
               COLOR=DEFAULT,HILIGHT=OFF
         DFHMDF POS=(24,01),LENGTH=0012,ATTRB=(PROT,ASKIP,NUM),        X
               INITIAL='NEXT SCREEN:',COLOR=BLUE,HILIGHT=OFF
* 'AGR-PASSED-ONE'
ZFLD035  DFHMDF POS=(24,14),LENGTH=0030,ATTRB=(UNPROT),COLOR=DEFAULT,  X
               HILIGHT=UNDERLINE
         DFHMDF POS=(24,45),LENGTH=0009,ATTRB=(PROT,ASKIP),            X
               INITIAL='RESPONSE:',COLOR=BLUE,HILIGHT=OFF
* 'AGR-MAP-RESPONSE'
ZFLD036  DFHMDF POS=(24,55),LENGTH=0008,ATTRB=(UNPROT),COLOR=DEFAULT,  X
               HILIGHT=UNDERLINE
         DFHMDF POS=(24,64),LENGTH=0,ATTRB=(ASKIP,NORM)
* 'ERROR-TEXT-SY00'
ZFLD037  DFHMDF POS=(24,65),LENGTH=0014,ATTRB=(PROT,DRK),              X
               COLOR=DEFAULT,HILIGHT=OFF
         DFHMSD TYPE=FINAL
         END
