FPUMI55  DFHMSD TYPE=MAP,LANG=COBOL,TERM=3270,MODE=INOUT,              X
               TIOAPFX=YES,MAPATTS=(COLOR,HILIGHT),                    X
               DSATTS=(COLOR,HILIGHT)
FPUMI55  DFHMDI SIZE=(24,80),LINE=1,COLUMN=1,CTRL=FREEKB,TIOAPFX=YES
         DFHMDF POS=(01,01),LENGTH=0007,ATTRB=(PROT,ASKIP),            X
               INITIAL='FPUMI55',COLOR=BLUE,HILIGHT=OFF
* 'TRMNL-ID-SY00'
ZFLD002  DFHMDF POS=(01,10),LENGTH=0008,ATTRB=(PROT),COLOR=BLUE,       X
               HILIGHT=OFF
         DFHMDF POS=(01,19),LENGTH=0,ATTRB=(ASKIP,NORM)
* 'FULL-NAME-6001-SY00'
ZFLD003  DFHMDF POS=(01,23),LENGTH=0035,ATTRB=(PROT),COLOR=BLUE,       X
               HILIGHT=OFF
         DFHMDF POS=(01,59),LENGTH=0,ATTRB=(ASKIP,NORM)
* 'AGR-DATE'
ZFLD004  DFHMDF POS=(01,64),LENGTH=0008,ATTRB=(PROT),COLOR=BLUE,       X
               HILIGHT=OFF
* 'WORK-HH-MM-TIME-SY00'
ZFLD005  DFHMDF POS=(01,73),LENGTH=0005,ATTRB=(PROT),COLOR=BLUE,       X
               HILIGHT=OFF
* 'AM-PM-FLAG-SY00'
ZFLD006  DFHMDF POS=(01,79),LENGTH=0001,ATTRB=(PROT),COLOR=BLUE,       X
               HILIGHT=OFF
* 'AGR-USER-ID'
ZFLD007  DFHMDF POS=(02,01),LENGTH=0008,ATTRB=(PROT),COLOR=BLUE,       X
               HILIGHT=OFF
         DFHMDF POS=(02,10),LENGTH=0,ATTRB=(ASKIP,NORM)
* 'CURR-RSPNS-ID-SY00'
ZFLD008  DFHMDF POS=(02,21),LENGTH=0008,ATTRB=(PROT,BRT),              X
               COLOR=DEFAULT,HILIGHT=OFF
         DFHMDF POS=(02,30),LENGTH=0001,ATTRB=(PROT,ASKIP,BRT),        X
               INITIAL=':',COLOR=DEFAULT,HILIGHT=OFF
* 'AGR-FUNC-DESCRIPTION'
ZFLD009  DFHMDF POS=(02,32),LENGTH=0028,ATTRB=(PROT,BRT),              X
               COLOR=DEFAULT,HILIGHT=OFF
         DFHMDF POS=(02,61),LENGTH=0,ATTRB=(ASKIP,NORM)
* 'PAGE-STATUS-CODE-SY00'
ZFLD010  DFHMDF POS=(02,64),LENGTH=0010,ATTRB=(PROT,BRT),              X
               COLOR=DEFAULT,HILIGHT=OFF
         DFHMDF POS=(02,75),LENGTH=0,ATTRB=(ASKIP,NORM)
         DFHMDF POS=(03,01),LENGTH=0079,ATTRB=(PROT,ASKIP),            X
               INITIAL='PURCHASE ORDER  #CO       VENDOR       VENDOR NX
               AME                     ORDER DT',COLOR=BLUE,           X
               HILIGHT=OFF
* 'PO-NMBR-PU50'
ZFLD011  DFHMDF POS=(04,01),LENGTH=0008,ATTRB=(PROT),COLOR=TURQUOISE,  X
               HILIGHT=OFF
         DFHMDF POS=(04,10),LENGTH=0001,ATTRB=(PROT,ASKIP),            X
               INITIAL='-',COLOR=BLUE,HILIGHT=OFF
* 'CHNG-SEQ-NMBR-PU50'
ZFLD012  DFHMDF POS=(04,12),LENGTH=0003,ATTRB=(PROT),COLOR=TURQUOISE,  X
               HILIGHT=UNDERLINE
         DFHMDF POS=(04,16),LENGTH=0,ATTRB=(ASKIP,NORM)
* 'TOTAL-C-O-PU50'
ZFLD013  DFHMDF POS=(04,17),LENGTH=0003,ATTRB=(PROT),COLOR=TURQUOISE,  X
               HILIGHT=OFF
         DFHMDF POS=(04,21),LENGTH=0,ATTRB=(ASKIP,NORM)
* 'VNDR-ID-LAST-NINE-PU50'
ZFLD014  DFHMDF POS=(04,26),LENGTH=0009,ATTRB=(PROT),COLOR=TURQUOISE,  X
               HILIGHT=OFF
* 'NAME-KEY-PU50'
ZFLD015  DFHMDF POS=(04,36),LENGTH=0035,ATTRB=(PROT),COLOR=TURQUOISE,  X
               HILIGHT=OFF
* 'ORDER-DATE-PU50'
ZFLD016  DFHMDF POS=(04,72),LENGTH=0008,ATTRB=(PROT),COLOR=TURQUOISE,  X
               HILIGHT=OFF
         DFHMDF POS=(05,01),LENGTH=0,ATTRB=(ASKIP,NORM)
         DFHMDF POS=(05,17),LENGTH=0010,ATTRB=(PROT,ASKIP),            X
               INITIAL='PO AMT   :',COLOR=BLUE,HILIGHT=OFF
* 'PO-AMT-PU50'
ZFLD017  DFHMDF POS=(05,28),LENGTH=0013,ATTRB=(PROT,ASKIP),            X
               COLOR=TURQUOISE,HILIGHT=OFF
         DFHMDF POS=(05,42),LENGTH=0,ATTRB=(ASKIP,NORM)
         DFHMDF POS=(05,43),LENGTH=0021,ATTRB=(PROT,ASKIP),            X
               INITIAL='INV AMT (LESS DSCNT):',COLOR=BLUE,HILIGHT=OFF
* 'INV-AMT-PU50'
ZFLD018  DFHMDF POS=(05,65),LENGTH=0013,ATTRB=(PROT,ASKIP),            X
               COLOR=TURQUOISE,HILIGHT=OFF
         DFHMDF POS=(05,79),LENGTH=0,ATTRB=(ASKIP,NORM)
* 'DATA-DESC-PU50'
ZFLD019  DFHMDF POS=(06,01),LENGTH=0015,ATTRB=(PROT),COLOR=TURQUOISE,  X
               HILIGHT=OFF
         DFHMDF POS=(06,17),LENGTH=0010,ATTRB=(PROT,ASKIP),            X
               INITIAL='PO TAX   :',COLOR=BLUE,HILIGHT=OFF
* 'PO-TAX-AMT-PU50'
ZFLD020  DFHMDF POS=(06,28),LENGTH=0013,ATTRB=(PROT,ASKIP),            X
               COLOR=TURQUOISE,HILIGHT=OFF
         DFHMDF POS=(06,42),LENGTH=0,ATTRB=(ASKIP,NORM)
         DFHMDF POS=(06,43),LENGTH=0021,ATTRB=(PROT,ASKIP),            X
               INITIAL='INV TAX             :',COLOR=BLUE,HILIGHT=OFF
* 'INV-TAX-AMT-PU50'
ZFLD021  DFHMDF POS=(06,65),LENGTH=0013,ATTRB=(PROT,ASKIP),            X
               COLOR=TURQUOISE,HILIGHT=OFF
         DFHMDF POS=(06,79),LENGTH=0,ATTRB=(ASKIP,NORM)
* 'CNCL-DATE-PU50'
ZFLD022  DFHMDF POS=(07,01),LENGTH=0008,ATTRB=(PROT,ASKIP),            X
               COLOR=TURQUOISE,HILIGHT=OFF
         DFHMDF POS=(07,10),LENGTH=0,ATTRB=(ASKIP,NORM)
         DFHMDF POS=(07,17),LENGTH=0010,ATTRB=(PROT,ASKIP),            X
               INITIAL='PO ADDL  :',COLOR=BLUE,HILIGHT=OFF
* 'PO-ADDL-AMT-PU50'
ZFLD023  DFHMDF POS=(07,28),LENGTH=0013,ATTRB=(PROT,ASKIP),            X
               COLOR=TURQUOISE,HILIGHT=OFF
         DFHMDF POS=(07,42),LENGTH=0,ATTRB=(ASKIP,NORM)
         DFHMDF POS=(07,43),LENGTH=0021,ATTRB=(PROT,ASKIP),            X
               INITIAL='INV ADDL            :',COLOR=BLUE,HILIGHT=OFF
* 'INV-ADDL-AMT-PU50'
ZFLD024  DFHMDF POS=(07,65),LENGTH=0013,ATTRB=(PROT,ASKIP),            X
               COLOR=TURQUOISE,HILIGHT=OFF
         DFHMDF POS=(07,79),LENGTH=0,ATTRB=(ASKIP,NORM)
         DFHMDF POS=(08,17),LENGTH=0010,ATTRB=(PROT,ASKIP),            X
               INITIAL='PO TOTAL :',COLOR=BLUE,HILIGHT=OFF
* 'TOTAL-PO-AMT-PU50'
ZFLD025  DFHMDF POS=(08,28),LENGTH=0013,ATTRB=(PROT,ASKIP),            X
               COLOR=TURQUOISE,HILIGHT=OFF
         DFHMDF POS=(08,42),LENGTH=0,ATTRB=(ASKIP,NORM)
         DFHMDF POS=(08,43),LENGTH=0021,ATTRB=(PROT,ASKIP),            X
               INITIAL='INV TOTAL           :',COLOR=BLUE,HILIGHT=OFF
* 'TOTAL-INV-AMT-PU50'
ZFLD026  DFHMDF POS=(08,65),LENGTH=0013,ATTRB=(PROT,ASKIP),            X
               COLOR=TURQUOISE,HILIGHT=OFF
         DFHMDF POS=(08,79),LENGTH=0,ATTRB=(ASKIP,NORM)
         DFHMDF POS=(09,01),LENGTH=0079,ATTRB=(PROT,ASKIP),            X
               INITIAL='-----------------------------------------------X
               --------------------------------',COLOR=BLUE,           X
               HILIGHT=OFF
         DFHMDF POS=(10,01),LENGTH=0009,ATTRB=(PROT,ASKIP),            X
               INITIAL='ITEM    :',COLOR=BLUE,HILIGHT=OFF
* 'ITEM-NMBR-PU55'
ZFLD027  DFHMDF POS=(10,11),LENGTH=0004,ATTRB=(UNPROT,IC),             X
               COLOR=DEFAULT,HILIGHT=UNDERLINE
         DFHMDF POS=(10,16),LENGTH=0,ATTRB=(ASKIP,NORM)
         DFHMDF POS=(10,27),LENGTH=0011,ATTRB=(PROT,ASKIP),            X
               INITIAL='# OF SEQ  :',COLOR=BLUE,HILIGHT=OFF
* 'SEQ-COUNT-PU55'
ZFLD028  DFHMDF POS=(10,39),LENGTH=0004,ATTRB=(PROT,ASKIP),            X
               COLOR=TURQUOISE,HILIGHT=OFF
         DFHMDF POS=(10,44),LENGTH=0,ATTRB=(ASKIP,NORM)
         DFHMDF POS=(11,01),LENGTH=0009,ATTRB=(PROT,ASKIP),            X
               INITIAL='CMDTY   :',COLOR=BLUE,HILIGHT=OFF
* 'CMDTY-CODE-PU55'
ZFLD029  DFHMDF POS=(11,11),LENGTH=0008,ATTRB=(PROT),COLOR=TURQUOISE,  X
               HILIGHT=OFF
         DFHMDF POS=(11,20),LENGTH=0,ATTRB=(ASKIP,NORM)
         DFHMDF POS=(12,01),LENGTH=0009,ATTRB=(PROT,ASKIP),            X
               INITIAL='QTY     :',COLOR=BLUE,HILIGHT=OFF
* 'QTY-PU55'
ZFLD030  DFHMDF POS=(12,11),LENGTH=0014,ATTRB=(PROT,ASKIP),            X
               COLOR=TURQUOISE,HILIGHT=OFF
         DFHMDF POS=(12,26),LENGTH=0,ATTRB=(ASKIP,NORM)
         DFHMDF POS=(12,27),LENGTH=0011,ATTRB=(PROT,ASKIP),            X
               INITIAL='UNIT PRICE:',COLOR=BLUE,HILIGHT=OFF
* 'UNIT-PRICE-PU55'
ZFLD031  DFHMDF POS=(12,39),LENGTH=0014,ATTRB=(PROT,ASKIP),            X
               COLOR=TURQUOISE,HILIGHT=OFF
         DFHMDF POS=(12,54),LENGTH=0,ATTRB=(ASKIP,NORM)
         DFHMDF POS=(14,01),LENGTH=0009,ATTRB=(PROT,ASKIP),            X
               INITIAL='ACCT SEQ:',COLOR=BLUE,HILIGHT=OFF
* 'SEQ-NMBR-PU55'
ZFLD032  DFHMDF POS=(14,11),LENGTH=0004,ATTRB=(UNPROT),COLOR=DEFAULT,  X
               HILIGHT=UNDERLINE
         DFHMDF POS=(14,16),LENGTH=0,ATTRB=(ASKIP,NORM)
         DFHMDF POS=(14,17),LENGTH=0056,ATTRB=(PROT,ASKIP),            X
               INITIAL='COA    INDEX     FUND   ORGN   ACCT  PRGRM  ACTX
               VY   LCTN',COLOR=BLUE,HILIGHT=OFF
* 'COA-CODE-PU55'
ZFLD033  DFHMDF POS=(15,18),LENGTH=0001,ATTRB=(PROT),COLOR=TURQUOISE,  X
               HILIGHT=OFF
         DFHMDF POS=(15,20),LENGTH=0,ATTRB=(ASKIP,NORM)
* 'ACCT-INDX-CODE-PU55'
ZFLD034  DFHMDF POS=(15,22),LENGTH=0010,ATTRB=(PROT),COLOR=TURQUOISE,  X
               HILIGHT=OFF
* 'FUND-CODE-PU55'
ZFLD035  DFHMDF POS=(15,33),LENGTH=0006,ATTRB=(PROT),COLOR=TURQUOISE,  X
               HILIGHT=OFF
* 'ORGZN-CODE-PU55'
ZFLD036  DFHMDF POS=(15,40),LENGTH=0006,ATTRB=(PROT),COLOR=TURQUOISE,  X
               HILIGHT=OFF
* 'ACCT-CODE-PU55'
ZFLD037  DFHMDF POS=(15,47),LENGTH=0006,ATTRB=(PROT),COLOR=TURQUOISE,  X
               HILIGHT=OFF
* 'PRGRM-CODE-PU55'
ZFLD038  DFHMDF POS=(15,54),LENGTH=0006,ATTRB=(PROT),COLOR=TURQUOISE,  X
               HILIGHT=OFF
* 'LCTN-CODE-PU55'
ZFLD039  DFHMDF POS=(15,61),LENGTH=0006,ATTRB=(PROT),COLOR=TURQUOISE,  X
               HILIGHT=OFF
* 'ACTVY-CODE-PU55'
ZFLD040  DFHMDF POS=(15,68),LENGTH=0006,ATTRB=(PROT),COLOR=TURQUOISE,  X
               HILIGHT=OFF
         DFHMDF POS=(15,75),LENGTH=0,ATTRB=(ASKIP,NORM)
         DFHMDF POS=(17,01),LENGTH=0071,ATTRB=(PROT,ASKIP),            X
               INITIAL='          --- PO AMOUNTS ---   --- INV AMOUNTS X
               ---   --- LEFT ON PO ---',COLOR=BLUE,HILIGHT=OFF
         DFHMDF POS=(18,01),LENGTH=0010,ATTRB=(PROT,ASKIP),            X
               INITIAL='AMOUNT   :',COLOR=BLUE,HILIGHT=OFF
* 'ACCT-AMT-PU55'
ZFLD041  DFHMDF POS=(18,12),LENGTH=0017,ATTRB=(PROT,ASKIP),            X
               COLOR=TURQUOISE,HILIGHT=OFF
         DFHMDF POS=(18,30),LENGTH=0,ATTRB=(ASKIP,NORM)
* 'INV-ACCT-AMT-PU55'
ZFLD042  DFHMDF POS=(18,33),LENGTH=0017,ATTRB=(PROT,ASKIP),            X
               COLOR=TURQUOISE,HILIGHT=OFF
         DFHMDF POS=(18,51),LENGTH=0,ATTRB=(ASKIP,NORM)
* 'LEFT-ACCT-AMT-PU55'
ZFLD043  DFHMDF POS=(18,55),LENGTH=0017,ATTRB=(PROT,ASKIP),            X
               COLOR=TURQUOISE,HILIGHT=OFF
         DFHMDF POS=(18,73),LENGTH=0,ATTRB=(ASKIP,NORM)
         DFHMDF POS=(19,01),LENGTH=0010,ATTRB=(PROT,ASKIP),            X
               INITIAL='TAX      :',COLOR=BLUE,HILIGHT=OFF
* 'TAX-AMT-PU55'
ZFLD044  DFHMDF POS=(19,12),LENGTH=0017,ATTRB=(PROT,ASKIP),            X
               COLOR=TURQUOISE,HILIGHT=OFF
         DFHMDF POS=(19,30),LENGTH=0,ATTRB=(ASKIP,NORM)
* 'INV-TAX-AMT-PU55'
ZFLD045  DFHMDF POS=(19,33),LENGTH=0017,ATTRB=(PROT,ASKIP),            X
               COLOR=TURQUOISE,HILIGHT=OFF
         DFHMDF POS=(19,51),LENGTH=0,ATTRB=(ASKIP,NORM)
* 'LEFT-TAX-AMT-PU55'
ZFLD046  DFHMDF POS=(19,55),LENGTH=0017,ATTRB=(PROT,ASKIP),            X
               COLOR=TURQUOISE,HILIGHT=OFF
         DFHMDF POS=(19,73),LENGTH=0,ATTRB=(ASKIP,NORM)
         DFHMDF POS=(20,01),LENGTH=0010,ATTRB=(PROT,ASKIP),            X
               INITIAL='ADDL     :',COLOR=BLUE,HILIGHT=OFF
* 'ADDL-CHRG-PU55'
ZFLD047  DFHMDF POS=(20,12),LENGTH=0017,ATTRB=(PROT,ASKIP),            X
               COLOR=TURQUOISE,HILIGHT=OFF
         DFHMDF POS=(20,30),LENGTH=0,ATTRB=(ASKIP,NORM)
* 'INV-ADDL-CHRG-PU55'
ZFLD048  DFHMDF POS=(20,33),LENGTH=0017,ATTRB=(PROT,ASKIP),            X
               COLOR=TURQUOISE,HILIGHT=OFF
         DFHMDF POS=(20,51),LENGTH=0,ATTRB=(ASKIP,NORM)
* 'LEFT-ADDL-CHRG-PU55'
ZFLD049  DFHMDF POS=(20,55),LENGTH=0017,ATTRB=(PROT,ASKIP),            X
               COLOR=TURQUOISE,HILIGHT=OFF
         DFHMDF POS=(20,73),LENGTH=0,ATTRB=(ASKIP,NORM)
* 'DCLINK-MESSAGE'
ZFLD050  DFHMDF POS=(21,80),LENGTH=0160,ATTRB=(PROT,BRT),              X
               COLOR=DEFAULT,HILIGHT=OFF
         DFHMDF POS=(24,01),LENGTH=0012,ATTRB=(PROT,ASKIP,NUM),        X
               INITIAL='NEXT SCREEN:',COLOR=BLUE,HILIGHT=OFF
* 'AGR-PASSED-ONE'
ZFLD051  DFHMDF POS=(24,14),LENGTH=0030,ATTRB=(UNPROT),COLOR=DEFAULT,  X
               HILIGHT=UNDERLINE
         DFHMDF POS=(24,45),LENGTH=0009,ATTRB=(PROT,ASKIP),            X
               INITIAL='RESPONSE:',COLOR=BLUE,HILIGHT=OFF
* 'AGR-MAP-RESPONSE'
ZFLD052  DFHMDF POS=(24,55),LENGTH=0008,ATTRB=(UNPROT),COLOR=DEFAULT,  X
               HILIGHT=UNDERLINE
         DFHMDF POS=(24,64),LENGTH=0,ATTRB=(ASKIP,NORM)
* 'ERROR-TEXT-SY00'
ZFLD053  DFHMDF POS=(24,65),LENGTH=0014,ATTRB=(PROT,DRK),              X
               COLOR=DEFAULT,HILIGHT=OFF
         DFHMSD TYPE=FINAL
         END
