FTAMU26  DFHMSD TYPE=MAP,LANG=COBOL,TERM=3270,MODE=INOUT,              X
               TIOAPFX=YES,MAPATTS=(COLOR,HILIGHT),                    X
               DSATTS=(COLOR,HILIGHT)
FTAMU26  DFHMDI SIZE=(24,80),LINE=1,COLUMN=1,CTRL=FREEKB,TIOAPFX=YES
         DFHMDF POS=(01,01),LENGTH=0007,ATTRB=(PROT,ASKIP),            X
               INITIAL='FTAMU26',COLOR=BLUE,HILIGHT=OFF
* 'FULL-NAME-6001-SY00'
ZFLD002  DFHMDF POS=(01,23),LENGTH=0035,ATTRB=(PROT),COLOR=BLUE,       X
               HILIGHT=OFF
         DFHMDF POS=(01,59),LENGTH=0,ATTRB=(ASKIP,NORM)
* 'AGR-DATE'
ZFLD003  DFHMDF POS=(01,64),LENGTH=0008,ATTRB=(PROT),COLOR=BLUE,       X
               HILIGHT=OFF
* 'WORK-HH-MM-TIME-SY00'
ZFLD004  DFHMDF POS=(01,73),LENGTH=0005,ATTRB=(PROT),COLOR=BLUE,       X
               HILIGHT=OFF
* 'AM-PM-FLAG-SY00'
ZFLD005  DFHMDF POS=(01,79),LENGTH=0001,ATTRB=(PROT),COLOR=BLUE,       X
               HILIGHT=OFF
* 'AGR-USER-ID'
ZFLD006  DFHMDF POS=(02,01),LENGTH=0008,ATTRB=(PROT),COLOR=BLUE,       X
               HILIGHT=OFF
         DFHMDF POS=(02,10),LENGTH=0,ATTRB=(ASKIP,NORM)
* 'CURR-RSPNS-ID-SY00'
ZFLD007  DFHMDF POS=(02,21),LENGTH=0008,ATTRB=(PROT,BRT),              X
               COLOR=DEFAULT,HILIGHT=OFF
         DFHMDF POS=(02,30),LENGTH=0001,ATTRB=(PROT,ASKIP,BRT),        X
               INITIAL=':',COLOR=DEFAULT,HILIGHT=OFF
* 'AGR-FUNC-DESCRIPTION'
ZFLD008  DFHMDF POS=(02,32),LENGTH=0028,ATTRB=(PROT,BRT),              X
               COLOR=DEFAULT,HILIGHT=OFF
         DFHMDF POS=(02,61),LENGTH=0,ATTRB=(ASKIP,NORM)
         DFHMDF POS=(04,01),LENGTH=0013,ATTRB=(PROT,ASKIP),            X
               INITIAL='ACTION (ACD):',COLOR=BLUE,HILIGHT=OFF
* 'ACTN-CODE-TA26'
ZFLD009  DFHMDF POS=(04,15),LENGTH=0001,ATTRB=(UNPROT,IC),             X
               COLOR=DEFAULT,HILIGHT=OFF
         DFHMDF POS=(04,17),LENGTH=0,ATTRB=(ASKIP,NORM)
         DFHMDF POS=(06,01),LENGTH=0020,ATTRB=(PROT,ASKIP),            X
               INITIAL='RECONCILIATION TYPE:',COLOR=BLUE,HILIGHT=OFF
* 'RCNCLTN-TYPE-4415-TA26'
ZFLD010  DFHMDF POS=(06,22),LENGTH=0004,ATTRB=(UNPROT),COLOR=DEFAULT,  X
               HILIGHT=UNDERLINE
         DFHMDF POS=(06,27),LENGTH=0,ATTRB=(ASKIP,NORM)
         DFHMDF POS=(08,03),LENGTH=0010,ATTRB=(PROT,ASKIP),            X
               INITIAL='FULL DESC:',COLOR=BLUE,HILIGHT=OFF
* 'FULL-DESC-4415-TA26'
ZFLD011  DFHMDF POS=(08,14),LENGTH=0035,ATTRB=(UNPROT),COLOR=DEFAULT,  X
               HILIGHT=UNDERLINE
         DFHMDF POS=(08,50),LENGTH=0,ATTRB=(ASKIP,NORM)
         DFHMDF POS=(09,02),LENGTH=0011,ATTRB=(PROT,ASKIP),            X
               INITIAL='SHORT DESC:',COLOR=BLUE,HILIGHT=OFF
* 'SHORT-DESC-4415-TA26'
ZFLD012  DFHMDF POS=(09,14),LENGTH=0010,ATTRB=(UNPROT),COLOR=DEFAULT,  X
               HILIGHT=UNDERLINE
         DFHMDF POS=(09,25),LENGTH=0,ATTRB=(ASKIP,NORM)
         DFHMDF POS=(10,02),LENGTH=0011,ATTRB=(PROT,ASKIP),            X
               INITIAL='RULE CLASS:',COLOR=BLUE,HILIGHT=OFF
* 'RULE-CLASS-CODE-4180-TA26'
ZFLD013  DFHMDF POS=(10,14),LENGTH=0004,ATTRB=(UNPROT),COLOR=DEFAULT,  X
               HILIGHT=UNDERLINE
* 'RULE-CLASS-DESC-4181-TA26'
ZFLD014  DFHMDF POS=(10,19),LENGTH=0035,ATTRB=(PROT,ASKIP),            X
               COLOR=TURQUOISE,HILIGHT=OFF
         DFHMDF POS=(10,55),LENGTH=0,ATTRB=(ASKIP,NORM)
         DFHMDF POS=(11,02),LENGTH=0011,ATTRB=(PROT,ASKIP),            X
               INITIAL='      BANK:',COLOR=BLUE,HILIGHT=OFF
* 'BANK-ACCT-CODE-4033-TA26'
ZFLD015  DFHMDF POS=(11,14),LENGTH=0002,ATTRB=(UNPROT),COLOR=DEFAULT,  X
               HILIGHT=UNDERLINE
* 'BANK-CODE-DESC-4062-TA26'
ZFLD016  DFHMDF POS=(11,17),LENGTH=0035,ATTRB=(PROT,ASKIP),            X
               COLOR=TURQUOISE,HILIGHT=OFF
         DFHMDF POS=(11,53),LENGTH=0,ATTRB=(ASKIP,NORM)
         DFHMDF POS=(13,01),LENGTH=0003,ATTRB=(PROT,ASKIP),            X
               INITIAL='COA',COLOR=BLUE,HILIGHT=OFF
         DFHMDF POS=(13,07),LENGTH=0005,ATTRB=(PROT,ASKIP),            X
               INITIAL='INDEX',COLOR=BLUE,HILIGHT=OFF
         DFHMDF POS=(13,17),LENGTH=0004,ATTRB=(PROT,ASKIP),            X
               INITIAL='FUND',COLOR=BLUE,HILIGHT=OFF
         DFHMDF POS=(13,24),LENGTH=0003,ATTRB=(PROT,ASKIP),            X
               INITIAL='ORG',COLOR=BLUE,HILIGHT=OFF
         DFHMDF POS=(13,31),LENGTH=0004,ATTRB=(PROT,ASKIP),            X
               INITIAL='ACCT',COLOR=BLUE,HILIGHT=OFF
         DFHMDF POS=(13,38),LENGTH=0004,ATTRB=(PROT,ASKIP),            X
               INITIAL='PROG',COLOR=BLUE,HILIGHT=OFF
         DFHMDF POS=(13,45),LENGTH=0003,ATTRB=(PROT,ASKIP),            X
               INITIAL='ACT',COLOR=BLUE,HILIGHT=OFF
         DFHMDF POS=(13,53),LENGTH=0003,ATTRB=(PROT,ASKIP),            X
               INITIAL='LOC',COLOR=BLUE,HILIGHT=OFF
* 'COA-CODE-4000-TA26'
ZFLD017  DFHMDF POS=(14,02),LENGTH=0001,ATTRB=(UNPROT),COLOR=DEFAULT,  X
               HILIGHT=UNDERLINE
         DFHMDF POS=(14,04),LENGTH=0,ATTRB=(ASKIP,NORM)
* 'ACCT-INDX-CODE-4415-TA26'
ZFLD018  DFHMDF POS=(14,05),LENGTH=0010,ATTRB=(UNPROT),COLOR=DEFAULT,  X
               HILIGHT=UNDERLINE
* 'FUND-CODE-4415-TA26'
ZFLD019  DFHMDF POS=(14,16),LENGTH=0006,ATTRB=(UNPROT),COLOR=DEFAULT,  X
               HILIGHT=UNDERLINE
* 'ORGZN-CODE-4415-TA26'
ZFLD020  DFHMDF POS=(14,23),LENGTH=0006,ATTRB=(UNPROT),COLOR=DEFAULT,  X
               HILIGHT=UNDERLINE
* 'ACCT-CODE-4415-TA26'
ZFLD021  DFHMDF POS=(14,30),LENGTH=0006,ATTRB=(UNPROT),COLOR=DEFAULT,  X
               HILIGHT=UNDERLINE
* 'PRGRM-CODE-4415-TA26'
ZFLD022  DFHMDF POS=(14,37),LENGTH=0006,ATTRB=(UNPROT),COLOR=DEFAULT,  X
               HILIGHT=UNDERLINE
* 'ACTVY-CODE-4415-TA26'
ZFLD023  DFHMDF POS=(14,44),LENGTH=0006,ATTRB=(UNPROT),COLOR=DEFAULT,  X
               HILIGHT=UNDERLINE
         DFHMDF POS=(14,51),LENGTH=0,ATTRB=(ASKIP,NORM)
* 'LCTN-CODE-4415-TA26'
ZFLD024  DFHMDF POS=(14,52),LENGTH=0006,ATTRB=(UNPROT),COLOR=DEFAULT,  X
               HILIGHT=UNDERLINE
         DFHMDF POS=(14,59),LENGTH=0,ATTRB=(ASKIP,NORM)
         DFHMDF POS=(16,01),LENGTH=0065,ATTRB=(PROT,ASKIP),            X
               INITIAL='**--------------------- PROCESSING OPTIONS ----X
               ----------------**',COLOR=BLUE,HILIGHT=OFF
         DFHMDF POS=(17,01),LENGTH=0028,ATTRB=(PROT,ASKIP),            X
               INITIAL='IMMEDIATE CHECK TO TRAVELER:',COLOR=BLUE,      X
               HILIGHT=OFF
* 'IMMDT-CHECK-IND-4415-TA26'
ZFLD025  DFHMDF POS=(17,30),LENGTH=0001,ATTRB=(UNPROT),COLOR=DEFAULT,  X
               HILIGHT=UNDERLINE
         DFHMDF POS=(17,32),LENGTH=0,ATTRB=(ASKIP,NORM)
         DFHMDF POS=(17,36),LENGTH=0022,ATTRB=(PROT,ASKIP),            X
               INITIAL='TRAVELER PAID BALANCE:',COLOR=BLUE,            X
               HILIGHT=OFF
* 'PAID-BAL-IND-4415-TA26'
ZFLD026  DFHMDF POS=(17,65),LENGTH=0001,ATTRB=(UNPROT),COLOR=DEFAULT,  X
               HILIGHT=UNDERLINE
         DFHMDF POS=(17,67),LENGTH=0,ATTRB=(ASKIP,NORM)
         DFHMDF POS=(18,01),LENGTH=0024,ATTRB=(PROT,ASKIP),            X
               INITIAL='BATCH CHECK TO TRAVELER:',COLOR=BLUE,          X
               HILIGHT=OFF
* 'BATCH-CHECK-IND-4415-TA26'
ZFLD027  DFHMDF POS=(18,30),LENGTH=0001,ATTRB=(UNPROT),COLOR=DEFAULT,  X
               HILIGHT=UNDERLINE
         DFHMDF POS=(18,32),LENGTH=0,ATTRB=(ASKIP,NORM)
         DFHMDF POS=(18,36),LENGTH=0020,ATTRB=(PROT,ASKIP),            X
               INITIAL='ACCOUNT IS BALANCED:',COLOR=BLUE,HILIGHT=OFF
* 'BLNCD-IND-4415-TA26'
ZFLD028  DFHMDF POS=(18,65),LENGTH=0001,ATTRB=(UNPROT),COLOR=DEFAULT,  X
               HILIGHT=UNDERLINE
         DFHMDF POS=(18,67),LENGTH=0,ATTRB=(ASKIP,NORM)
         DFHMDF POS=(19,01),LENGTH=0025,ATTRB=(PROT,ASKIP),            X
               INITIAL='MANUAL CHECK TO TRAVELER:',COLOR=BLUE,         X
               HILIGHT=OFF
* 'MNL-CHECK-IND-4415-TA26'
ZFLD029  DFHMDF POS=(19,30),LENGTH=0001,ATTRB=(UNPROT),COLOR=DEFAULT,  X
               HILIGHT=UNDERLINE
         DFHMDF POS=(19,32),LENGTH=0,ATTRB=(ASKIP,NORM)
* 'DCLINK-MESSAGE'
ZFLD030  DFHMDF POS=(21,80),LENGTH=0160,ATTRB=(PROT,BRT),              X
               COLOR=DEFAULT,HILIGHT=OFF
         DFHMDF POS=(24,01),LENGTH=0012,ATTRB=(PROT,ASKIP,NUM),        X
               INITIAL='NEXT SCREEN:',COLOR=BLUE,HILIGHT=OFF
* 'AGR-PASSED-ONE'
ZFLD031  DFHMDF POS=(24,14),LENGTH=0030,ATTRB=(UNPROT),COLOR=DEFAULT,  X
               HILIGHT=UNDERLINE
         DFHMDF POS=(24,45),LENGTH=0009,ATTRB=(PROT,ASKIP),            X
               INITIAL='RESPONSE:',COLOR=BLUE,HILIGHT=OFF
* 'AGR-MAP-RESPONSE'
ZFLD032  DFHMDF POS=(24,55),LENGTH=0008,ATTRB=(UNPROT),COLOR=DEFAULT,  X
               HILIGHT=UNDERLINE
         DFHMDF POS=(24,64),LENGTH=0,ATTRB=(ASKIP,NORM)
* 'ERROR-TEXT-SY00'
ZFLD033  DFHMDF POS=(24,65),LENGTH=0014,ATTRB=(PROT,DRK),              X
               COLOR=DEFAULT,HILIGHT=OFF
         DFHMSD TYPE=FINAL
         END
