FTAMU28  DFHMSD TYPE=MAP,LANG=COBOL,TERM=3270,MODE=INOUT,              X
               TIOAPFX=YES,MAPATTS=(COLOR,HILIGHT),                    X
               DSATTS=(COLOR,HILIGHT)
FTAMU28  DFHMDI SIZE=(24,80),LINE=1,COLUMN=1,CTRL=FREEKB,TIOAPFX=YES
         DFHMDF POS=(01,01),LENGTH=0007,ATTRB=(PROT,ASKIP),            X
               INITIAL='FTAMU28',COLOR=BLUE,HILIGHT=OFF
* 'FULL-NAME-6001-SY00'
ZFLD002  DFHMDF POS=(01,23),LENGTH=0035,ATTRB=(PROT),COLOR=BLUE,       X
               HILIGHT=OFF
         DFHMDF POS=(01,59),LENGTH=0,ATTRB=(ASKIP,NORM)
* 'AGR-DATE'
ZFLD003  DFHMDF POS=(01,64),LENGTH=0008,ATTRB=(PROT),COLOR=BLUE,       X
               HILIGHT=OFF
* 'WORK-HH-MM-TIME-SY00'
ZFLD004  DFHMDF POS=(01,73),LENGTH=0005,ATTRB=(PROT),COLOR=BLUE,       X
               HILIGHT=OFF
* 'AM-PM-FLAG-SY00'
ZFLD005  DFHMDF POS=(01,79),LENGTH=0001,ATTRB=(PROT),COLOR=BLUE,       X
               HILIGHT=OFF
* 'AGR-USER-ID'
ZFLD006  DFHMDF POS=(02,01),LENGTH=0008,ATTRB=(PROT),COLOR=BLUE,       X
               HILIGHT=OFF
         DFHMDF POS=(02,10),LENGTH=0,ATTRB=(ASKIP,NORM)
* 'CURR-RSPNS-ID-SY00'
ZFLD007  DFHMDF POS=(02,21),LENGTH=0008,ATTRB=(PROT,BRT),              X
               COLOR=DEFAULT,HILIGHT=OFF
         DFHMDF POS=(02,30),LENGTH=0001,ATTRB=(PROT,ASKIP,BRT),        X
               INITIAL=':',COLOR=DEFAULT,HILIGHT=OFF
* 'AGR-FUNC-DESCRIPTION'
ZFLD008  DFHMDF POS=(02,32),LENGTH=0028,ATTRB=(PROT,BRT),              X
               COLOR=DEFAULT,HILIGHT=OFF
         DFHMDF POS=(02,61),LENGTH=0,ATTRB=(ASKIP,NORM)
         DFHMDF POS=(04,01),LENGTH=0013,ATTRB=(PROT,ASKIP),            X
               INITIAL='ACTION (ACD):',COLOR=BLUE,HILIGHT=OFF
* 'ACTN-CODE-TA28'
ZFLD009  DFHMDF POS=(04,15),LENGTH=0001,ATTRB=(UNPROT,IC),             X
               COLOR=DEFAULT,HILIGHT=OFF
         DFHMDF POS=(04,17),LENGTH=0,ATTRB=(ASKIP,NORM)
* 'MSG-DESC-TA28'
ZFLD010  DFHMDF POS=(04,61),LENGTH=0017,ATTRB=(PROT),COLOR=TURQUOISE,  X
               HILIGHT=OFF
         DFHMDF POS=(04,79),LENGTH=0,ATTRB=(ASKIP,NORM)
         DFHMDF POS=(06,02),LENGTH=0010,ATTRB=(PROT,ASKIP),            X
               INITIAL='ACCOUNT #:',COLOR=BLUE,HILIGHT=OFF
* 'TRVL-ACCT-LAST-NINE-4400-TA28'
ZFLD011  DFHMDF POS=(06,13),LENGTH=0009,ATTRB=(UNPROT),COLOR=DEFAULT,  X
               HILIGHT=UNDERLINE
         DFHMDF POS=(06,23),LENGTH=0,ATTRB=(ASKIP,NORM)
* 'NAME-KEY-6117-6311-TA28'
ZFLD012  DFHMDF POS=(06,24),LENGTH=0035,ATTRB=(PROT),COLOR=TURQUOISE,  X
               HILIGHT=OFF
         DFHMDF POS=(06,60),LENGTH=0,ATTRB=(ASKIP,NORM)
         DFHMDF POS=(06,61),LENGTH=0009,ATTRB=(PROT,ASKIP),            X
               INITIAL='EMPLOYEE:',COLOR=BLUE,HILIGHT=OFF
* 'EMPLY-IND-TA28'
ZFLD013  DFHMDF POS=(06,71),LENGTH=0001,ATTRB=(PROT),COLOR=TURQUOISE,  X
               HILIGHT=OFF
         DFHMDF POS=(06,73),LENGTH=0,ATTRB=(ASKIP,NORM)
         DFHMDF POS=(07,04),LENGTH=0008,ATTRB=(PROT,ASKIP),            X
               INITIAL='EVENT #:',COLOR=BLUE,HILIGHT=OFF
* 'EVENT-NMBR-4401-TA28'
ZFLD014  DFHMDF POS=(07,13),LENGTH=0008,ATTRB=(UNPROT),COLOR=DEFAULT,  X
               HILIGHT=UNDERLINE
         DFHMDF POS=(07,22),LENGTH=0,ATTRB=(ASKIP,NORM)
         DFHMDF POS=(09,02),LENGTH=0017,ATTRB=(PROT,ASKIP),            X
               INITIAL='EVENT DESC      :',COLOR=BLUE,HILIGHT=OFF
* 'EVENT-DESC-4401-TA28'
ZFLD015  DFHMDF POS=(09,20),LENGTH=0035,ATTRB=(UNPROT),COLOR=DEFAULT,  X
               HILIGHT=UNDERLINE
         DFHMDF POS=(09,56),LENGTH=0,ATTRB=(ASKIP,NORM)
         DFHMDF POS=(09,63),LENGTH=0005,ATTRB=(PROT,ASKIP),            X
               INITIAL='TEXT:',COLOR=BLUE,HILIGHT=OFF
* 'TEXT-IND-TA28'
ZFLD016  DFHMDF POS=(09,69),LENGTH=0001,ATTRB=(PROT),COLOR=TURQUOISE,  X
               HILIGHT=OFF
         DFHMDF POS=(09,71),LENGTH=0,ATTRB=(ASKIP,NORM)
         DFHMDF POS=(10,02),LENGTH=0017,ATTRB=(PROT,ASKIP),            X
               INITIAL='EVENT START DATE:',COLOR=BLUE,HILIGHT=OFF
* 'START-DATE-4401-TA28'
ZFLD017  DFHMDF POS=(10,20),LENGTH=0008,ATTRB=(UNPROT),COLOR=DEFAULT,  X
               HILIGHT=UNDERLINE
         DFHMDF POS=(10,29),LENGTH=0,ATTRB=(ASKIP,NORM)
         DFHMDF POS=(10,61),LENGTH=0007,ATTRB=(PROT,ASKIP),            X
               INITIAL='STATUS:',COLOR=BLUE,HILIGHT=OFF
* 'EVENT-STATUS-TA28'
ZFLD018  DFHMDF POS=(10,69),LENGTH=0010,ATTRB=(PROT),COLOR=TURQUOISE,  X
               HILIGHT=OFF
         DFHMDF POS=(10,80),LENGTH=0,ATTRB=(ASKIP,NORM)
         DFHMDF POS=(11,02),LENGTH=0017,ATTRB=(PROT,ASKIP),            X
               INITIAL='EVENT END DATE  :',COLOR=BLUE,HILIGHT=OFF
* 'END-DATE-4401-TA28'
ZFLD019  DFHMDF POS=(11,20),LENGTH=0008,ATTRB=(UNPROT),COLOR=DEFAULT,  X
               HILIGHT=UNDERLINE
         DFHMDF POS=(11,29),LENGTH=0,ATTRB=(ASKIP,NORM)
         DFHMDF POS=(12,02),LENGTH=0017,ATTRB=(PROT,ASKIP),            X
               INITIAL='RECONCILE DATE  :',COLOR=BLUE,HILIGHT=OFF
* 'RCNCLTN-DUE-DATE-4401-TA28'
ZFLD020  DFHMDF POS=(12,20),LENGTH=0008,ATTRB=(UNPROT),COLOR=DEFAULT,  X
               HILIGHT=UNDERLINE
         DFHMDF POS=(12,29),LENGTH=0,ATTRB=(ASKIP,NORM)
         DFHMDF POS=(13,02),LENGTH=0024,ATTRB=(PROT,ASKIP),            X
               INITIAL='*DIRECT BILL INDICATORS*',COLOR=BLUE,          X
               HILIGHT=OFF
         DFHMDF POS=(14,02),LENGTH=0024,ATTRB=(PROT,ASKIP),            X
               INITIAL='AIR CAR HOTEL MEAL OTHER',COLOR=BLUE,          X
               HILIGHT=OFF
* 'AIR-DRCT-BILL-IND-4401-TA28'
ZFLD021  DFHMDF POS=(15,03),LENGTH=0001,ATTRB=(UNPROT),COLOR=DEFAULT,  X
               HILIGHT=UNDERLINE
         DFHMDF POS=(15,05),LENGTH=0,ATTRB=(ASKIP,NORM)
* 'CAR-DRCT-BILL-IND-4401-TA28'
ZFLD022  DFHMDF POS=(15,07),LENGTH=0001,ATTRB=(UNPROT),COLOR=DEFAULT,  X
               HILIGHT=UNDERLINE
         DFHMDF POS=(15,09),LENGTH=0,ATTRB=(ASKIP,NORM)
* 'HOTL-DRCT-BILL-IND-4401-TA28'
ZFLD023  DFHMDF POS=(15,12),LENGTH=0001,ATTRB=(UNPROT),COLOR=DEFAULT,  X
               HILIGHT=UNDERLINE
         DFHMDF POS=(15,14),LENGTH=0,ATTRB=(ASKIP,NORM)
* 'MEAL-DRCT-BILL-IND-4401-TA28'
ZFLD024  DFHMDF POS=(15,17),LENGTH=0001,ATTRB=(UNPROT),COLOR=DEFAULT,  X
               HILIGHT=UNDERLINE
         DFHMDF POS=(15,19),LENGTH=0,ATTRB=(ASKIP,NORM)
* 'OTHR-DRCT-BILL-IND-4401-TA28'
ZFLD025  DFHMDF POS=(15,23),LENGTH=0001,ATTRB=(UNPROT),COLOR=DEFAULT,  X
               HILIGHT=UNDERLINE
         DFHMDF POS=(15,25),LENGTH=0,ATTRB=(ASKIP,NORM)
         DFHMDF POS=(17,02),LENGTH=0019,ATTRB=(PROT,ASKIP),            X
               INITIAL='ESTIMATED EXPENSES:',COLOR=BLUE,HILIGHT=OFF
* 'ESTMD-EXPNS-AMT-4401-TA28'
ZFLD026  DFHMDF POS=(17,22),LENGTH=0017,ATTRB=(PROT),COLOR=TURQUOISE,  X
               HILIGHT=OFF
         DFHMDF POS=(17,40),LENGTH=0,ATTRB=(ASKIP,NORM)
         DFHMDF POS=(17,43),LENGTH=0024,ATTRB=(PROT,ASKIP),            X
               INITIAL='AMOUNT DUE FROM ACCOUNT:',COLOR=BLUE,          X
               HILIGHT=OFF
* 'AMT-OWED-TA28'
ZFLD027  DFHMDF POS=(17,68),LENGTH=0010,ATTRB=(PROT),COLOR=TURQUOISE,  X
               HILIGHT=OFF
         DFHMDF POS=(17,79),LENGTH=0,ATTRB=(ASKIP,NORM)
         DFHMDF POS=(18,02),LENGTH=0019,ATTRB=(PROT,ASKIP),            X
               INITIAL='    TOTAL ADVANCES:',COLOR=BLUE,HILIGHT=OFF
* 'TOTL-ADVNC-AMT-4401-TA28'
ZFLD028  DFHMDF POS=(18,22),LENGTH=0017,ATTRB=(PROT),COLOR=TURQUOISE,  X
               HILIGHT=OFF
         DFHMDF POS=(18,40),LENGTH=0,ATTRB=(ASKIP,NORM)
         DFHMDF POS=(18,43),LENGTH=0024,ATTRB=(PROT,ASKIP),            X
               INITIAL=' AMOUNT OWED TO ACCOUNT:',COLOR=BLUE,          X
               HILIGHT=OFF
* 'AMT-DUE-TA28'
ZFLD029  DFHMDF POS=(18,68),LENGTH=0010,ATTRB=(PROT),COLOR=TURQUOISE,  X
               HILIGHT=OFF
         DFHMDF POS=(18,79),LENGTH=0,ATTRB=(ASKIP,NORM)
         DFHMDF POS=(19,02),LENGTH=0019,ATTRB=(PROT,ASKIP),            X
               INITIAL='TOTAL DIRECT BILLS:',COLOR=BLUE,HILIGHT=OFF
* 'DRCT-BILL-AMT-4401-TA28'
ZFLD030  DFHMDF POS=(19,22),LENGTH=0017,ATTRB=(PROT),COLOR=TURQUOISE,  X
               HILIGHT=OFF
         DFHMDF POS=(19,40),LENGTH=0,ATTRB=(ASKIP,NORM)
         DFHMDF POS=(20,02),LENGTH=0019,ATTRB=(PROT,ASKIP),            X
               INITIAL='    TOTAL EXPENSES:',COLOR=BLUE,HILIGHT=OFF
* 'TOTL-EXPNS-AMT-4401-TA28'
ZFLD031  DFHMDF POS=(20,22),LENGTH=0017,ATTRB=(PROT),COLOR=TURQUOISE,  X
               HILIGHT=OFF
         DFHMDF POS=(20,40),LENGTH=0,ATTRB=(ASKIP,NORM)
* 'DCLINK-MESSAGE'
ZFLD032  DFHMDF POS=(21,80),LENGTH=0160,ATTRB=(PROT,BRT),              X
               COLOR=DEFAULT,HILIGHT=OFF
         DFHMDF POS=(24,01),LENGTH=0012,ATTRB=(PROT,ASKIP,NUM),        X
               INITIAL='NEXT SCREEN:',COLOR=BLUE,HILIGHT=OFF
* 'AGR-PASSED-ONE'
ZFLD033  DFHMDF POS=(24,14),LENGTH=0030,ATTRB=(UNPROT),COLOR=DEFAULT,  X
               HILIGHT=UNDERLINE
         DFHMDF POS=(24,45),LENGTH=0009,ATTRB=(PROT,ASKIP),            X
               INITIAL='RESPONSE:',COLOR=BLUE,HILIGHT=OFF
* 'AGR-MAP-RESPONSE'
ZFLD034  DFHMDF POS=(24,55),LENGTH=0008,ATTRB=(UNPROT),COLOR=DEFAULT,  X
               HILIGHT=UNDERLINE
         DFHMDF POS=(24,64),LENGTH=0,ATTRB=(ASKIP,NORM)
* 'ERROR-TEXT-SY00'
ZFLD035  DFHMDF POS=(24,65),LENGTH=0014,ATTRB=(PROT,DRK),              X
               COLOR=DEFAULT,HILIGHT=OFF
         DFHMSD TYPE=FINAL
         END
