FTAMU07  DFHMSD TYPE=MAP,LANG=COBOL,TERM=3270,MODE=INOUT,              X
               TIOAPFX=YES,MAPATTS=(COLOR,HILIGHT),                    X
               DSATTS=(COLOR,HILIGHT)
FTAMU07  DFHMDI SIZE=(24,80),LINE=1,COLUMN=1,CTRL=FREEKB,TIOAPFX=YES
         DFHMDF POS=(01,01),LENGTH=0007,ATTRB=(PROT,ASKIP),            X
               INITIAL='FTAMU07',COLOR=BLUE,HILIGHT=OFF
* 'TRMNL-ID-SY00'
ZFLD002  DFHMDF POS=(01,10),LENGTH=0008,ATTRB=(PROT),COLOR=BLUE,       X
               HILIGHT=OFF
         DFHMDF POS=(01,19),LENGTH=0,ATTRB=(ASKIP,NORM)
* 'FULL-NAME-6001-SY00'
ZFLD003  DFHMDF POS=(01,23),LENGTH=0035,ATTRB=(PROT),COLOR=BLUE,       X
               HILIGHT=OFF
         DFHMDF POS=(01,59),LENGTH=0,ATTRB=(ASKIP,NORM)
* 'AGR-DATE'
ZFLD004  DFHMDF POS=(01,64),LENGTH=0008,ATTRB=(PROT),COLOR=BLUE,       X
               HILIGHT=OFF
* 'WORK-HH-MM-TIME-SY00'
ZFLD005  DFHMDF POS=(01,73),LENGTH=0005,ATTRB=(PROT),COLOR=BLUE,       X
               HILIGHT=OFF
* 'AM-PM-FLAG-SY00'
ZFLD006  DFHMDF POS=(01,79),LENGTH=0001,ATTRB=(PROT),COLOR=BLUE,       X
               HILIGHT=OFF
* 'AGR-USER-ID'
ZFLD007  DFHMDF POS=(02,01),LENGTH=0008,ATTRB=(PROT),COLOR=BLUE,       X
               HILIGHT=OFF
         DFHMDF POS=(02,10),LENGTH=0,ATTRB=(ASKIP,NORM)
* 'CURR-RSPNS-ID-SY00'
ZFLD008  DFHMDF POS=(02,21),LENGTH=0008,ATTRB=(PROT,BRT),              X
               COLOR=DEFAULT,HILIGHT=OFF
         DFHMDF POS=(02,30),LENGTH=0001,ATTRB=(PROT,ASKIP,BRT),        X
               INITIAL=':',COLOR=DEFAULT,HILIGHT=OFF
* 'AGR-FUNC-DESCRIPTION'
ZFLD009  DFHMDF POS=(02,32),LENGTH=0028,ATTRB=(PROT,BRT),              X
               COLOR=DEFAULT,HILIGHT=OFF
         DFHMDF POS=(02,61),LENGTH=0,ATTRB=(ASKIP,NORM)
* 'PAGE-STATUS-CODE-SY00'
ZFLD010  DFHMDF POS=(02,64),LENGTH=0010,ATTRB=(PROT,BRT),              X
               COLOR=DEFAULT,HILIGHT=OFF
         DFHMDF POS=(02,75),LENGTH=0,ATTRB=(ASKIP,NORM)
* 'DCSD-TEXT-SY01'
ZFLD011  DFHMDF POS=(03,52),LENGTH=0008,ATTRB=(PROT,DRK),              X
               COLOR=DEFAULT,HILIGHT=OFF
         DFHMDF POS=(03,61),LENGTH=0,ATTRB=(ASKIP,NORM)
* 'CNFDL-TEXT-SY01'
ZFLD012  DFHMDF POS=(03,62),LENGTH=0011,ATTRB=(PROT,DRK),              X
               COLOR=DEFAULT,HILIGHT=OFF
         DFHMDF POS=(03,74),LENGTH=0,ATTRB=(ASKIP,NORM)
* 'HOLDS-TEXT-SY01'
ZFLD013  DFHMDF POS=(03,75),LENGTH=0005,ATTRB=(PROT,DRK),              X
               COLOR=DEFAULT,HILIGHT=OFF
         DFHMDF POS=(04,01),LENGTH=0012,ATTRB=(PROT,ASKIP),            X
               INITIAL='ACTION (AC):',COLOR=BLUE,HILIGHT=OFF
* 'ACTN-CODE-TA07'
ZFLD014  DFHMDF POS=(04,14),LENGTH=0001,ATTRB=(UNPROT,IC),             X
               COLOR=DEFAULT,HILIGHT=OFF
         DFHMDF POS=(04,16),LENGTH=0,ATTRB=(ASKIP,NORM)
* 'MSG-DESC-TA07'
ZFLD015  DFHMDF POS=(04,62),LENGTH=0017,ATTRB=(PROT),COLOR=TURQUOISE,  X
               HILIGHT=OFF
         DFHMDF POS=(04,80),LENGTH=0,ATTRB=(ASKIP,NORM)
         DFHMDF POS=(06,01),LENGTH=0010,ATTRB=(PROT,ASKIP),            X
               INITIAL='ACCOUNT #:',COLOR=BLUE,HILIGHT=OFF
* 'TRVL-ACCT-LAST-NINE-4400-TA07'
ZFLD016  DFHMDF POS=(06,12),LENGTH=0009,ATTRB=(UNPROT),COLOR=DEFAULT,  X
               HILIGHT=UNDERLINE
         DFHMDF POS=(06,22),LENGTH=0,ATTRB=(ASKIP,NORM)
* 'NAME-KEY-6117-TA07'
ZFLD017  DFHMDF POS=(06,23),LENGTH=0035,ATTRB=(PROT),COLOR=TURQUOISE,  X
               HILIGHT=OFF
         DFHMDF POS=(06,59),LENGTH=0,ATTRB=(ASKIP,NORM)
         DFHMDF POS=(06,62),LENGTH=0009,ATTRB=(PROT,ASKIP),            X
               INITIAL='EMPLOYEE:',COLOR=BLUE,HILIGHT=OFF
* 'EMPLY-IND-4400-TA07'
ZFLD018  DFHMDF POS=(06,72),LENGTH=0001,ATTRB=(PROT),COLOR=TURQUOISE,  X
               HILIGHT=OFF
         DFHMDF POS=(06,74),LENGTH=0,ATTRB=(ASKIP,NORM)
         DFHMDF POS=(07,01),LENGTH=0010,ATTRB=(PROT,ASKIP),            X
               INITIAL='EXPENSE #:',COLOR=BLUE,HILIGHT=OFF
* 'EXPNS-NMBR-4405-TA07'
ZFLD019  DFHMDF POS=(07,12),LENGTH=0008,ATTRB=(UNPROT),COLOR=DEFAULT,  X
               HILIGHT=UNDERLINE
         DFHMDF POS=(07,21),LENGTH=0,ATTRB=(ASKIP,NORM)
* 'DELETE-LIT-TA07'
ZFLD020  DFHMDF POS=(07,62),LENGTH=0008,ATTRB=(PROT,DRK),COLOR=BLUE,   X
               HILIGHT=OFF
         DFHMDF POS=(07,71),LENGTH=0,ATTRB=(ASKIP,NORM)
* 'CONFIRM-DELETE-TA07'
ZFLD021  DFHMDF POS=(07,72),LENGTH=0001,ATTRB=(PROT,DRK),              X
               COLOR=DEFAULT,HILIGHT=UNDERLINE
         DFHMDF POS=(07,74),LENGTH=0,ATTRB=(ASKIP,NORM)
         DFHMDF POS=(09,17),LENGTH=0008,ATTRB=(PROT,ASKIP),            X
               INITIAL='EVENT #:',COLOR=BLUE,HILIGHT=OFF
* 'EVENT-NMBR-4401-TA07'
ZFLD022  DFHMDF POS=(09,26),LENGTH=0008,ATTRB=(UNPROT),COLOR=DEFAULT,  X
               HILIGHT=UNDERLINE
         DFHMDF POS=(09,35),LENGTH=0,ATTRB=(ASKIP,NORM)
* 'EVENT-DESC-4401-TA07'
ZFLD023  DFHMDF POS=(09,36),LENGTH=0035,ATTRB=(UNPROT),COLOR=DEFAULT,  X
               HILIGHT=UNDERLINE
         DFHMDF POS=(09,72),LENGTH=0,ATTRB=(ASKIP,NORM)
         DFHMDF POS=(10,10),LENGTH=0015,ATTRB=(PROT,ASKIP),            X
               INITIAL='   EVENT START:',COLOR=BLUE,HILIGHT=OFF
* 'START-DATE-TA07'
ZFLD024  DFHMDF POS=(10,26),LENGTH=0008,ATTRB=(UNPROT),COLOR=DEFAULT,  X
               HILIGHT=UNDERLINE
         DFHMDF POS=(10,35),LENGTH=0,ATTRB=(ASKIP,NORM)
         DFHMDF POS=(10,36),LENGTH=0010,ATTRB=(PROT,ASKIP),            X
               INITIAL='EVENT END:',COLOR=BLUE,HILIGHT=OFF
* 'END-DATE-TA07'
ZFLD025  DFHMDF POS=(10,47),LENGTH=0008,ATTRB=(UNPROT),COLOR=DEFAULT,  X
               HILIGHT=UNDERLINE
         DFHMDF POS=(10,56),LENGTH=0,ATTRB=(ASKIP,NORM)
         DFHMDF POS=(10,57),LENGTH=0014,ATTRB=(PROT,ASKIP),            X
               INITIAL='RECONCILE DUE:',COLOR=BLUE,HILIGHT=OFF
* 'RCNCLTN-DUE-DATE-4401-TA07'
ZFLD026  DFHMDF POS=(10,72),LENGTH=0008,ATTRB=(UNPROT),COLOR=DEFAULT,  X
               HILIGHT=UNDERLINE
         DFHMDF POS=(11,01),LENGTH=0,ATTRB=(ASKIP,NORM)
         DFHMDF POS=(11,10),LENGTH=0015,ATTRB=(PROT,ASKIP),            X
               INITIAL='ESTMD EXPENSES:',COLOR=BLUE,HILIGHT=OFF
* 'ESTMD-EXPNS-AMT-4401-TA07'
ZFLD027  DFHMDF POS=(11,26),LENGTH=0017,ATTRB=(PROT),COLOR=TURQUOISE,  X
               HILIGHT=OFF
         DFHMDF POS=(11,44),LENGTH=0,ATTRB=(ASKIP,NORM)
         DFHMDF POS=(11,47),LENGTH=0024,ATTRB=(PROT,ASKIP),            X
               INITIAL='*DIRECT BILL INDICATORS*',COLOR=BLUE,          X
               HILIGHT=OFF
         DFHMDF POS=(12,16),LENGTH=0009,ATTRB=(PROT,ASKIP),            X
               INITIAL='ADVANCES:',COLOR=BLUE,HILIGHT=OFF
* 'TOTL-ADVNC-AMT-4401-TA07'
ZFLD028  DFHMDF POS=(12,26),LENGTH=0017,ATTRB=(PROT),COLOR=TURQUOISE,  X
               HILIGHT=OFF
         DFHMDF POS=(12,44),LENGTH=0,ATTRB=(ASKIP,NORM)
         DFHMDF POS=(12,47),LENGTH=0024,ATTRB=(PROT,ASKIP),            X
               INITIAL='AIR CAR HOTEL MEAL OTHER',COLOR=BLUE,          X
               HILIGHT=OFF
         DFHMDF POS=(13,13),LENGTH=0012,ATTRB=(PROT,ASKIP),            X
               INITIAL='DIRECT BILL:',COLOR=BLUE,HILIGHT=OFF
* 'DRCT-BILL-AMT-4401-TA07'
ZFLD029  DFHMDF POS=(13,26),LENGTH=0017,ATTRB=(PROT),COLOR=TURQUOISE,  X
               HILIGHT=OFF
         DFHMDF POS=(13,44),LENGTH=0,ATTRB=(ASKIP,NORM)
* 'AIR-DRCT-BILL-IND-4401-TA07'
ZFLD030  DFHMDF POS=(13,48),LENGTH=0001,ATTRB=(UNPROT),COLOR=DEFAULT,  X
               HILIGHT=UNDERLINE
         DFHMDF POS=(13,50),LENGTH=0,ATTRB=(ASKIP,NORM)
* 'CAR-DRCT-BILL-IND-4401-TA07'
ZFLD031  DFHMDF POS=(13,52),LENGTH=0001,ATTRB=(UNPROT),COLOR=DEFAULT,  X
               HILIGHT=UNDERLINE
         DFHMDF POS=(13,54),LENGTH=0,ATTRB=(ASKIP,NORM)
* 'HOTL-DRCT-BILL-IND-4401-TA07'
ZFLD032  DFHMDF POS=(13,57),LENGTH=0001,ATTRB=(UNPROT),COLOR=DEFAULT,  X
               HILIGHT=UNDERLINE
         DFHMDF POS=(13,59),LENGTH=0,ATTRB=(ASKIP,NORM)
* 'MEAL-DRCT-BILL-IND-4401-TA07'
ZFLD033  DFHMDF POS=(13,62),LENGTH=0001,ATTRB=(UNPROT),COLOR=DEFAULT,  X
               HILIGHT=UNDERLINE
         DFHMDF POS=(13,64),LENGTH=0,ATTRB=(ASKIP,NORM)
* 'OTHR-DRCT-BILL-IND-4401-TA07'
ZFLD034  DFHMDF POS=(13,68),LENGTH=0001,ATTRB=(UNPROT),COLOR=DEFAULT,  X
               HILIGHT=UNDERLINE
         DFHMDF POS=(13,70),LENGTH=0,ATTRB=(ASKIP,NORM)
         DFHMDF POS=(14,06),LENGTH=0019,ATTRB=(PROT,ASKIP),            X
               INITIAL='TOTAL ALL EXPENSES:',COLOR=BLUE,HILIGHT=OFF
* 'TOTL-EXPNS-AMT-4401-TA07'
ZFLD035  DFHMDF POS=(14,26),LENGTH=0017,ATTRB=(PROT),COLOR=TURQUOISE,  X
               HILIGHT=OFF
         DFHMDF POS=(14,44),LENGTH=0,ATTRB=(ASKIP,NORM)
         DFHMDF POS=(14,47),LENGTH=0009,ATTRB=(PROT,ASKIP),            X
               INITIAL='COMPLETE:',COLOR=BLUE,HILIGHT=OFF
* 'CMPLT-IND-4405-TA07'
ZFLD036  DFHMDF POS=(14,57),LENGTH=0001,ATTRB=(UNPROT),COLOR=DEFAULT,  X
               HILIGHT=UNDERLINE
         DFHMDF POS=(14,59),LENGTH=0,ATTRB=(ASKIP,NORM)
         DFHMDF POS=(15,01),LENGTH=0024,ATTRB=(PROT,ASKIP),            X
               INITIAL='AMOUNT DUE FROM ACCOUNT:',COLOR=BLUE,          X
               HILIGHT=OFF
* 'AMT-DUE-TA07'
ZFLD037  DFHMDF POS=(15,26),LENGTH=0017,ATTRB=(PROT),COLOR=TURQUOISE,  X
               HILIGHT=OFF
         DFHMDF POS=(15,44),LENGTH=0,ATTRB=(ASKIP,NORM)
         DFHMDF POS=(15,47),LENGTH=0009,ATTRB=(PROT,ASKIP),            X
               INITIAL='APPROVAL:',COLOR=BLUE,HILIGHT=OFF
* 'APRVL-IND-4405-TA07'
ZFLD038  DFHMDF POS=(15,57),LENGTH=0001,ATTRB=(UNPROT),COLOR=DEFAULT,  X
               HILIGHT=UNDERLINE
         DFHMDF POS=(15,59),LENGTH=0,ATTRB=(ASKIP,NORM)
         DFHMDF POS=(15,60),LENGTH=0009,ATTRB=(PROT,ASKIP),            X
               INITIAL='TEMPLATE:',COLOR=BLUE,HILIGHT=OFF
* 'APRVL-TMPLT-CODE-TA07'
ZFLD039  DFHMDF POS=(15,70),LENGTH=0003,ATTRB=(UNPROT),COLOR=DEFAULT,  X
               HILIGHT=UNDERLINE
         DFHMDF POS=(15,74),LENGTH=0,ATTRB=(ASKIP,NORM)
         DFHMDF POS=(16,02),LENGTH=0023,ATTRB=(PROT,ASKIP),            X
               INITIAL='AMOUNT OWED TO ACCOUNT:',COLOR=BLUE,           X
               HILIGHT=OFF
* 'AMT-OWED-TA07'
ZFLD040  DFHMDF POS=(16,26),LENGTH=0017,ATTRB=(PROT),COLOR=TURQUOISE,  X
               HILIGHT=OFF
         DFHMDF POS=(16,44),LENGTH=0,ATTRB=(ASKIP,NORM)
         DFHMDF POS=(16,49),LENGTH=0007,ATTRB=(PROT,ASKIP),            X
               INITIAL='CANCEL:',COLOR=BLUE,HILIGHT=OFF
* 'CNCL-IND-4405-TA07'
ZFLD041  DFHMDF POS=(16,57),LENGTH=0001,ATTRB=(UNPROT),COLOR=DEFAULT,  X
               HILIGHT=UNDERLINE
         DFHMDF POS=(16,59),LENGTH=0,ATTRB=(ASKIP,NORM)
         DFHMDF POS=(16,60),LENGTH=0009,ATTRB=(PROT,ASKIP),            X
               INITIAL='CNCL DT :',COLOR=BLUE,HILIGHT=OFF
* 'CNCL-DATE-4405-TA07'
ZFLD042  DFHMDF POS=(16,70),LENGTH=0008,ATTRB=(PROT),COLOR=TURQUOISE,  X
               HILIGHT=OFF
         DFHMDF POS=(16,79),LENGTH=0,ATTRB=(ASKIP,NORM)
         DFHMDF POS=(18,05),LENGTH=0020,ATTRB=(PROT,ASKIP),            X
               INITIAL='TOTAL FOR EXPENSE #:',COLOR=BLUE,HILIGHT=OFF
* 'EXPNS-AMT-4405-TA07'
ZFLD043  DFHMDF POS=(18,26),LENGTH=0011,ATTRB=(UNPROT),COLOR=DEFAULT,  X
               HILIGHT=UNDERLINE
         DFHMDF POS=(18,38),LENGTH=0,ATTRB=(ASKIP,NORM)
         DFHMDF POS=(18,62),LENGTH=0006,ATTRB=(PROT,ASKIP),            X
               INITIAL='ERROR:',COLOR=BLUE,HILIGHT=OFF
* 'HDR-ERROR-IND-4405-TA07'
ZFLD044  DFHMDF POS=(18,69),LENGTH=0001,ATTRB=(PROT),COLOR=TURQUOISE,  X
               HILIGHT=OFF
         DFHMDF POS=(18,71),LENGTH=0,ATTRB=(ASKIP,NORM)
         DFHMDF POS=(19,03),LENGTH=0022,ATTRB=(PROT,ASKIP),            X
               INITIAL='EXPENSE RECEIVED DATE:',COLOR=BLUE,            X
               HILIGHT=OFF
* 'EXPNS-DATE-4405-TA07'
ZFLD045  DFHMDF POS=(19,26),LENGTH=0008,ATTRB=(UNPROT),COLOR=DEFAULT,  X
               HILIGHT=UNDERLINE
         DFHMDF POS=(19,35),LENGTH=0,ATTRB=(ASKIP,NORM)
         DFHMDF POS=(19,57),LENGTH=0011,ATTRB=(PROT,ASKIP),            X
               INITIAL='DTL ERRORS:',COLOR=BLUE,HILIGHT=OFF
* 'HDR-CNTR-DTL-4405-TA07'
ZFLD046  DFHMDF POS=(19,69),LENGTH=0004,ATTRB=(PROT),COLOR=TURQUOISE,  X
               HILIGHT=OFF
         DFHMDF POS=(19,74),LENGTH=0,ATTRB=(ASKIP,NORM)
         DFHMDF POS=(20,63),LENGTH=0005,ATTRB=(PROT,ASKIP),            X
               INITIAL='TEXT:',COLOR=BLUE,HILIGHT=OFF
* 'TEXT-IND-TA07'
ZFLD047  DFHMDF POS=(20,69),LENGTH=0001,ATTRB=(PROT),COLOR=TURQUOISE,  X
               HILIGHT=OFF
         DFHMDF POS=(20,71),LENGTH=0,ATTRB=(ASKIP,NORM)
* 'DCLINK-MESSAGE'
ZFLD048  DFHMDF POS=(21,80),LENGTH=0160,ATTRB=(PROT,BRT),              X
               COLOR=DEFAULT,HILIGHT=OFF
         DFHMDF POS=(24,01),LENGTH=0012,ATTRB=(PROT,ASKIP,NUM),        X
               INITIAL='NEXT SCREEN:',COLOR=BLUE,HILIGHT=OFF
* 'AGR-PASSED-ONE'
ZFLD049  DFHMDF POS=(24,14),LENGTH=0030,ATTRB=(UNPROT),COLOR=DEFAULT,  X
               HILIGHT=UNDERLINE
         DFHMDF POS=(24,45),LENGTH=0009,ATTRB=(PROT,ASKIP),            X
               INITIAL='RESPONSE:',COLOR=BLUE,HILIGHT=OFF
* 'AGR-MAP-RESPONSE'
ZFLD050  DFHMDF POS=(24,55),LENGTH=0008,ATTRB=(UNPROT),COLOR=DEFAULT,  X
               HILIGHT=UNDERLINE
         DFHMDF POS=(24,64),LENGTH=0,ATTRB=(ASKIP,NORM)
* 'ERROR-TEXT-SY00'
ZFLD051  DFHMDF POS=(24,65),LENGTH=0014,ATTRB=(PROT,DRK),              X
               COLOR=DEFAULT,HILIGHT=OFF
         DFHMSD TYPE=FINAL
         END
