FTAMU11  DFHMSD TYPE=MAP,LANG=COBOL,TERM=3270,MODE=INOUT,              X
               TIOAPFX=YES,MAPATTS=(COLOR,HILIGHT),                    X
               DSATTS=(COLOR,HILIGHT)
FTAMU11  DFHMDI SIZE=(24,80),LINE=1,COLUMN=1,CTRL=FREEKB,TIOAPFX=YES
         DFHMDF POS=(01,01),LENGTH=0007,ATTRB=(PROT,ASKIP),            X
               INITIAL='FTAMU11',COLOR=BLUE,HILIGHT=OFF
* 'TRMNL-ID-SY00'
ZFLD002  DFHMDF POS=(01,10),LENGTH=0008,ATTRB=(PROT),COLOR=BLUE,       X
               HILIGHT=OFF
         DFHMDF POS=(01,19),LENGTH=0,ATTRB=(ASKIP,NORM)
* 'FULL-NAME-6001-SY00'
ZFLD003  DFHMDF POS=(01,23),LENGTH=0035,ATTRB=(PROT),COLOR=BLUE,       X
               HILIGHT=OFF
         DFHMDF POS=(01,59),LENGTH=0,ATTRB=(ASKIP,NORM)
* 'AGR-DATE'
ZFLD004  DFHMDF POS=(01,64),LENGTH=0008,ATTRB=(PROT),COLOR=BLUE,       X
               HILIGHT=OFF
* 'WORK-HH-MM-TIME-SY00'
ZFLD005  DFHMDF POS=(01,73),LENGTH=0005,ATTRB=(PROT),COLOR=BLUE,       X
               HILIGHT=OFF
* 'AM-PM-FLAG-SY00'
ZFLD006  DFHMDF POS=(01,79),LENGTH=0001,ATTRB=(PROT),COLOR=BLUE,       X
               HILIGHT=OFF
* 'AGR-USER-ID'
ZFLD007  DFHMDF POS=(02,01),LENGTH=0008,ATTRB=(PROT),COLOR=BLUE,       X
               HILIGHT=OFF
         DFHMDF POS=(02,10),LENGTH=0,ATTRB=(ASKIP,NORM)
* 'CURR-RSPNS-ID-SY00'
ZFLD008  DFHMDF POS=(02,21),LENGTH=0008,ATTRB=(PROT,BRT),              X
               COLOR=DEFAULT,HILIGHT=OFF
         DFHMDF POS=(02,30),LENGTH=0001,ATTRB=(PROT,ASKIP,BRT),        X
               INITIAL=':',COLOR=DEFAULT,HILIGHT=OFF
* 'AGR-FUNC-DESCRIPTION'
ZFLD009  DFHMDF POS=(02,32),LENGTH=0028,ATTRB=(PROT,BRT),              X
               COLOR=DEFAULT,HILIGHT=OFF
         DFHMDF POS=(02,61),LENGTH=0,ATTRB=(ASKIP,NORM)
* 'PAGE-STATUS-CODE-SY00'
ZFLD010  DFHMDF POS=(02,64),LENGTH=0010,ATTRB=(PROT,BRT),              X
               COLOR=DEFAULT,HILIGHT=OFF
         DFHMDF POS=(02,75),LENGTH=0,ATTRB=(ASKIP,NORM)
         DFHMDF POS=(04,01),LENGTH=0059,ATTRB=(PROT,ASKIP),            X
               INITIAL='ACTION      CREDIT CARD        SHORT       FULLX
                DESCRIPTION',COLOR=BLUE,HILIGHT=OFF
         DFHMDF POS=(05,01),LENGTH=0039,ATTRB=(PROT,ASKIP),            X
               INITIAL='(ACDR)         TYPE         DESCRIPTION',      X
               COLOR=BLUE,HILIGHT=OFF
* 'ACTN-CODE-TA11'
ZFLD011  DFHMDF POS=(07,03),LENGTH=0001,ATTRB=(UNPROT,IC),             X
               COLOR=DEFAULT,HILIGHT=OFF
         DFHMDF POS=(07,05),LENGTH=0,ATTRB=(ASKIP,NORM)
* 'CRDT-CARD-TYPE-4407-TA11'
ZFLD012  DFHMDF POS=(07,16),LENGTH=0004,ATTRB=(UNPROT),COLOR=DEFAULT,  X
               HILIGHT=UNDERLINE
         DFHMDF POS=(07,21),LENGTH=0,ATTRB=(ASKIP,NORM)
* 'SHORT-DESC-4407-TA11'
ZFLD013  DFHMDF POS=(07,29),LENGTH=0010,ATTRB=(UNPROT),COLOR=DEFAULT,  X
               HILIGHT=UNDERLINE
         DFHMDF POS=(07,40),LENGTH=0,ATTRB=(ASKIP,NORM)
* 'LONG-DESC-4407-TA11'
ZFLD014  DFHMDF POS=(07,44),LENGTH=0030,ATTRB=(UNPROT),COLOR=DEFAULT,  X
               HILIGHT=UNDERLINE
         DFHMDF POS=(07,75),LENGTH=0,ATTRB=(ASKIP,NORM)
* 'ACTN-CODE-TA11'
ZFLD015  DFHMDF POS=(08,03),LENGTH=0001,ATTRB=(UNPROT),COLOR=DEFAULT,  X
               HILIGHT=OFF
         DFHMDF POS=(08,05),LENGTH=0,ATTRB=(ASKIP,NORM)
* 'CRDT-CARD-TYPE-4407-TA11'
ZFLD016  DFHMDF POS=(08,16),LENGTH=0004,ATTRB=(UNPROT),COLOR=DEFAULT,  X
               HILIGHT=UNDERLINE
         DFHMDF POS=(08,21),LENGTH=0,ATTRB=(ASKIP,NORM)
* 'SHORT-DESC-4407-TA11'
ZFLD017  DFHMDF POS=(08,29),LENGTH=0010,ATTRB=(UNPROT),COLOR=DEFAULT,  X
               HILIGHT=UNDERLINE
         DFHMDF POS=(08,40),LENGTH=0,ATTRB=(ASKIP,NORM)
* 'LONG-DESC-4407-TA11'
ZFLD018  DFHMDF POS=(08,44),LENGTH=0030,ATTRB=(UNPROT),COLOR=DEFAULT,  X
               HILIGHT=UNDERLINE
         DFHMDF POS=(08,75),LENGTH=0,ATTRB=(ASKIP,NORM)
* 'ACTN-CODE-TA11'
ZFLD019  DFHMDF POS=(09,03),LENGTH=0001,ATTRB=(UNPROT),COLOR=DEFAULT,  X
               HILIGHT=OFF
         DFHMDF POS=(09,05),LENGTH=0,ATTRB=(ASKIP,NORM)
* 'CRDT-CARD-TYPE-4407-TA11'
ZFLD020  DFHMDF POS=(09,16),LENGTH=0004,ATTRB=(UNPROT),COLOR=DEFAULT,  X
               HILIGHT=UNDERLINE
         DFHMDF POS=(09,21),LENGTH=0,ATTRB=(ASKIP,NORM)
* 'SHORT-DESC-4407-TA11'
ZFLD021  DFHMDF POS=(09,29),LENGTH=0010,ATTRB=(UNPROT),COLOR=DEFAULT,  X
               HILIGHT=UNDERLINE
         DFHMDF POS=(09,40),LENGTH=0,ATTRB=(ASKIP,NORM)
* 'LONG-DESC-4407-TA11'
ZFLD022  DFHMDF POS=(09,44),LENGTH=0030,ATTRB=(UNPROT),COLOR=DEFAULT,  X
               HILIGHT=UNDERLINE
         DFHMDF POS=(09,75),LENGTH=0,ATTRB=(ASKIP,NORM)
* 'ACTN-CODE-TA11'
ZFLD023  DFHMDF POS=(10,03),LENGTH=0001,ATTRB=(UNPROT),COLOR=DEFAULT,  X
               HILIGHT=OFF
         DFHMDF POS=(10,05),LENGTH=0,ATTRB=(ASKIP,NORM)
* 'CRDT-CARD-TYPE-4407-TA11'
ZFLD024  DFHMDF POS=(10,16),LENGTH=0004,ATTRB=(UNPROT),COLOR=DEFAULT,  X
               HILIGHT=UNDERLINE
         DFHMDF POS=(10,21),LENGTH=0,ATTRB=(ASKIP,NORM)
* 'SHORT-DESC-4407-TA11'
ZFLD025  DFHMDF POS=(10,29),LENGTH=0010,ATTRB=(UNPROT),COLOR=DEFAULT,  X
               HILIGHT=UNDERLINE
         DFHMDF POS=(10,40),LENGTH=0,ATTRB=(ASKIP,NORM)
* 'LONG-DESC-4407-TA11'
ZFLD026  DFHMDF POS=(10,44),LENGTH=0030,ATTRB=(UNPROT),COLOR=DEFAULT,  X
               HILIGHT=UNDERLINE
         DFHMDF POS=(10,75),LENGTH=0,ATTRB=(ASKIP,NORM)
* 'ACTN-CODE-TA11'
ZFLD027  DFHMDF POS=(11,03),LENGTH=0001,ATTRB=(UNPROT),COLOR=DEFAULT,  X
               HILIGHT=OFF
         DFHMDF POS=(11,05),LENGTH=0,ATTRB=(ASKIP,NORM)
* 'CRDT-CARD-TYPE-4407-TA11'
ZFLD028  DFHMDF POS=(11,16),LENGTH=0004,ATTRB=(UNPROT),COLOR=DEFAULT,  X
               HILIGHT=UNDERLINE
         DFHMDF POS=(11,21),LENGTH=0,ATTRB=(ASKIP,NORM)
* 'SHORT-DESC-4407-TA11'
ZFLD029  DFHMDF POS=(11,29),LENGTH=0010,ATTRB=(UNPROT),COLOR=DEFAULT,  X
               HILIGHT=UNDERLINE
         DFHMDF POS=(11,40),LENGTH=0,ATTRB=(ASKIP,NORM)
* 'LONG-DESC-4407-TA11'
ZFLD030  DFHMDF POS=(11,44),LENGTH=0030,ATTRB=(UNPROT),COLOR=DEFAULT,  X
               HILIGHT=UNDERLINE
         DFHMDF POS=(11,75),LENGTH=0,ATTRB=(ASKIP,NORM)
* 'ACTN-CODE-TA11'
ZFLD031  DFHMDF POS=(12,03),LENGTH=0001,ATTRB=(UNPROT),COLOR=DEFAULT,  X
               HILIGHT=OFF
         DFHMDF POS=(12,05),LENGTH=0,ATTRB=(ASKIP,NORM)
* 'CRDT-CARD-TYPE-4407-TA11'
ZFLD032  DFHMDF POS=(12,16),LENGTH=0004,ATTRB=(UNPROT),COLOR=DEFAULT,  X
               HILIGHT=UNDERLINE
         DFHMDF POS=(12,21),LENGTH=0,ATTRB=(ASKIP,NORM)
* 'SHORT-DESC-4407-TA11'
ZFLD033  DFHMDF POS=(12,29),LENGTH=0010,ATTRB=(UNPROT),COLOR=DEFAULT,  X
               HILIGHT=UNDERLINE
         DFHMDF POS=(12,40),LENGTH=0,ATTRB=(ASKIP,NORM)
* 'LONG-DESC-4407-TA11'
ZFLD034  DFHMDF POS=(12,44),LENGTH=0030,ATTRB=(UNPROT),COLOR=DEFAULT,  X
               HILIGHT=UNDERLINE
         DFHMDF POS=(12,75),LENGTH=0,ATTRB=(ASKIP,NORM)
* 'ACTN-CODE-TA11'
ZFLD035  DFHMDF POS=(13,03),LENGTH=0001,ATTRB=(UNPROT),COLOR=DEFAULT,  X
               HILIGHT=OFF
         DFHMDF POS=(13,05),LENGTH=0,ATTRB=(ASKIP,NORM)
* 'CRDT-CARD-TYPE-4407-TA11'
ZFLD036  DFHMDF POS=(13,16),LENGTH=0004,ATTRB=(UNPROT),COLOR=DEFAULT,  X
               HILIGHT=UNDERLINE
         DFHMDF POS=(13,21),LENGTH=0,ATTRB=(ASKIP,NORM)
* 'SHORT-DESC-4407-TA11'
ZFLD037  DFHMDF POS=(13,29),LENGTH=0010,ATTRB=(UNPROT),COLOR=DEFAULT,  X
               HILIGHT=UNDERLINE
         DFHMDF POS=(13,40),LENGTH=0,ATTRB=(ASKIP,NORM)
* 'LONG-DESC-4407-TA11'
ZFLD038  DFHMDF POS=(13,44),LENGTH=0030,ATTRB=(UNPROT),COLOR=DEFAULT,  X
               HILIGHT=UNDERLINE
         DFHMDF POS=(13,75),LENGTH=0,ATTRB=(ASKIP,NORM)
* 'ACTN-CODE-TA11'
ZFLD039  DFHMDF POS=(14,03),LENGTH=0001,ATTRB=(UNPROT),COLOR=DEFAULT,  X
               HILIGHT=OFF
         DFHMDF POS=(14,05),LENGTH=0,ATTRB=(ASKIP,NORM)
* 'CRDT-CARD-TYPE-4407-TA11'
ZFLD040  DFHMDF POS=(14,16),LENGTH=0004,ATTRB=(UNPROT),COLOR=DEFAULT,  X
               HILIGHT=UNDERLINE
         DFHMDF POS=(14,21),LENGTH=0,ATTRB=(ASKIP,NORM)
* 'SHORT-DESC-4407-TA11'
ZFLD041  DFHMDF POS=(14,29),LENGTH=0010,ATTRB=(UNPROT),COLOR=DEFAULT,  X
               HILIGHT=UNDERLINE
         DFHMDF POS=(14,40),LENGTH=0,ATTRB=(ASKIP,NORM)
* 'LONG-DESC-4407-TA11'
ZFLD042  DFHMDF POS=(14,44),LENGTH=0030,ATTRB=(UNPROT),COLOR=DEFAULT,  X
               HILIGHT=UNDERLINE
         DFHMDF POS=(14,75),LENGTH=0,ATTRB=(ASKIP,NORM)
* 'ACTN-CODE-TA11'
ZFLD043  DFHMDF POS=(15,03),LENGTH=0001,ATTRB=(UNPROT),COLOR=DEFAULT,  X
               HILIGHT=OFF
         DFHMDF POS=(15,05),LENGTH=0,ATTRB=(ASKIP,NORM)
* 'CRDT-CARD-TYPE-4407-TA11'
ZFLD044  DFHMDF POS=(15,16),LENGTH=0004,ATTRB=(UNPROT),COLOR=DEFAULT,  X
               HILIGHT=UNDERLINE
         DFHMDF POS=(15,21),LENGTH=0,ATTRB=(ASKIP,NORM)
* 'SHORT-DESC-4407-TA11'
ZFLD045  DFHMDF POS=(15,29),LENGTH=0010,ATTRB=(UNPROT),COLOR=DEFAULT,  X
               HILIGHT=UNDERLINE
         DFHMDF POS=(15,40),LENGTH=0,ATTRB=(ASKIP,NORM)
* 'LONG-DESC-4407-TA11'
ZFLD046  DFHMDF POS=(15,44),LENGTH=0030,ATTRB=(UNPROT),COLOR=DEFAULT,  X
               HILIGHT=UNDERLINE
         DFHMDF POS=(15,75),LENGTH=0,ATTRB=(ASKIP,NORM)
* 'ACTN-CODE-TA11'
ZFLD047  DFHMDF POS=(16,03),LENGTH=0001,ATTRB=(UNPROT),COLOR=DEFAULT,  X
               HILIGHT=OFF
         DFHMDF POS=(16,05),LENGTH=0,ATTRB=(ASKIP,NORM)
* 'CRDT-CARD-TYPE-4407-TA11'
ZFLD048  DFHMDF POS=(16,16),LENGTH=0004,ATTRB=(UNPROT),COLOR=DEFAULT,  X
               HILIGHT=UNDERLINE
         DFHMDF POS=(16,21),LENGTH=0,ATTRB=(ASKIP,NORM)
* 'SHORT-DESC-4407-TA11'
ZFLD049  DFHMDF POS=(16,29),LENGTH=0010,ATTRB=(UNPROT),COLOR=DEFAULT,  X
               HILIGHT=UNDERLINE
         DFHMDF POS=(16,40),LENGTH=0,ATTRB=(ASKIP,NORM)
* 'LONG-DESC-4407-TA11'
ZFLD050  DFHMDF POS=(16,44),LENGTH=0030,ATTRB=(UNPROT),COLOR=DEFAULT,  X
               HILIGHT=UNDERLINE
         DFHMDF POS=(16,75),LENGTH=0,ATTRB=(ASKIP,NORM)
* 'ACTN-CODE-TA11'
ZFLD051  DFHMDF POS=(17,03),LENGTH=0001,ATTRB=(UNPROT),COLOR=DEFAULT,  X
               HILIGHT=OFF
         DFHMDF POS=(17,05),LENGTH=0,ATTRB=(ASKIP,NORM)
* 'CRDT-CARD-TYPE-4407-TA11'
ZFLD052  DFHMDF POS=(17,16),LENGTH=0004,ATTRB=(UNPROT),COLOR=DEFAULT,  X
               HILIGHT=UNDERLINE
         DFHMDF POS=(17,21),LENGTH=0,ATTRB=(ASKIP,NORM)
* 'SHORT-DESC-4407-TA11'
ZFLD053  DFHMDF POS=(17,29),LENGTH=0010,ATTRB=(UNPROT),COLOR=DEFAULT,  X
               HILIGHT=UNDERLINE
         DFHMDF POS=(17,40),LENGTH=0,ATTRB=(ASKIP,NORM)
* 'LONG-DESC-4407-TA11'
ZFLD054  DFHMDF POS=(17,44),LENGTH=0030,ATTRB=(UNPROT),COLOR=DEFAULT,  X
               HILIGHT=UNDERLINE
         DFHMDF POS=(17,75),LENGTH=0,ATTRB=(ASKIP,NORM)
* 'ACTN-CODE-TA11'
ZFLD055  DFHMDF POS=(18,03),LENGTH=0001,ATTRB=(UNPROT),COLOR=DEFAULT,  X
               HILIGHT=OFF
         DFHMDF POS=(18,05),LENGTH=0,ATTRB=(ASKIP,NORM)
* 'CRDT-CARD-TYPE-4407-TA11'
ZFLD056  DFHMDF POS=(18,16),LENGTH=0004,ATTRB=(UNPROT),COLOR=DEFAULT,  X
               HILIGHT=UNDERLINE
         DFHMDF POS=(18,21),LENGTH=0,ATTRB=(ASKIP,NORM)
* 'SHORT-DESC-4407-TA11'
ZFLD057  DFHMDF POS=(18,29),LENGTH=0010,ATTRB=(UNPROT),COLOR=DEFAULT,  X
               HILIGHT=UNDERLINE
         DFHMDF POS=(18,40),LENGTH=0,ATTRB=(ASKIP,NORM)
* 'LONG-DESC-4407-TA11'
ZFLD058  DFHMDF POS=(18,44),LENGTH=0030,ATTRB=(UNPROT),COLOR=DEFAULT,  X
               HILIGHT=UNDERLINE
         DFHMDF POS=(18,75),LENGTH=0,ATTRB=(ASKIP,NORM)
         DFHMDF POS=(20,01),LENGTH=0025,ATTRB=(PROT,ASKIP),            X
               INITIAL='CREDIT CARD TYPE REQUEST:',COLOR=BLUE,         X
               HILIGHT=OFF
* 'RQST-CRDT-CARD-TYPE-4407-TA11'
ZFLD059  DFHMDF POS=(20,28),LENGTH=0004,ATTRB=(UNPROT),COLOR=DEFAULT,  X
               HILIGHT=UNDERLINE
         DFHMDF POS=(20,33),LENGTH=0,ATTRB=(ASKIP,NORM)
* 'DCLINK-MESSAGE'
ZFLD060  DFHMDF POS=(21,80),LENGTH=0160,ATTRB=(PROT,BRT),              X
               COLOR=DEFAULT,HILIGHT=OFF
         DFHMDF POS=(24,01),LENGTH=0012,ATTRB=(PROT,ASKIP,NUM),        X
               INITIAL='NEXT SCREEN:',COLOR=BLUE,HILIGHT=OFF
* 'AGR-PASSED-ONE'
ZFLD061  DFHMDF POS=(24,14),LENGTH=0030,ATTRB=(UNPROT),COLOR=DEFAULT,  X
               HILIGHT=UNDERLINE
         DFHMDF POS=(24,45),LENGTH=0009,ATTRB=(PROT,ASKIP),            X
               INITIAL='RESPONSE:',COLOR=BLUE,HILIGHT=OFF
* 'AGR-MAP-RESPONSE'
ZFLD062  DFHMDF POS=(24,55),LENGTH=0008,ATTRB=(UNPROT),COLOR=DEFAULT,  X
               HILIGHT=UNDERLINE
         DFHMDF POS=(24,64),LENGTH=0,ATTRB=(ASKIP,NORM)
* 'ERROR-TEXT-SY00'
ZFLD063  DFHMDF POS=(24,65),LENGTH=0014,ATTRB=(PROT,DRK),              X
               COLOR=DEFAULT,HILIGHT=OFF
         DFHMSD TYPE=FINAL
         END
