FUTMI15  DFHMSD TYPE=MAP,LANG=COBOL,TERM=3270,MODE=INOUT,              X
               TIOAPFX=YES,MAPATTS=(COLOR,HILIGHT),                    X
               DSATTS=(COLOR,HILIGHT)
FUTMI15  DFHMDI SIZE=(24,80),LINE=1,COLUMN=1,CTRL=FREEKB,TIOAPFX=YES
         DFHMDF POS=(01,01),LENGTH=0007,ATTRB=(PROT,ASKIP),            X
               INITIAL='FUTMI15',COLOR=BLUE,HILIGHT=OFF
* 'TRMNL-ID-SY00'
ZFLD002  DFHMDF POS=(01,10),LENGTH=0008,ATTRB=(PROT),COLOR=BLUE,       X
               HILIGHT=OFF
         DFHMDF POS=(01,19),LENGTH=0,ATTRB=(ASKIP,NORM)
* 'FULL-NAME-6001-SY00'
ZFLD003  DFHMDF POS=(01,23),LENGTH=0035,ATTRB=(PROT),COLOR=BLUE,       X
               HILIGHT=OFF
         DFHMDF POS=(01,59),LENGTH=0,ATTRB=(ASKIP,NORM)
* 'AGR-DATE'
ZFLD004  DFHMDF POS=(01,64),LENGTH=0008,ATTRB=(PROT),COLOR=BLUE,       X
               HILIGHT=OFF
* 'WORK-HH-MM-TIME-SY00'
ZFLD005  DFHMDF POS=(01,73),LENGTH=0005,ATTRB=(PROT),COLOR=BLUE,       X
               HILIGHT=OFF
* 'AM-PM-FLAG-SY00'
ZFLD006  DFHMDF POS=(01,79),LENGTH=0001,ATTRB=(PROT),COLOR=BLUE,       X
               HILIGHT=OFF
* 'AGR-USER-ID'
ZFLD007  DFHMDF POS=(02,01),LENGTH=0008,ATTRB=(PROT),COLOR=BLUE,       X
               HILIGHT=OFF
         DFHMDF POS=(02,10),LENGTH=0,ATTRB=(ASKIP,NORM)
* 'CURR-RSPNS-ID-SY00'
ZFLD008  DFHMDF POS=(02,21),LENGTH=0008,ATTRB=(PROT,BRT),              X
               COLOR=DEFAULT,HILIGHT=OFF
         DFHMDF POS=(02,30),LENGTH=0001,ATTRB=(PROT,ASKIP,BRT),        X
               INITIAL=':',COLOR=DEFAULT,HILIGHT=OFF
* 'AGR-FUNC-DESCRIPTION'
ZFLD009  DFHMDF POS=(02,32),LENGTH=0028,ATTRB=(PROT,BRT),              X
               COLOR=DEFAULT,HILIGHT=OFF
         DFHMDF POS=(02,61),LENGTH=0,ATTRB=(ASKIP,NORM)
* 'PAGE-STATUS-CODE-SY00'
ZFLD010  DFHMDF POS=(02,64),LENGTH=0010,ATTRB=(PROT,BRT),              X
               COLOR=DEFAULT,HILIGHT=OFF
         DFHMDF POS=(02,75),LENGTH=0,ATTRB=(ASKIP,NORM)
* 'DCSD-TEXT-SY01'
ZFLD011  DFHMDF POS=(03,52),LENGTH=0008,ATTRB=(PROT,DRK),              X
               COLOR=DEFAULT,HILIGHT=OFF
         DFHMDF POS=(03,61),LENGTH=0,ATTRB=(ASKIP,NORM)
* 'CNFDL-TEXT-SY01'
ZFLD012  DFHMDF POS=(03,62),LENGTH=0011,ATTRB=(PROT,DRK),              X
               COLOR=DEFAULT,HILIGHT=OFF
         DFHMDF POS=(03,74),LENGTH=0,ATTRB=(ASKIP,NORM)
* 'HOLDS-TEXT-SY01'
ZFLD013  DFHMDF POS=(03,75),LENGTH=0005,ATTRB=(PROT,DRK),              X
               COLOR=DEFAULT,HILIGHT=OFF
         DFHMDF POS=(04,01),LENGTH=0,ATTRB=(ASKIP,NORM)
         DFHMDF POS=(05,01),LENGTH=0014,ATTRB=(PROT,ASKIP),            X
               INITIAL='USER ID      :',COLOR=BLUE,HILIGHT=OFF
* 'USER-ID-UT15'
ZFLD014  DFHMDF POS=(05,16),LENGTH=0008,ATTRB=(UNPROT,IC),             X
               COLOR=DEFAULT,HILIGHT=UNDERLINE
         DFHMDF POS=(05,25),LENGTH=0,ATTRB=(ASKIP,NORM)
* 'NAME-KEY-UT15'
ZFLD015  DFHMDF POS=(05,26),LENGTH=0035,ATTRB=(PROT),COLOR=TURQUOISE,  X
               HILIGHT=OFF
         DFHMDF POS=(05,62),LENGTH=0,ATTRB=(ASKIP,NORM)
         DFHMDF POS=(06,01),LENGTH=0014,ATTRB=(PROT,ASKIP),            X
               INITIAL='DOCUMENT TYPE:',COLOR=BLUE,HILIGHT=OFF
* 'DCMNT-TYPE-UT15'
ZFLD016  DFHMDF POS=(06,16),LENGTH=0003,ATTRB=(UNPROT),COLOR=DEFAULT,  X
               HILIGHT=UNDERLINE
         DFHMDF POS=(06,20),LENGTH=0,ATTRB=(ASKIP,NORM)
* 'DCMNT-DESC-UT15'
ZFLD017  DFHMDF POS=(06,26),LENGTH=0035,ATTRB=(PROT),COLOR=TURQUOISE,  X
               HILIGHT=OFF
         DFHMDF POS=(06,62),LENGTH=0,ATTRB=(ASKIP,NORM)
         DFHMDF POS=(08,01),LENGTH=0077,ATTRB=(PROT,ASKIP),            X
               INITIAL=' ACT                                      -----X
               --- APPROVAL HIERARCHY -------',COLOR=BLUE,HILIGHT=OFF
         DFHMDF POS=(09,01),LENGTH=0061,ATTRB=(PROT,ASKIP),            X
               INITIAL='(S/L) TMPLT   DESCRIPTION                  LVL X
               USER ID   NAME',COLOR=BLUE,HILIGHT=OFF
* 'ACTN-CODE-UT15'
ZFLD018  DFHMDF POS=(10,03),LENGTH=0001,ATTRB=(UNPROT),COLOR=DEFAULT,  X
               HILIGHT=OFF
         DFHMDF POS=(10,05),LENGTH=0,ATTRB=(ASKIP,NORM)
* 'APRVL-TMPLT-CODE-UT15'
ZFLD019  DFHMDF POS=(10,08),LENGTH=0003,ATTRB=(PROT),COLOR=TURQUOISE,  X
               HILIGHT=OFF
* 'APRVL-TMPLT-DESC-UT15'
ZFLD020  DFHMDF POS=(10,12),LENGTH=0030,ATTRB=(PROT),COLOR=TURQUOISE,  X
               HILIGHT=OFF
* 'LEVEL-SEQ-NMBR-UT15'
ZFLD021  DFHMDF POS=(10,43),LENGTH=0004,ATTRB=(PROT,ASKIP),            X
               COLOR=TURQUOISE,HILIGHT=OFF
* 'APRVL-ID-UT15'
ZFLD022  DFHMDF POS=(10,48),LENGTH=0008,ATTRB=(PROT),COLOR=TURQUOISE,  X
               HILIGHT=OFF
* 'APRVL-NAME-UT15'
ZFLD023  DFHMDF POS=(10,57),LENGTH=0022,ATTRB=(PROT),COLOR=TURQUOISE,  X
               HILIGHT=OFF
         DFHMDF POS=(10,80),LENGTH=0,ATTRB=(ASKIP,NORM)
* 'ACTN-CODE-UT15'
ZFLD024  DFHMDF POS=(11,03),LENGTH=0001,ATTRB=(UNPROT),COLOR=DEFAULT,  X
               HILIGHT=OFF
         DFHMDF POS=(11,05),LENGTH=0,ATTRB=(ASKIP,NORM)
* 'APRVL-TMPLT-CODE-UT15'
ZFLD025  DFHMDF POS=(11,08),LENGTH=0003,ATTRB=(PROT),COLOR=TURQUOISE,  X
               HILIGHT=OFF
* 'APRVL-TMPLT-DESC-UT15'
ZFLD026  DFHMDF POS=(11,12),LENGTH=0030,ATTRB=(PROT),COLOR=TURQUOISE,  X
               HILIGHT=OFF
* 'LEVEL-SEQ-NMBR-UT15'
ZFLD027  DFHMDF POS=(11,43),LENGTH=0004,ATTRB=(PROT,ASKIP),            X
               COLOR=TURQUOISE,HILIGHT=OFF
* 'APRVL-ID-UT15'
ZFLD028  DFHMDF POS=(11,48),LENGTH=0008,ATTRB=(PROT),COLOR=TURQUOISE,  X
               HILIGHT=OFF
* 'APRVL-NAME-UT15'
ZFLD029  DFHMDF POS=(11,57),LENGTH=0022,ATTRB=(PROT),COLOR=TURQUOISE,  X
               HILIGHT=OFF
         DFHMDF POS=(11,80),LENGTH=0,ATTRB=(ASKIP,NORM)
* 'ACTN-CODE-UT15'
ZFLD030  DFHMDF POS=(12,03),LENGTH=0001,ATTRB=(UNPROT),COLOR=DEFAULT,  X
               HILIGHT=OFF
         DFHMDF POS=(12,05),LENGTH=0,ATTRB=(ASKIP,NORM)
* 'APRVL-TMPLT-CODE-UT15'
ZFLD031  DFHMDF POS=(12,08),LENGTH=0003,ATTRB=(PROT),COLOR=TURQUOISE,  X
               HILIGHT=OFF
* 'APRVL-TMPLT-DESC-UT15'
ZFLD032  DFHMDF POS=(12,12),LENGTH=0030,ATTRB=(PROT),COLOR=TURQUOISE,  X
               HILIGHT=OFF
* 'LEVEL-SEQ-NMBR-UT15'
ZFLD033  DFHMDF POS=(12,43),LENGTH=0004,ATTRB=(PROT,ASKIP),            X
               COLOR=TURQUOISE,HILIGHT=OFF
* 'APRVL-ID-UT15'
ZFLD034  DFHMDF POS=(12,48),LENGTH=0008,ATTRB=(PROT),COLOR=TURQUOISE,  X
               HILIGHT=OFF
* 'APRVL-NAME-UT15'
ZFLD035  DFHMDF POS=(12,57),LENGTH=0022,ATTRB=(PROT),COLOR=TURQUOISE,  X
               HILIGHT=OFF
         DFHMDF POS=(12,80),LENGTH=0,ATTRB=(ASKIP,NORM)
* 'ACTN-CODE-UT15'
ZFLD036  DFHMDF POS=(13,03),LENGTH=0001,ATTRB=(UNPROT),COLOR=DEFAULT,  X
               HILIGHT=OFF
         DFHMDF POS=(13,05),LENGTH=0,ATTRB=(ASKIP,NORM)
* 'APRVL-TMPLT-CODE-UT15'
ZFLD037  DFHMDF POS=(13,08),LENGTH=0003,ATTRB=(PROT),COLOR=TURQUOISE,  X
               HILIGHT=OFF
* 'APRVL-TMPLT-DESC-UT15'
ZFLD038  DFHMDF POS=(13,12),LENGTH=0030,ATTRB=(PROT),COLOR=TURQUOISE,  X
               HILIGHT=OFF
* 'LEVEL-SEQ-NMBR-UT15'
ZFLD039  DFHMDF POS=(13,43),LENGTH=0004,ATTRB=(PROT,ASKIP),            X
               COLOR=TURQUOISE,HILIGHT=OFF
* 'APRVL-ID-UT15'
ZFLD040  DFHMDF POS=(13,48),LENGTH=0008,ATTRB=(PROT),COLOR=TURQUOISE,  X
               HILIGHT=OFF
* 'APRVL-NAME-UT15'
ZFLD041  DFHMDF POS=(13,57),LENGTH=0022,ATTRB=(PROT),COLOR=TURQUOISE,  X
               HILIGHT=OFF
         DFHMDF POS=(13,80),LENGTH=0,ATTRB=(ASKIP,NORM)
* 'ACTN-CODE-UT15'
ZFLD042  DFHMDF POS=(14,03),LENGTH=0001,ATTRB=(UNPROT),COLOR=DEFAULT,  X
               HILIGHT=OFF
         DFHMDF POS=(14,05),LENGTH=0,ATTRB=(ASKIP,NORM)
* 'APRVL-TMPLT-CODE-UT15'
ZFLD043  DFHMDF POS=(14,08),LENGTH=0003,ATTRB=(PROT),COLOR=TURQUOISE,  X
               HILIGHT=OFF
* 'APRVL-TMPLT-DESC-UT15'
ZFLD044  DFHMDF POS=(14,12),LENGTH=0030,ATTRB=(PROT),COLOR=TURQUOISE,  X
               HILIGHT=OFF
* 'LEVEL-SEQ-NMBR-UT15'
ZFLD045  DFHMDF POS=(14,43),LENGTH=0004,ATTRB=(PROT,ASKIP),            X
               COLOR=TURQUOISE,HILIGHT=OFF
* 'APRVL-ID-UT15'
ZFLD046  DFHMDF POS=(14,48),LENGTH=0008,ATTRB=(PROT),COLOR=TURQUOISE,  X
               HILIGHT=OFF
* 'APRVL-NAME-UT15'
ZFLD047  DFHMDF POS=(14,57),LENGTH=0022,ATTRB=(PROT),COLOR=TURQUOISE,  X
               HILIGHT=OFF
         DFHMDF POS=(14,80),LENGTH=0,ATTRB=(ASKIP,NORM)
* 'ACTN-CODE-UT15'
ZFLD048  DFHMDF POS=(15,03),LENGTH=0001,ATTRB=(UNPROT),COLOR=DEFAULT,  X
               HILIGHT=OFF
         DFHMDF POS=(15,05),LENGTH=0,ATTRB=(ASKIP,NORM)
* 'APRVL-TMPLT-CODE-UT15'
ZFLD049  DFHMDF POS=(15,08),LENGTH=0003,ATTRB=(PROT),COLOR=TURQUOISE,  X
               HILIGHT=OFF
* 'APRVL-TMPLT-DESC-UT15'
ZFLD050  DFHMDF POS=(15,12),LENGTH=0030,ATTRB=(PROT),COLOR=TURQUOISE,  X
               HILIGHT=OFF
* 'LEVEL-SEQ-NMBR-UT15'
ZFLD051  DFHMDF POS=(15,43),LENGTH=0004,ATTRB=(PROT,ASKIP),            X
               COLOR=TURQUOISE,HILIGHT=OFF
* 'APRVL-ID-UT15'
ZFLD052  DFHMDF POS=(15,48),LENGTH=0008,ATTRB=(PROT),COLOR=TURQUOISE,  X
               HILIGHT=OFF
* 'APRVL-NAME-UT15'
ZFLD053  DFHMDF POS=(15,57),LENGTH=0022,ATTRB=(PROT),COLOR=TURQUOISE,  X
               HILIGHT=OFF
         DFHMDF POS=(15,80),LENGTH=0,ATTRB=(ASKIP,NORM)
* 'ACTN-CODE-UT15'
ZFLD054  DFHMDF POS=(16,03),LENGTH=0001,ATTRB=(UNPROT),COLOR=DEFAULT,  X
               HILIGHT=OFF
         DFHMDF POS=(16,05),LENGTH=0,ATTRB=(ASKIP,NORM)
* 'APRVL-TMPLT-CODE-UT15'
ZFLD055  DFHMDF POS=(16,08),LENGTH=0003,ATTRB=(PROT),COLOR=TURQUOISE,  X
               HILIGHT=OFF
* 'APRVL-TMPLT-DESC-UT15'
ZFLD056  DFHMDF POS=(16,12),LENGTH=0030,ATTRB=(PROT),COLOR=TURQUOISE,  X
               HILIGHT=OFF
* 'LEVEL-SEQ-NMBR-UT15'
ZFLD057  DFHMDF POS=(16,43),LENGTH=0004,ATTRB=(PROT,ASKIP),            X
               COLOR=TURQUOISE,HILIGHT=OFF
* 'APRVL-ID-UT15'
ZFLD058  DFHMDF POS=(16,48),LENGTH=0008,ATTRB=(PROT),COLOR=TURQUOISE,  X
               HILIGHT=OFF
* 'APRVL-NAME-UT15'
ZFLD059  DFHMDF POS=(16,57),LENGTH=0022,ATTRB=(PROT),COLOR=TURQUOISE,  X
               HILIGHT=OFF
         DFHMDF POS=(16,80),LENGTH=0,ATTRB=(ASKIP,NORM)
* 'ACTN-CODE-UT15'
ZFLD060  DFHMDF POS=(17,03),LENGTH=0001,ATTRB=(UNPROT),COLOR=DEFAULT,  X
               HILIGHT=OFF
         DFHMDF POS=(17,05),LENGTH=0,ATTRB=(ASKIP,NORM)
* 'APRVL-TMPLT-CODE-UT15'
ZFLD061  DFHMDF POS=(17,08),LENGTH=0003,ATTRB=(PROT),COLOR=TURQUOISE,  X
               HILIGHT=OFF
* 'APRVL-TMPLT-DESC-UT15'
ZFLD062  DFHMDF POS=(17,12),LENGTH=0030,ATTRB=(PROT),COLOR=TURQUOISE,  X
               HILIGHT=OFF
* 'LEVEL-SEQ-NMBR-UT15'
ZFLD063  DFHMDF POS=(17,43),LENGTH=0004,ATTRB=(PROT,ASKIP),            X
               COLOR=TURQUOISE,HILIGHT=OFF
* 'APRVL-ID-UT15'
ZFLD064  DFHMDF POS=(17,48),LENGTH=0008,ATTRB=(PROT),COLOR=TURQUOISE,  X
               HILIGHT=OFF
* 'APRVL-NAME-UT15'
ZFLD065  DFHMDF POS=(17,57),LENGTH=0022,ATTRB=(PROT),COLOR=TURQUOISE,  X
               HILIGHT=OFF
         DFHMDF POS=(17,80),LENGTH=0,ATTRB=(ASKIP,NORM)
* 'ACTN-CODE-UT15'
ZFLD066  DFHMDF POS=(18,03),LENGTH=0001,ATTRB=(UNPROT),COLOR=DEFAULT,  X
               HILIGHT=OFF
         DFHMDF POS=(18,05),LENGTH=0,ATTRB=(ASKIP,NORM)
* 'APRVL-TMPLT-CODE-UT15'
ZFLD067  DFHMDF POS=(18,08),LENGTH=0003,ATTRB=(PROT),COLOR=TURQUOISE,  X
               HILIGHT=OFF
* 'APRVL-TMPLT-DESC-UT15'
ZFLD068  DFHMDF POS=(18,12),LENGTH=0030,ATTRB=(PROT),COLOR=TURQUOISE,  X
               HILIGHT=OFF
* 'LEVEL-SEQ-NMBR-UT15'
ZFLD069  DFHMDF POS=(18,43),LENGTH=0004,ATTRB=(PROT,ASKIP),            X
               COLOR=TURQUOISE,HILIGHT=OFF
* 'APRVL-ID-UT15'
ZFLD070  DFHMDF POS=(18,48),LENGTH=0008,ATTRB=(PROT),COLOR=TURQUOISE,  X
               HILIGHT=OFF
* 'APRVL-NAME-UT15'
ZFLD071  DFHMDF POS=(18,57),LENGTH=0022,ATTRB=(PROT),COLOR=TURQUOISE,  X
               HILIGHT=OFF
         DFHMDF POS=(18,80),LENGTH=0,ATTRB=(ASKIP,NORM)
* 'ACTN-CODE-UT15'
ZFLD072  DFHMDF POS=(19,03),LENGTH=0001,ATTRB=(UNPROT),COLOR=DEFAULT,  X
               HILIGHT=OFF
         DFHMDF POS=(19,05),LENGTH=0,ATTRB=(ASKIP,NORM)
* 'APRVL-TMPLT-CODE-UT15'
ZFLD073  DFHMDF POS=(19,08),LENGTH=0003,ATTRB=(PROT),COLOR=TURQUOISE,  X
               HILIGHT=OFF
* 'APRVL-TMPLT-DESC-UT15'
ZFLD074  DFHMDF POS=(19,12),LENGTH=0030,ATTRB=(PROT),COLOR=TURQUOISE,  X
               HILIGHT=OFF
* 'LEVEL-SEQ-NMBR-UT15'
ZFLD075  DFHMDF POS=(19,43),LENGTH=0004,ATTRB=(PROT,ASKIP),            X
               COLOR=TURQUOISE,HILIGHT=OFF
* 'APRVL-ID-UT15'
ZFLD076  DFHMDF POS=(19,48),LENGTH=0008,ATTRB=(PROT,ASKIP),            X
               COLOR=TURQUOISE,HILIGHT=OFF
* 'APRVL-NAME-UT15'
ZFLD077  DFHMDF POS=(19,57),LENGTH=0022,ATTRB=(PROT),COLOR=TURQUOISE,  X
               HILIGHT=OFF
         DFHMDF POS=(19,80),LENGTH=0,ATTRB=(ASKIP,NORM)
         DFHMDF POS=(21,01),LENGTH=0006,ATTRB=(PROT,ASKIP),            X
               INITIAL='TMPLT:',COLOR=BLUE,HILIGHT=OFF
* 'RQST-TMPLT-CODE-UT15'
ZFLD078  DFHMDF POS=(21,08),LENGTH=0003,ATTRB=(UNPROT),COLOR=DEFAULT,  X
               HILIGHT=UNDERLINE
         DFHMDF POS=(21,12),LENGTH=0,ATTRB=(ASKIP,NORM)
* 'DCLINK-MESSAGE'
ZFLD079  DFHMDF POS=(21,80),LENGTH=0160,ATTRB=(PROT,BRT),              X
               COLOR=DEFAULT,HILIGHT=OFF
         DFHMDF POS=(24,01),LENGTH=0012,ATTRB=(PROT,ASKIP,NUM),        X
               INITIAL='NEXT SCREEN:',COLOR=BLUE,HILIGHT=OFF
* 'AGR-PASSED-ONE'
ZFLD080  DFHMDF POS=(24,14),LENGTH=0030,ATTRB=(UNPROT),COLOR=DEFAULT,  X
               HILIGHT=UNDERLINE
         DFHMDF POS=(24,45),LENGTH=0009,ATTRB=(PROT,ASKIP),            X
               INITIAL='RESPONSE:',COLOR=BLUE,HILIGHT=OFF
* 'AGR-MAP-RESPONSE'
ZFLD081  DFHMDF POS=(24,55),LENGTH=0008,ATTRB=(UNPROT),COLOR=DEFAULT,  X
               HILIGHT=UNDERLINE
         DFHMDF POS=(24,64),LENGTH=0,ATTRB=(ASKIP,NORM)
* 'ERROR-TEXT-SY00'
ZFLD082  DFHMDF POS=(24,65),LENGTH=0014,ATTRB=(PROT,DRK),              X
               COLOR=DEFAULT,HILIGHT=OFF
         DFHMSD TYPE=FINAL
         END
