FUTMU01  DFHMSD TYPE=MAP,LANG=COBOL,TERM=3270,MODE=INOUT,              X
               TIOAPFX=YES,MAPATTS=(COLOR,HILIGHT),                    X
               DSATTS=(COLOR,HILIGHT)
FUTMU01  DFHMDI SIZE=(24,80),LINE=1,COLUMN=1,CTRL=FREEKB,TIOAPFX=YES
         DFHMDF POS=(01,01),LENGTH=0007,ATTRB=(PROT,ASKIP),            X
               INITIAL='FUTMU01',COLOR=BLUE,HILIGHT=OFF
* 'TRMNL-ID-SY00'
ZFLD002  DFHMDF POS=(01,10),LENGTH=0008,ATTRB=(PROT),COLOR=BLUE,       X
               HILIGHT=OFF
         DFHMDF POS=(01,19),LENGTH=0,ATTRB=(ASKIP,NORM)
* 'FULL-NAME-6001-SY00'
ZFLD003  DFHMDF POS=(01,23),LENGTH=0035,ATTRB=(PROT),COLOR=BLUE,       X
               HILIGHT=OFF
         DFHMDF POS=(01,59),LENGTH=0,ATTRB=(ASKIP,NORM)
* 'AGR-DATE'
ZFLD004  DFHMDF POS=(01,64),LENGTH=0008,ATTRB=(PROT),COLOR=BLUE,       X
               HILIGHT=OFF
* 'WORK-HH-MM-TIME-SY00'
ZFLD005  DFHMDF POS=(01,73),LENGTH=0005,ATTRB=(PROT),COLOR=BLUE,       X
               HILIGHT=OFF
* 'AM-PM-FLAG-SY00'
ZFLD006  DFHMDF POS=(01,79),LENGTH=0001,ATTRB=(PROT),COLOR=BLUE,       X
               HILIGHT=OFF
* 'AGR-USER-ID'
ZFLD007  DFHMDF POS=(02,01),LENGTH=0008,ATTRB=(PROT),COLOR=BLUE,       X
               HILIGHT=OFF
         DFHMDF POS=(02,10),LENGTH=0,ATTRB=(ASKIP,NORM)
* 'CURR-RSPNS-ID-SY00'
ZFLD008  DFHMDF POS=(02,21),LENGTH=0008,ATTRB=(PROT,BRT),              X
               COLOR=DEFAULT,HILIGHT=OFF
         DFHMDF POS=(02,30),LENGTH=0001,ATTRB=(PROT,ASKIP,BRT),        X
               INITIAL=':',COLOR=DEFAULT,HILIGHT=OFF
* 'AGR-FUNC-DESCRIPTION'
ZFLD009  DFHMDF POS=(02,32),LENGTH=0028,ATTRB=(PROT,BRT),              X
               COLOR=DEFAULT,HILIGHT=OFF
         DFHMDF POS=(02,61),LENGTH=0,ATTRB=(ASKIP,NORM)
* 'PAGE-STATUS-CODE-SY00'
ZFLD010  DFHMDF POS=(02,64),LENGTH=0010,ATTRB=(PROT,BRT),              X
               COLOR=DEFAULT,HILIGHT=OFF
         DFHMDF POS=(02,75),LENGTH=0,ATTRB=(ASKIP,NORM)
         DFHMDF POS=(04,01),LENGTH=0079,ATTRB=(PROT,ASKIP),            X
               INITIAL=' ACT  DOC  DOC       DESCRIPTION               X
                   EFFECTIVE   TERM  LAST ACTVY',COLOR=BLUE,           X
               HILIGHT=OFF
         DFHMDF POS=(05,01),LENGTH=0076,ATTRB=(PROT,ASKIP),            X
               INITIAL='(ACR) TYPE SEQ                                 X
                      DATE     DATE     DATE',COLOR=BLUE,HILIGHT=OFF
* 'ACTN-CODE-UT01'
ZFLD011  DFHMDF POS=(06,03),LENGTH=0001,ATTRB=(UNPROT,IC),             X
               COLOR=DEFAULT,HILIGHT=OFF
         DFHMDF POS=(06,05),LENGTH=0,ATTRB=(ASKIP,NORM)
* 'DCMNT-TYPE-CODE-4203-UT01'
ZFLD012  DFHMDF POS=(06,07),LENGTH=0003,ATTRB=(UNPROT),COLOR=DEFAULT,  X
               HILIGHT=UNDERLINE
         DFHMDF POS=(06,11),LENGTH=0,ATTRB=(ASKIP,NORM)
* 'DCMNT-TYPE-SEQ-NMBR-4203-UT01'
ZFLD013  DFHMDF POS=(06,12),LENGTH=0004,ATTRB=(PROT),COLOR=TURQUOISE,  X
               HILIGHT=OFF
* 'DCMNT-TYPE-DESC-4203-UT01'
ZFLD014  DFHMDF POS=(06,17),LENGTH=0035,ATTRB=(UNPROT),COLOR=DEFAULT,  X
               HILIGHT=UNDERLINE
* 'START-DATE-4203-UT01'
ZFLD015  DFHMDF POS=(06,53),LENGTH=0008,ATTRB=(UNPROT),COLOR=DEFAULT,  X
               HILIGHT=UNDERLINE
* 'END-DATE-4203-UT01'
ZFLD016  DFHMDF POS=(06,62),LENGTH=0008,ATTRB=(UNPROT),COLOR=DEFAULT,  X
               HILIGHT=UNDERLINE
* 'ACTVY-DATE-4203-UT01'
ZFLD017  DFHMDF POS=(06,71),LENGTH=0008,ATTRB=(PROT,ASKIP),            X
               COLOR=TURQUOISE,HILIGHT=OFF
         DFHMDF POS=(06,80),LENGTH=0,ATTRB=(ASKIP,NORM)
* 'ACTN-CODE-UT01'
ZFLD018  DFHMDF POS=(07,03),LENGTH=0001,ATTRB=(UNPROT),COLOR=DEFAULT,  X
               HILIGHT=OFF
         DFHMDF POS=(07,05),LENGTH=0,ATTRB=(ASKIP,NORM)
* 'DCMNT-TYPE-CODE-4203-UT01'
ZFLD019  DFHMDF POS=(07,07),LENGTH=0003,ATTRB=(UNPROT),COLOR=DEFAULT,  X
               HILIGHT=UNDERLINE
         DFHMDF POS=(07,11),LENGTH=0,ATTRB=(ASKIP,NORM)
* 'DCMNT-TYPE-SEQ-NMBR-4203-UT01'
ZFLD020  DFHMDF POS=(07,12),LENGTH=0004,ATTRB=(PROT),COLOR=TURQUOISE,  X
               HILIGHT=OFF
* 'DCMNT-TYPE-DESC-4203-UT01'
ZFLD021  DFHMDF POS=(07,17),LENGTH=0035,ATTRB=(UNPROT),COLOR=DEFAULT,  X
               HILIGHT=UNDERLINE
* 'START-DATE-4203-UT01'
ZFLD022  DFHMDF POS=(07,53),LENGTH=0008,ATTRB=(UNPROT),COLOR=DEFAULT,  X
               HILIGHT=UNDERLINE
* 'END-DATE-4203-UT01'
ZFLD023  DFHMDF POS=(07,62),LENGTH=0008,ATTRB=(UNPROT),COLOR=DEFAULT,  X
               HILIGHT=UNDERLINE
* 'ACTVY-DATE-4203-UT01'
ZFLD024  DFHMDF POS=(07,71),LENGTH=0008,ATTRB=(PROT,ASKIP),            X
               COLOR=TURQUOISE,HILIGHT=OFF
         DFHMDF POS=(07,80),LENGTH=0,ATTRB=(ASKIP,NORM)
* 'ACTN-CODE-UT01'
ZFLD025  DFHMDF POS=(08,03),LENGTH=0001,ATTRB=(UNPROT),COLOR=DEFAULT,  X
               HILIGHT=OFF
         DFHMDF POS=(08,05),LENGTH=0,ATTRB=(ASKIP,NORM)
* 'DCMNT-TYPE-CODE-4203-UT01'
ZFLD026  DFHMDF POS=(08,07),LENGTH=0003,ATTRB=(UNPROT),COLOR=DEFAULT,  X
               HILIGHT=UNDERLINE
         DFHMDF POS=(08,11),LENGTH=0,ATTRB=(ASKIP,NORM)
* 'DCMNT-TYPE-SEQ-NMBR-4203-UT01'
ZFLD027  DFHMDF POS=(08,12),LENGTH=0004,ATTRB=(PROT),COLOR=TURQUOISE,  X
               HILIGHT=OFF
* 'DCMNT-TYPE-DESC-4203-UT01'
ZFLD028  DFHMDF POS=(08,17),LENGTH=0035,ATTRB=(UNPROT),COLOR=DEFAULT,  X
               HILIGHT=UNDERLINE
* 'START-DATE-4203-UT01'
ZFLD029  DFHMDF POS=(08,53),LENGTH=0008,ATTRB=(UNPROT),COLOR=DEFAULT,  X
               HILIGHT=UNDERLINE
* 'END-DATE-4203-UT01'
ZFLD030  DFHMDF POS=(08,62),LENGTH=0008,ATTRB=(UNPROT),COLOR=DEFAULT,  X
               HILIGHT=UNDERLINE
* 'ACTVY-DATE-4203-UT01'
ZFLD031  DFHMDF POS=(08,71),LENGTH=0008,ATTRB=(PROT,ASKIP),            X
               COLOR=TURQUOISE,HILIGHT=OFF
         DFHMDF POS=(08,80),LENGTH=0,ATTRB=(ASKIP,NORM)
* 'ACTN-CODE-UT01'
ZFLD032  DFHMDF POS=(09,03),LENGTH=0001,ATTRB=(UNPROT),COLOR=DEFAULT,  X
               HILIGHT=OFF
         DFHMDF POS=(09,05),LENGTH=0,ATTRB=(ASKIP,NORM)
* 'DCMNT-TYPE-CODE-4203-UT01'
ZFLD033  DFHMDF POS=(09,07),LENGTH=0003,ATTRB=(UNPROT),COLOR=DEFAULT,  X
               HILIGHT=UNDERLINE
         DFHMDF POS=(09,11),LENGTH=0,ATTRB=(ASKIP,NORM)
* 'DCMNT-TYPE-SEQ-NMBR-4203-UT01'
ZFLD034  DFHMDF POS=(09,12),LENGTH=0004,ATTRB=(PROT),COLOR=TURQUOISE,  X
               HILIGHT=OFF
* 'DCMNT-TYPE-DESC-4203-UT01'
ZFLD035  DFHMDF POS=(09,17),LENGTH=0035,ATTRB=(UNPROT),COLOR=DEFAULT,  X
               HILIGHT=UNDERLINE
* 'START-DATE-4203-UT01'
ZFLD036  DFHMDF POS=(09,53),LENGTH=0008,ATTRB=(UNPROT),COLOR=DEFAULT,  X
               HILIGHT=UNDERLINE
* 'END-DATE-4203-UT01'
ZFLD037  DFHMDF POS=(09,62),LENGTH=0008,ATTRB=(UNPROT),COLOR=DEFAULT,  X
               HILIGHT=UNDERLINE
* 'ACTVY-DATE-4203-UT01'
ZFLD038  DFHMDF POS=(09,71),LENGTH=0008,ATTRB=(PROT,ASKIP),            X
               COLOR=TURQUOISE,HILIGHT=OFF
         DFHMDF POS=(09,80),LENGTH=0,ATTRB=(ASKIP,NORM)
* 'ACTN-CODE-UT01'
ZFLD039  DFHMDF POS=(10,03),LENGTH=0001,ATTRB=(UNPROT),COLOR=DEFAULT,  X
               HILIGHT=OFF
         DFHMDF POS=(10,05),LENGTH=0,ATTRB=(ASKIP,NORM)
* 'DCMNT-TYPE-CODE-4203-UT01'
ZFLD040  DFHMDF POS=(10,07),LENGTH=0003,ATTRB=(UNPROT),COLOR=DEFAULT,  X
               HILIGHT=UNDERLINE
         DFHMDF POS=(10,11),LENGTH=0,ATTRB=(ASKIP,NORM)
* 'DCMNT-TYPE-SEQ-NMBR-4203-UT01'
ZFLD041  DFHMDF POS=(10,12),LENGTH=0004,ATTRB=(PROT),COLOR=TURQUOISE,  X
               HILIGHT=OFF
* 'DCMNT-TYPE-DESC-4203-UT01'
ZFLD042  DFHMDF POS=(10,17),LENGTH=0035,ATTRB=(UNPROT),COLOR=DEFAULT,  X
               HILIGHT=UNDERLINE
* 'START-DATE-4203-UT01'
ZFLD043  DFHMDF POS=(10,53),LENGTH=0008,ATTRB=(UNPROT),COLOR=DEFAULT,  X
               HILIGHT=UNDERLINE
* 'END-DATE-4203-UT01'
ZFLD044  DFHMDF POS=(10,62),LENGTH=0008,ATTRB=(UNPROT),COLOR=DEFAULT,  X
               HILIGHT=UNDERLINE
* 'ACTVY-DATE-4203-UT01'
ZFLD045  DFHMDF POS=(10,71),LENGTH=0008,ATTRB=(PROT,ASKIP),            X
               COLOR=TURQUOISE,HILIGHT=OFF
         DFHMDF POS=(10,80),LENGTH=0,ATTRB=(ASKIP,NORM)
* 'ACTN-CODE-UT01'
ZFLD046  DFHMDF POS=(11,03),LENGTH=0001,ATTRB=(UNPROT),COLOR=DEFAULT,  X
               HILIGHT=OFF
         DFHMDF POS=(11,05),LENGTH=0,ATTRB=(ASKIP,NORM)
* 'DCMNT-TYPE-CODE-4203-UT01'
ZFLD047  DFHMDF POS=(11,07),LENGTH=0003,ATTRB=(UNPROT),COLOR=DEFAULT,  X
               HILIGHT=UNDERLINE
         DFHMDF POS=(11,11),LENGTH=0,ATTRB=(ASKIP,NORM)
* 'DCMNT-TYPE-SEQ-NMBR-4203-UT01'
ZFLD048  DFHMDF POS=(11,12),LENGTH=0004,ATTRB=(PROT),COLOR=TURQUOISE,  X
               HILIGHT=OFF
* 'DCMNT-TYPE-DESC-4203-UT01'
ZFLD049  DFHMDF POS=(11,17),LENGTH=0035,ATTRB=(UNPROT),COLOR=DEFAULT,  X
               HILIGHT=UNDERLINE
* 'START-DATE-4203-UT01'
ZFLD050  DFHMDF POS=(11,53),LENGTH=0008,ATTRB=(UNPROT),COLOR=DEFAULT,  X
               HILIGHT=UNDERLINE
* 'END-DATE-4203-UT01'
ZFLD051  DFHMDF POS=(11,62),LENGTH=0008,ATTRB=(UNPROT),COLOR=DEFAULT,  X
               HILIGHT=UNDERLINE
* 'ACTVY-DATE-4203-UT01'
ZFLD052  DFHMDF POS=(11,71),LENGTH=0008,ATTRB=(PROT,ASKIP),            X
               COLOR=TURQUOISE,HILIGHT=OFF
         DFHMDF POS=(11,80),LENGTH=0,ATTRB=(ASKIP,NORM)
* 'ACTN-CODE-UT01'
ZFLD053  DFHMDF POS=(12,03),LENGTH=0001,ATTRB=(UNPROT),COLOR=DEFAULT,  X
               HILIGHT=OFF
         DFHMDF POS=(12,05),LENGTH=0,ATTRB=(ASKIP,NORM)
* 'DCMNT-TYPE-CODE-4203-UT01'
ZFLD054  DFHMDF POS=(12,07),LENGTH=0003,ATTRB=(UNPROT),COLOR=DEFAULT,  X
               HILIGHT=UNDERLINE
         DFHMDF POS=(12,11),LENGTH=0,ATTRB=(ASKIP,NORM)
* 'DCMNT-TYPE-SEQ-NMBR-4203-UT01'
ZFLD055  DFHMDF POS=(12,12),LENGTH=0004,ATTRB=(PROT),COLOR=TURQUOISE,  X
               HILIGHT=OFF
* 'DCMNT-TYPE-DESC-4203-UT01'
ZFLD056  DFHMDF POS=(12,17),LENGTH=0035,ATTRB=(UNPROT),COLOR=DEFAULT,  X
               HILIGHT=UNDERLINE
* 'START-DATE-4203-UT01'
ZFLD057  DFHMDF POS=(12,53),LENGTH=0008,ATTRB=(UNPROT),COLOR=DEFAULT,  X
               HILIGHT=UNDERLINE
* 'END-DATE-4203-UT01'
ZFLD058  DFHMDF POS=(12,62),LENGTH=0008,ATTRB=(UNPROT),COLOR=DEFAULT,  X
               HILIGHT=UNDERLINE
* 'ACTVY-DATE-4203-UT01'
ZFLD059  DFHMDF POS=(12,71),LENGTH=0008,ATTRB=(PROT,ASKIP),            X
               COLOR=TURQUOISE,HILIGHT=OFF
         DFHMDF POS=(12,80),LENGTH=0,ATTRB=(ASKIP,NORM)
* 'ACTN-CODE-UT01'
ZFLD060  DFHMDF POS=(13,03),LENGTH=0001,ATTRB=(UNPROT),COLOR=DEFAULT,  X
               HILIGHT=OFF
         DFHMDF POS=(13,05),LENGTH=0,ATTRB=(ASKIP,NORM)
* 'DCMNT-TYPE-CODE-4203-UT01'
ZFLD061  DFHMDF POS=(13,07),LENGTH=0003,ATTRB=(UNPROT),COLOR=DEFAULT,  X
               HILIGHT=UNDERLINE
         DFHMDF POS=(13,11),LENGTH=0,ATTRB=(ASKIP,NORM)
* 'DCMNT-TYPE-SEQ-NMBR-4203-UT01'
ZFLD062  DFHMDF POS=(13,12),LENGTH=0004,ATTRB=(PROT),COLOR=TURQUOISE,  X
               HILIGHT=OFF
* 'DCMNT-TYPE-DESC-4203-UT01'
ZFLD063  DFHMDF POS=(13,17),LENGTH=0035,ATTRB=(UNPROT),COLOR=DEFAULT,  X
               HILIGHT=UNDERLINE
* 'START-DATE-4203-UT01'
ZFLD064  DFHMDF POS=(13,53),LENGTH=0008,ATTRB=(UNPROT),COLOR=DEFAULT,  X
               HILIGHT=UNDERLINE
* 'END-DATE-4203-UT01'
ZFLD065  DFHMDF POS=(13,62),LENGTH=0008,ATTRB=(UNPROT),COLOR=DEFAULT,  X
               HILIGHT=UNDERLINE
* 'ACTVY-DATE-4203-UT01'
ZFLD066  DFHMDF POS=(13,71),LENGTH=0008,ATTRB=(PROT,ASKIP),            X
               COLOR=TURQUOISE,HILIGHT=OFF
         DFHMDF POS=(13,80),LENGTH=0,ATTRB=(ASKIP,NORM)
* 'ACTN-CODE-UT01'
ZFLD067  DFHMDF POS=(14,03),LENGTH=0001,ATTRB=(UNPROT),COLOR=DEFAULT,  X
               HILIGHT=OFF
         DFHMDF POS=(14,05),LENGTH=0,ATTRB=(ASKIP,NORM)
* 'DCMNT-TYPE-CODE-4203-UT01'
ZFLD068  DFHMDF POS=(14,07),LENGTH=0003,ATTRB=(UNPROT),COLOR=DEFAULT,  X
               HILIGHT=UNDERLINE
         DFHMDF POS=(14,11),LENGTH=0,ATTRB=(ASKIP,NORM)
* 'DCMNT-TYPE-SEQ-NMBR-4203-UT01'
ZFLD069  DFHMDF POS=(14,12),LENGTH=0004,ATTRB=(PROT),COLOR=TURQUOISE,  X
               HILIGHT=OFF
* 'DCMNT-TYPE-DESC-4203-UT01'
ZFLD070  DFHMDF POS=(14,17),LENGTH=0035,ATTRB=(UNPROT),COLOR=DEFAULT,  X
               HILIGHT=UNDERLINE
* 'START-DATE-4203-UT01'
ZFLD071  DFHMDF POS=(14,53),LENGTH=0008,ATTRB=(UNPROT),COLOR=DEFAULT,  X
               HILIGHT=UNDERLINE
* 'END-DATE-4203-UT01'
ZFLD072  DFHMDF POS=(14,62),LENGTH=0008,ATTRB=(UNPROT),COLOR=DEFAULT,  X
               HILIGHT=UNDERLINE
* 'ACTVY-DATE-4203-UT01'
ZFLD073  DFHMDF POS=(14,71),LENGTH=0008,ATTRB=(PROT,ASKIP),            X
               COLOR=TURQUOISE,HILIGHT=OFF
         DFHMDF POS=(14,80),LENGTH=0,ATTRB=(ASKIP,NORM)
* 'ACTN-CODE-UT01'
ZFLD074  DFHMDF POS=(15,03),LENGTH=0001,ATTRB=(UNPROT),COLOR=DEFAULT,  X
               HILIGHT=OFF
         DFHMDF POS=(15,05),LENGTH=0,ATTRB=(ASKIP,NORM)
* 'DCMNT-TYPE-CODE-4203-UT01'
ZFLD075  DFHMDF POS=(15,07),LENGTH=0003,ATTRB=(UNPROT),COLOR=DEFAULT,  X
               HILIGHT=UNDERLINE
         DFHMDF POS=(15,11),LENGTH=0,ATTRB=(ASKIP,NORM)
* 'DCMNT-TYPE-SEQ-NMBR-4203-UT01'
ZFLD076  DFHMDF POS=(15,12),LENGTH=0004,ATTRB=(PROT),COLOR=TURQUOISE,  X
               HILIGHT=OFF
* 'DCMNT-TYPE-DESC-4203-UT01'
ZFLD077  DFHMDF POS=(15,17),LENGTH=0035,ATTRB=(UNPROT),COLOR=DEFAULT,  X
               HILIGHT=UNDERLINE
* 'START-DATE-4203-UT01'
ZFLD078  DFHMDF POS=(15,53),LENGTH=0008,ATTRB=(UNPROT),COLOR=DEFAULT,  X
               HILIGHT=UNDERLINE
* 'END-DATE-4203-UT01'
ZFLD079  DFHMDF POS=(15,62),LENGTH=0008,ATTRB=(UNPROT),COLOR=DEFAULT,  X
               HILIGHT=UNDERLINE
* 'ACTVY-DATE-4203-UT01'
ZFLD080  DFHMDF POS=(15,71),LENGTH=0008,ATTRB=(PROT,ASKIP),            X
               COLOR=TURQUOISE,HILIGHT=OFF
         DFHMDF POS=(15,80),LENGTH=0,ATTRB=(ASKIP,NORM)
* 'ACTN-CODE-UT01'
ZFLD081  DFHMDF POS=(16,03),LENGTH=0001,ATTRB=(UNPROT),COLOR=DEFAULT,  X
               HILIGHT=OFF
         DFHMDF POS=(16,05),LENGTH=0,ATTRB=(ASKIP,NORM)
* 'DCMNT-TYPE-CODE-4203-UT01'
ZFLD082  DFHMDF POS=(16,07),LENGTH=0003,ATTRB=(UNPROT),COLOR=DEFAULT,  X
               HILIGHT=UNDERLINE
         DFHMDF POS=(16,11),LENGTH=0,ATTRB=(ASKIP,NORM)
* 'DCMNT-TYPE-SEQ-NMBR-4203-UT01'
ZFLD083  DFHMDF POS=(16,12),LENGTH=0004,ATTRB=(PROT),COLOR=TURQUOISE,  X
               HILIGHT=OFF
* 'DCMNT-TYPE-DESC-4203-UT01'
ZFLD084  DFHMDF POS=(16,17),LENGTH=0035,ATTRB=(UNPROT),COLOR=DEFAULT,  X
               HILIGHT=UNDERLINE
* 'START-DATE-4203-UT01'
ZFLD085  DFHMDF POS=(16,53),LENGTH=0008,ATTRB=(UNPROT),COLOR=DEFAULT,  X
               HILIGHT=UNDERLINE
* 'END-DATE-4203-UT01'
ZFLD086  DFHMDF POS=(16,62),LENGTH=0008,ATTRB=(UNPROT),COLOR=DEFAULT,  X
               HILIGHT=UNDERLINE
* 'ACTVY-DATE-4203-UT01'
ZFLD087  DFHMDF POS=(16,71),LENGTH=0008,ATTRB=(PROT,ASKIP),            X
               COLOR=TURQUOISE,HILIGHT=OFF
         DFHMDF POS=(16,80),LENGTH=0,ATTRB=(ASKIP,NORM)
* 'ACTN-CODE-UT01'
ZFLD088  DFHMDF POS=(17,03),LENGTH=0001,ATTRB=(UNPROT),COLOR=DEFAULT,  X
               HILIGHT=OFF
         DFHMDF POS=(17,05),LENGTH=0,ATTRB=(ASKIP,NORM)
* 'DCMNT-TYPE-CODE-4203-UT01'
ZFLD089  DFHMDF POS=(17,07),LENGTH=0003,ATTRB=(UNPROT),COLOR=DEFAULT,  X
               HILIGHT=UNDERLINE
         DFHMDF POS=(17,11),LENGTH=0,ATTRB=(ASKIP,NORM)
* 'DCMNT-TYPE-SEQ-NMBR-4203-UT01'
ZFLD090  DFHMDF POS=(17,12),LENGTH=0004,ATTRB=(PROT),COLOR=TURQUOISE,  X
               HILIGHT=OFF
* 'DCMNT-TYPE-DESC-4203-UT01'
ZFLD091  DFHMDF POS=(17,17),LENGTH=0035,ATTRB=(UNPROT),COLOR=DEFAULT,  X
               HILIGHT=UNDERLINE
* 'START-DATE-4203-UT01'
ZFLD092  DFHMDF POS=(17,53),LENGTH=0008,ATTRB=(UNPROT),COLOR=DEFAULT,  X
               HILIGHT=UNDERLINE
* 'END-DATE-4203-UT01'
ZFLD093  DFHMDF POS=(17,62),LENGTH=0008,ATTRB=(UNPROT),COLOR=DEFAULT,  X
               HILIGHT=UNDERLINE
* 'ACTVY-DATE-4203-UT01'
ZFLD094  DFHMDF POS=(17,71),LENGTH=0008,ATTRB=(PROT,ASKIP),            X
               COLOR=TURQUOISE,HILIGHT=OFF
         DFHMDF POS=(17,80),LENGTH=0,ATTRB=(ASKIP,NORM)
* 'ACTN-CODE-UT01'
ZFLD095  DFHMDF POS=(18,03),LENGTH=0001,ATTRB=(UNPROT),COLOR=DEFAULT,  X
               HILIGHT=OFF
         DFHMDF POS=(18,05),LENGTH=0,ATTRB=(ASKIP,NORM)
* 'DCMNT-TYPE-CODE-4203-UT01'
ZFLD096  DFHMDF POS=(18,07),LENGTH=0003,ATTRB=(UNPROT),COLOR=DEFAULT,  X
               HILIGHT=UNDERLINE
         DFHMDF POS=(18,11),LENGTH=0,ATTRB=(ASKIP,NORM)
* 'DCMNT-TYPE-SEQ-NMBR-4203-UT01'
ZFLD097  DFHMDF POS=(18,12),LENGTH=0004,ATTRB=(PROT),COLOR=TURQUOISE,  X
               HILIGHT=OFF
* 'DCMNT-TYPE-DESC-4203-UT01'
ZFLD098  DFHMDF POS=(18,17),LENGTH=0035,ATTRB=(UNPROT),COLOR=DEFAULT,  X
               HILIGHT=UNDERLINE
* 'START-DATE-4203-UT01'
ZFLD099  DFHMDF POS=(18,53),LENGTH=0008,ATTRB=(UNPROT),COLOR=DEFAULT,  X
               HILIGHT=UNDERLINE
* 'END-DATE-4203-UT01'
ZFLD100  DFHMDF POS=(18,62),LENGTH=0008,ATTRB=(UNPROT),COLOR=DEFAULT,  X
               HILIGHT=UNDERLINE
* 'ACTVY-DATE-4203-UT01'
ZFLD101  DFHMDF POS=(18,71),LENGTH=0008,ATTRB=(PROT,ASKIP),            X
               COLOR=TURQUOISE,HILIGHT=OFF
         DFHMDF POS=(18,80),LENGTH=0,ATTRB=(ASKIP,NORM)
* 'DCLINK-MESSAGE'
ZFLD102  DFHMDF POS=(21,80),LENGTH=0160,ATTRB=(PROT,BRT),              X
               COLOR=DEFAULT,HILIGHT=OFF
         DFHMDF POS=(24,01),LENGTH=0012,ATTRB=(PROT,ASKIP,NUM),        X
               INITIAL='NEXT SCREEN:',COLOR=BLUE,HILIGHT=OFF
* 'AGR-PASSED-ONE'
ZFLD103  DFHMDF POS=(24,14),LENGTH=0030,ATTRB=(UNPROT),COLOR=DEFAULT,  X
               HILIGHT=UNDERLINE
         DFHMDF POS=(24,45),LENGTH=0009,ATTRB=(PROT,ASKIP),            X
               INITIAL='RESPONSE:',COLOR=BLUE,HILIGHT=OFF
* 'AGR-MAP-RESPONSE'
ZFLD104  DFHMDF POS=(24,55),LENGTH=0008,ATTRB=(UNPROT),COLOR=DEFAULT,  X
               HILIGHT=UNDERLINE
         DFHMDF POS=(24,64),LENGTH=0,ATTRB=(ASKIP,NORM)
* 'ERROR-TEXT-SY00'
ZFLD105  DFHMDF POS=(24,65),LENGTH=0014,ATTRB=(PROT,DRK),              X
               COLOR=DEFAULT,HILIGHT=OFF
         DFHMSD TYPE=FINAL
         END
