FUTMI04  DFHMSD TYPE=MAP,LANG=COBOL,TERM=3270,MODE=INOUT,              X
               TIOAPFX=YES,MAPATTS=(COLOR,HILIGHT),                    X
               DSATTS=(COLOR,HILIGHT)
FUTMI04  DFHMDI SIZE=(24,80),LINE=1,COLUMN=1,CTRL=FREEKB,TIOAPFX=YES
         DFHMDF POS=(01,01),LENGTH=0007,ATTRB=(PROT,ASKIP),            X
               INITIAL='FUTMI04',COLOR=BLUE,HILIGHT=OFF
* 'TRMNL-ID-SY00'
ZFLD002  DFHMDF POS=(01,10),LENGTH=0008,ATTRB=(PROT),COLOR=BLUE,       X
               HILIGHT=OFF
         DFHMDF POS=(01,19),LENGTH=0,ATTRB=(ASKIP,NORM)
* 'FULL-NAME-6001-SY00'
ZFLD003  DFHMDF POS=(01,23),LENGTH=0035,ATTRB=(PROT),COLOR=BLUE,       X
               HILIGHT=OFF
         DFHMDF POS=(01,61),LENGTH=0,ATTRB=(ASKIP,NORM)
* 'AGR-DATE'
ZFLD004  DFHMDF POS=(01,64),LENGTH=0008,ATTRB=(PROT),COLOR=BLUE,       X
               HILIGHT=OFF
* 'WORK-HH-MM-TIME-SY00'
ZFLD005  DFHMDF POS=(01,73),LENGTH=0005,ATTRB=(PROT),COLOR=BLUE,       X
               HILIGHT=OFF
* 'AM-PM-FLAG-SY00'
ZFLD006  DFHMDF POS=(01,79),LENGTH=0001,ATTRB=(PROT),COLOR=BLUE,       X
               HILIGHT=OFF
* 'AGR-USER-ID'
ZFLD007  DFHMDF POS=(02,01),LENGTH=0008,ATTRB=(PROT),COLOR=BLUE,       X
               HILIGHT=OFF
         DFHMDF POS=(02,10),LENGTH=0,ATTRB=(ASKIP,NORM)
* 'CURR-RSPNS-ID-SY00'
ZFLD008  DFHMDF POS=(02,21),LENGTH=0008,ATTRB=(PROT,BRT),              X
               COLOR=DEFAULT,HILIGHT=OFF
         DFHMDF POS=(02,30),LENGTH=0001,ATTRB=(PROT,ASKIP,BRT),        X
               INITIAL=':',COLOR=DEFAULT,HILIGHT=OFF
* 'AGR-FUNC-DESCRIPTION'
ZFLD009  DFHMDF POS=(02,32),LENGTH=0028,ATTRB=(PROT,BRT),              X
               COLOR=DEFAULT,HILIGHT=OFF
         DFHMDF POS=(02,61),LENGTH=0,ATTRB=(ASKIP,NORM)
* 'PAGE-STATUS-CODE-SY00'
ZFLD010  DFHMDF POS=(02,64),LENGTH=0010,ATTRB=(PROT,BRT),              X
               COLOR=DEFAULT,HILIGHT=OFF
         DFHMDF POS=(02,75),LENGTH=0,ATTRB=(ASKIP,NORM)
* 'DCSD-TEXT-SY01'
ZFLD011  DFHMDF POS=(03,52),LENGTH=0008,ATTRB=(PROT,DRK),              X
               COLOR=DEFAULT,HILIGHT=OFF
         DFHMDF POS=(03,61),LENGTH=0,ATTRB=(ASKIP,NORM)
* 'CNFDL-TEXT-SY01'
ZFLD012  DFHMDF POS=(03,62),LENGTH=0011,ATTRB=(PROT,DRK),              X
               COLOR=DEFAULT,HILIGHT=OFF
         DFHMDF POS=(03,74),LENGTH=0,ATTRB=(ASKIP,NORM)
* 'HOLDS-TEXT-SY01'
ZFLD013  DFHMDF POS=(03,75),LENGTH=0005,ATTRB=(PROT,DRK),              X
               COLOR=DEFAULT,HILIGHT=OFF
         DFHMDF POS=(04,01),LENGTH=0005,ATTRB=(PROT,ASKIP),            X
               INITIAL='NAME:',COLOR=BLUE,HILIGHT=OFF
* 'RQST-NAME-KEY-UT04'
ZFLD014  DFHMDF POS=(04,07),LENGTH=0035,ATTRB=(UNPROT,IC),             X
               COLOR=DEFAULT,HILIGHT=UNDERLINE
         DFHMDF POS=(04,43),LENGTH=0,ATTRB=(ASKIP,NORM)
         DFHMDF POS=(04,44),LENGTH=0010,ATTRB=(PROT,ASKIP),            X
               INITIAL='NAME TYPE:',COLOR=BLUE,HILIGHT=OFF
* 'NAME-TYPE-UT04'
ZFLD015  DFHMDF POS=(04,55),LENGTH=0001,ATTRB=(PROT,ASKIP),            X
               COLOR=TURQUOISE,HILIGHT=OFF
         DFHMDF POS=(04,57),LENGTH=0,ATTRB=(ASKIP,NORM)
         DFHMDF POS=(06,01),LENGTH=0006,ATTRB=(PROT,ASKIP),            X
               INITIAL='ACTION',COLOR=BLUE,HILIGHT=OFF
         DFHMDF POS=(07,01),LENGTH=0078,                               X
               INITIAL='(S)       ID              NAME                 X
                     VNDR  FNM  EMP  TRVL  BYR',ATTRB=(PROT,ASKIP)     X00000690
               COLOR=BLUE,HILIGHT=OFF
* 'ACTN-CODE-UT04'
ZFLD016  DFHMDF POS=(09,02),LENGTH=0001,ATTRB=(UNPROT),COLOR=DEFAULT,  X
               HILIGHT=OFF
         DFHMDF POS=(09,04),LENGTH=0,ATTRB=(ASKIP,NORM)
* 'PRSN-ENTY-ID-LAST-NINE-UT04'
ZFLD017  DFHMDF POS=(09,08),LENGTH=0009,ATTRB=(PROT,ASKIP),            X
               COLOR=TURQUOISE,HILIGHT=OFF
         DFHMDF POS=(09,18),LENGTH=0,ATTRB=(ASKIP,NORM)
* 'NAME-KEY-4173-UT04'
ZFLD018  DFHMDF POS=(09,19),LENGTH=0035,ATTRB=(PROT,ASKIP),            X
               COLOR=TURQUOISE,HILIGHT=OFF
         DFHMDF POS=(09,55),LENGTH=0,ATTRB=(ASKIP,NORM)
* 'VNDR-FLAG-UT04'
ZFLD019  DFHMDF POS=(09,56),LENGTH=0001,ATTRB=(PROT),COLOR=TURQUOISE,  X
               HILIGHT=OFF
         DFHMDF POS=(09,58),LENGTH=0,ATTRB=(ASKIP,NORM)
* 'FNCL-MGR-FLAG-UT04'
ZFLD020  DFHMDF POS=(09,61),LENGTH=0001,ATTRB=(PROT),COLOR=TURQUOISE,  X
               HILIGHT=OFF
         DFHMDF POS=(09,63),LENGTH=0,ATTRB=(ASKIP,NORM)
* 'CUST-FLAG-UT04'
ZFLD023  DFHMDF POS=(09,66),LENGTH=0001,ATTRB=(PROT),COLOR=TURQUOISE,  X
               HILIGHT=OFF
         DFHMDF POS=(09,68),LENGTH=0,ATTRB=(ASKIP,NORM)
* 'TRVL-FLAG-UT04'
ZFLD024  DFHMDF POS=(09,71),LENGTH=0001,ATTRB=(PROT),COLOR=TURQUOISE,  X
               HILIGHT=OFF
         DFHMDF POS=(09,73),LENGTH=0,ATTRB=(ASKIP,NORM)
* 'BUYER-FLAG-UT04'
ZFLD025  DFHMDF POS=(09,76),LENGTH=0001,ATTRB=(PROT),COLOR=TURQUOISE,  X
               HILIGHT=OFF
         DFHMDF POS=(09,78),LENGTH=0,ATTRB=(ASKIP,NORM)
* 'ACTN-CODE-UT04'
ZFLD026  DFHMDF POS=(10,02),LENGTH=0001,ATTRB=(UNPROT),COLOR=DEFAULT,  X
               HILIGHT=OFF
         DFHMDF POS=(10,04),LENGTH=0,ATTRB=(ASKIP,NORM)
* 'PRSN-ENTY-ID-LAST-NINE-UT04'
ZFLD027  DFHMDF POS=(10,08),LENGTH=0009,ATTRB=(PROT,ASKIP),            X
               COLOR=TURQUOISE,HILIGHT=OFF
         DFHMDF POS=(10,18),LENGTH=0,ATTRB=(ASKIP,NORM)
* 'NAME-KEY-4173-UT04'
ZFLD028  DFHMDF POS=(10,19),LENGTH=0035,ATTRB=(PROT,ASKIP),            X
               COLOR=TURQUOISE,HILIGHT=OFF
         DFHMDF POS=(10,55),LENGTH=0,ATTRB=(ASKIP,NORM)
* 'VNDR-FLAG-UT04'
ZFLD029  DFHMDF POS=(10,56),LENGTH=0001,ATTRB=(PROT),COLOR=TURQUOISE,  X
               HILIGHT=OFF
         DFHMDF POS=(10,58),LENGTH=0,ATTRB=(ASKIP,NORM)
* 'FNCL-MGR-FLAG-UT04'
ZFLD030  DFHMDF POS=(10,61),LENGTH=0001,ATTRB=(PROT),COLOR=TURQUOISE,  X
               HILIGHT=OFF
         DFHMDF POS=(10,63),LENGTH=0,ATTRB=(ASKIP,NORM)
* 'CUST-FLAG-UT04'
ZFLD033  DFHMDF POS=(10,66),LENGTH=0001,ATTRB=(PROT),COLOR=TURQUOISE,  X
               HILIGHT=OFF
         DFHMDF POS=(10,68),LENGTH=0,ATTRB=(ASKIP,NORM)
* 'TRVL-FLAG-UT04'
ZFLD034  DFHMDF POS=(10,71),LENGTH=0001,ATTRB=(PROT),COLOR=TURQUOISE,  X
               HILIGHT=OFF
         DFHMDF POS=(10,73),LENGTH=0,ATTRB=(ASKIP,NORM)
* 'BUYER-FLAG-UT04'
ZFLD035  DFHMDF POS=(10,76),LENGTH=0001,ATTRB=(PROT),COLOR=TURQUOISE,  X
               HILIGHT=OFF
         DFHMDF POS=(10,78),LENGTH=0,ATTRB=(ASKIP,NORM)
* 'ACTN-CODE-UT04'
ZFLD036  DFHMDF POS=(11,02),LENGTH=0001,ATTRB=(UNPROT),COLOR=DEFAULT,  X
               HILIGHT=OFF
         DFHMDF POS=(11,04),LENGTH=0,ATTRB=(ASKIP,NORM)
* 'PRSN-ENTY-ID-LAST-NINE-UT04'
ZFLD037  DFHMDF POS=(11,08),LENGTH=0009,ATTRB=(PROT,ASKIP),            X
               COLOR=TURQUOISE,HILIGHT=OFF
         DFHMDF POS=(11,18),LENGTH=0,ATTRB=(ASKIP,NORM)
* 'NAME-KEY-4173-UT04'
ZFLD038  DFHMDF POS=(11,19),LENGTH=0035,ATTRB=(PROT,ASKIP),            X
               COLOR=TURQUOISE,HILIGHT=OFF
         DFHMDF POS=(11,55),LENGTH=0,ATTRB=(ASKIP,NORM)
* 'VNDR-FLAG-UT04'
ZFLD039  DFHMDF POS=(11,56),LENGTH=0001,ATTRB=(PROT),COLOR=TURQUOISE,  X
               HILIGHT=OFF
         DFHMDF POS=(11,58),LENGTH=0,ATTRB=(ASKIP,NORM)
* 'FNCL-MGR-FLAG-UT04'
ZFLD040  DFHMDF POS=(11,61),LENGTH=0001,ATTRB=(PROT),COLOR=TURQUOISE,  X
               HILIGHT=OFF
         DFHMDF POS=(11,63),LENGTH=0,ATTRB=(ASKIP,NORM)
* 'CUST-FLAG-UT04'
ZFLD043  DFHMDF POS=(11,66),LENGTH=0001,ATTRB=(PROT),COLOR=TURQUOISE,  X
               HILIGHT=OFF
         DFHMDF POS=(11,68),LENGTH=0,ATTRB=(ASKIP,NORM)
* 'TRVL-FLAG-UT04'
ZFLD044  DFHMDF POS=(11,71),LENGTH=0001,ATTRB=(PROT),COLOR=TURQUOISE,  X
               HILIGHT=OFF
         DFHMDF POS=(11,73),LENGTH=0,ATTRB=(ASKIP,NORM)
* 'BUYER-FLAG-UT04'
ZFLD045  DFHMDF POS=(11,76),LENGTH=0001,ATTRB=(PROT),COLOR=TURQUOISE,  X
               HILIGHT=OFF
         DFHMDF POS=(11,78),LENGTH=0,ATTRB=(ASKIP,NORM)
* 'ACTN-CODE-UT04'
ZFLD046  DFHMDF POS=(12,02),LENGTH=0001,ATTRB=(UNPROT),COLOR=DEFAULT,  X
               HILIGHT=OFF
         DFHMDF POS=(12,04),LENGTH=0,ATTRB=(ASKIP,NORM)
* 'PRSN-ENTY-ID-LAST-NINE-UT04'
ZFLD047  DFHMDF POS=(12,08),LENGTH=0009,ATTRB=(PROT,ASKIP),            X
               COLOR=TURQUOISE,HILIGHT=OFF
         DFHMDF POS=(12,18),LENGTH=0,ATTRB=(ASKIP,NORM)
* 'NAME-KEY-4173-UT04'
ZFLD048  DFHMDF POS=(12,19),LENGTH=0035,ATTRB=(PROT,ASKIP),            X
               COLOR=TURQUOISE,HILIGHT=OFF
         DFHMDF POS=(12,55),LENGTH=0,ATTRB=(ASKIP,NORM)
* 'VNDR-FLAG-UT04'
ZFLD049  DFHMDF POS=(12,56),LENGTH=0001,ATTRB=(PROT),COLOR=TURQUOISE,  X
               HILIGHT=OFF
         DFHMDF POS=(12,58),LENGTH=0,ATTRB=(ASKIP,NORM)
* 'FNCL-MGR-FLAG-UT04'
ZFLD050  DFHMDF POS=(12,61),LENGTH=0001,ATTRB=(PROT),COLOR=TURQUOISE,  X
               HILIGHT=OFF
         DFHMDF POS=(12,63),LENGTH=0,ATTRB=(ASKIP,NORM)
* 'CUST-FLAG-UT04'
ZFLD053  DFHMDF POS=(12,66),LENGTH=0001,ATTRB=(PROT),COLOR=TURQUOISE,  X
               HILIGHT=OFF
         DFHMDF POS=(12,68),LENGTH=0,ATTRB=(ASKIP,NORM)
* 'TRVL-FLAG-UT04'
ZFLD054  DFHMDF POS=(12,71),LENGTH=0001,ATTRB=(PROT),COLOR=TURQUOISE,  X
               HILIGHT=OFF
         DFHMDF POS=(12,73),LENGTH=0,ATTRB=(ASKIP,NORM)
* 'BUYER-FLAG-UT04'
ZFLD055  DFHMDF POS=(12,76),LENGTH=0001,ATTRB=(PROT),COLOR=TURQUOISE,  X
               HILIGHT=OFF
         DFHMDF POS=(12,78),LENGTH=0,ATTRB=(ASKIP,NORM)
* 'ACTN-CODE-UT04'
ZFLD056  DFHMDF POS=(13,02),LENGTH=0001,ATTRB=(UNPROT),COLOR=DEFAULT,  X
               HILIGHT=OFF
         DFHMDF POS=(13,04),LENGTH=0,ATTRB=(ASKIP,NORM)
* 'PRSN-ENTY-ID-LAST-NINE-UT04'
ZFLD057  DFHMDF POS=(13,08),LENGTH=0009,ATTRB=(PROT,ASKIP),            X
               COLOR=TURQUOISE,HILIGHT=OFF
         DFHMDF POS=(13,18),LENGTH=0,ATTRB=(ASKIP,NORM)
* 'NAME-KEY-4173-UT04'
ZFLD058  DFHMDF POS=(13,19),LENGTH=0035,ATTRB=(PROT,ASKIP),            X
               COLOR=TURQUOISE,HILIGHT=OFF
         DFHMDF POS=(13,55),LENGTH=0,ATTRB=(ASKIP,NORM)
* 'VNDR-FLAG-UT04'
ZFLD059  DFHMDF POS=(13,56),LENGTH=0001,ATTRB=(PROT),COLOR=TURQUOISE,  X
               HILIGHT=OFF
         DFHMDF POS=(13,58),LENGTH=0,ATTRB=(ASKIP,NORM)
* 'FNCL-MGR-FLAG-UT04'
ZFLD060  DFHMDF POS=(13,61),LENGTH=0001,ATTRB=(PROT),COLOR=TURQUOISE,  X
               HILIGHT=OFF
         DFHMDF POS=(13,63),LENGTH=0,ATTRB=(ASKIP,NORM)
* 'CUST-FLAG-UT04'
ZFLD063  DFHMDF POS=(13,66),LENGTH=0001,ATTRB=(PROT),COLOR=TURQUOISE,  X
               HILIGHT=OFF
         DFHMDF POS=(13,68),LENGTH=0,ATTRB=(ASKIP,NORM)
* 'TRVL-FLAG-UT04'
ZFLD064  DFHMDF POS=(13,71),LENGTH=0001,ATTRB=(PROT),COLOR=TURQUOISE,  X
               HILIGHT=OFF
         DFHMDF POS=(13,73),LENGTH=0,ATTRB=(ASKIP,NORM)
* 'BUYER-FLAG-UT04'
ZFLD065  DFHMDF POS=(13,76),LENGTH=0001,ATTRB=(PROT),COLOR=TURQUOISE,  X
               HILIGHT=OFF
         DFHMDF POS=(13,78),LENGTH=0,ATTRB=(ASKIP,NORM)
* 'ACTN-CODE-UT04'
ZFLD066  DFHMDF POS=(14,02),LENGTH=0001,ATTRB=(UNPROT),COLOR=DEFAULT,  X
               HILIGHT=OFF
         DFHMDF POS=(14,04),LENGTH=0,ATTRB=(ASKIP,NORM)
* 'PRSN-ENTY-ID-LAST-NINE-UT04'
ZFLD067  DFHMDF POS=(14,08),LENGTH=0009,ATTRB=(PROT,ASKIP),            X
               COLOR=TURQUOISE,HILIGHT=OFF
         DFHMDF POS=(14,18),LENGTH=0,ATTRB=(ASKIP,NORM)
* 'NAME-KEY-4173-UT04'
ZFLD068  DFHMDF POS=(14,19),LENGTH=0035,ATTRB=(PROT,ASKIP),            X
               COLOR=TURQUOISE,HILIGHT=OFF
         DFHMDF POS=(14,55),LENGTH=0,ATTRB=(ASKIP,NORM)
* 'VNDR-FLAG-UT04'
ZFLD069  DFHMDF POS=(14,56),LENGTH=0001,ATTRB=(PROT),COLOR=TURQUOISE,  X
               HILIGHT=OFF
         DFHMDF POS=(14,58),LENGTH=0,ATTRB=(ASKIP,NORM)
* 'FNCL-MGR-FLAG-UT04'
ZFLD070  DFHMDF POS=(14,61),LENGTH=0001,ATTRB=(PROT),COLOR=TURQUOISE,  X
               HILIGHT=OFF
         DFHMDF POS=(14,63),LENGTH=0,ATTRB=(ASKIP,NORM)
* 'CUST-FLAG-UT04'
ZFLD073  DFHMDF POS=(14,66),LENGTH=0001,ATTRB=(PROT),COLOR=TURQUOISE,  X
               HILIGHT=OFF
         DFHMDF POS=(14,68),LENGTH=0,ATTRB=(ASKIP,NORM)
* 'TRVL-FLAG-UT04'
ZFLD074  DFHMDF POS=(14,71),LENGTH=0001,ATTRB=(PROT),COLOR=TURQUOISE,  X
               HILIGHT=OFF
         DFHMDF POS=(14,73),LENGTH=0,ATTRB=(ASKIP,NORM)
* 'BUYER-FLAG-UT04'
ZFLD075  DFHMDF POS=(14,76),LENGTH=0001,ATTRB=(PROT),COLOR=TURQUOISE,  X
               HILIGHT=OFF
         DFHMDF POS=(14,78),LENGTH=0,ATTRB=(ASKIP,NORM)
* 'ACTN-CODE-UT04'
ZFLD076  DFHMDF POS=(15,02),LENGTH=0001,ATTRB=(UNPROT),COLOR=DEFAULT,  X
               HILIGHT=OFF
         DFHMDF POS=(15,04),LENGTH=0,ATTRB=(ASKIP,NORM)
* 'PRSN-ENTY-ID-LAST-NINE-UT04'
ZFLD077  DFHMDF POS=(15,08),LENGTH=0009,ATTRB=(PROT,ASKIP),            X
               COLOR=TURQUOISE,HILIGHT=OFF
         DFHMDF POS=(15,18),LENGTH=0,ATTRB=(ASKIP,NORM)
* 'NAME-KEY-4173-UT04'
ZFLD078  DFHMDF POS=(15,19),LENGTH=0035,ATTRB=(PROT,ASKIP),            X
               COLOR=TURQUOISE,HILIGHT=OFF
         DFHMDF POS=(15,55),LENGTH=0,ATTRB=(ASKIP,NORM)
* 'VNDR-FLAG-UT04'
ZFLD079  DFHMDF POS=(15,56),LENGTH=0001,ATTRB=(PROT),COLOR=TURQUOISE,  X
               HILIGHT=OFF
         DFHMDF POS=(15,58),LENGTH=0,ATTRB=(ASKIP,NORM)
* 'FNCL-MGR-FLAG-UT04'
ZFLD080  DFHMDF POS=(15,61),LENGTH=0001,ATTRB=(PROT),COLOR=TURQUOISE,  X
               HILIGHT=OFF
         DFHMDF POS=(15,63),LENGTH=0,ATTRB=(ASKIP,NORM)
* 'CUST-FLAG-UT04'
ZFLD083  DFHMDF POS=(15,66),LENGTH=0001,ATTRB=(PROT),COLOR=TURQUOISE,  X
               HILIGHT=OFF
         DFHMDF POS=(15,68),LENGTH=0,ATTRB=(ASKIP,NORM)
* 'TRVL-FLAG-UT04'
ZFLD084  DFHMDF POS=(15,71),LENGTH=0001,ATTRB=(PROT),COLOR=TURQUOISE,  X
               HILIGHT=OFF
         DFHMDF POS=(15,73),LENGTH=0,ATTRB=(ASKIP,NORM)
* 'BUYER-FLAG-UT04'
ZFLD085  DFHMDF POS=(15,76),LENGTH=0001,ATTRB=(PROT),COLOR=TURQUOISE,  X
               HILIGHT=OFF
         DFHMDF POS=(15,78),LENGTH=0,ATTRB=(ASKIP,NORM)
* 'ACTN-CODE-UT04'
ZFLD086  DFHMDF POS=(16,02),LENGTH=0001,ATTRB=(UNPROT),COLOR=DEFAULT,  X
               HILIGHT=OFF
         DFHMDF POS=(16,04),LENGTH=0,ATTRB=(ASKIP,NORM)
* 'PRSN-ENTY-ID-LAST-NINE-UT04'
ZFLD087  DFHMDF POS=(16,08),LENGTH=0009,ATTRB=(PROT,ASKIP),            X
               COLOR=TURQUOISE,HILIGHT=OFF
         DFHMDF POS=(16,18),LENGTH=0,ATTRB=(ASKIP,NORM)
* 'NAME-KEY-4173-UT04'
ZFLD088  DFHMDF POS=(16,19),LENGTH=0035,ATTRB=(PROT,ASKIP),            X
               COLOR=TURQUOISE,HILIGHT=OFF
         DFHMDF POS=(16,55),LENGTH=0,ATTRB=(ASKIP,NORM)
* 'VNDR-FLAG-UT04'
ZFLD089  DFHMDF POS=(16,56),LENGTH=0001,ATTRB=(PROT),COLOR=TURQUOISE,  X
               HILIGHT=OFF
         DFHMDF POS=(16,58),LENGTH=0,ATTRB=(ASKIP,NORM)
* 'FNCL-MGR-FLAG-UT04'
ZFLD090  DFHMDF POS=(16,61),LENGTH=0001,ATTRB=(PROT),COLOR=TURQUOISE,  X
               HILIGHT=OFF
         DFHMDF POS=(16,63),LENGTH=0,ATTRB=(ASKIP,NORM)
* 'CUST-FLAG-UT04'
ZFLD093  DFHMDF POS=(16,66),LENGTH=0001,ATTRB=(PROT),COLOR=TURQUOISE,  X
               HILIGHT=OFF
         DFHMDF POS=(16,68),LENGTH=0,ATTRB=(ASKIP,NORM)
* 'TRVL-FLAG-UT04'
ZFLD094  DFHMDF POS=(16,71),LENGTH=0001,ATTRB=(PROT),COLOR=TURQUOISE,  X
               HILIGHT=OFF
         DFHMDF POS=(16,73),LENGTH=0,ATTRB=(ASKIP,NORM)
* 'BUYER-FLAG-UT04'
ZFLD095  DFHMDF POS=(16,76),LENGTH=0001,ATTRB=(PROT),COLOR=TURQUOISE,  X
               HILIGHT=OFF
         DFHMDF POS=(16,78),LENGTH=0,ATTRB=(ASKIP,NORM)
* 'ACTN-CODE-UT04'
ZFLD096  DFHMDF POS=(17,02),LENGTH=0001,ATTRB=(UNPROT),COLOR=DEFAULT,  X
               HILIGHT=OFF
         DFHMDF POS=(17,04),LENGTH=0,ATTRB=(ASKIP,NORM)
* 'PRSN-ENTY-ID-LAST-NINE-UT04'
ZFLD097  DFHMDF POS=(17,08),LENGTH=0009,ATTRB=(PROT,ASKIP),            X
               COLOR=TURQUOISE,HILIGHT=OFF
         DFHMDF POS=(17,18),LENGTH=0,ATTRB=(ASKIP,NORM)
* 'NAME-KEY-4173-UT04'
ZFLD098  DFHMDF POS=(17,19),LENGTH=0035,ATTRB=(PROT,ASKIP),            X
               COLOR=TURQUOISE,HILIGHT=OFF
         DFHMDF POS=(17,55),LENGTH=0,ATTRB=(ASKIP,NORM)
* 'VNDR-FLAG-UT04'
ZFLD099  DFHMDF POS=(17,56),LENGTH=0001,ATTRB=(PROT),COLOR=TURQUOISE,  X
               HILIGHT=OFF
         DFHMDF POS=(17,58),LENGTH=0,ATTRB=(ASKIP,NORM)
* 'FNCL-MGR-FLAG-UT04'
ZFLD100  DFHMDF POS=(17,61),LENGTH=0001,ATTRB=(PROT),COLOR=TURQUOISE,  X
               HILIGHT=OFF
         DFHMDF POS=(17,63),LENGTH=0,ATTRB=(ASKIP,NORM)
* 'CUST-FLAG-UT04'
ZFLD103  DFHMDF POS=(17,66),LENGTH=0001,ATTRB=(PROT),COLOR=TURQUOISE,  X
               HILIGHT=OFF
         DFHMDF POS=(17,68),LENGTH=0,ATTRB=(ASKIP,NORM)
* 'TRVL-FLAG-UT04'
ZFLD104  DFHMDF POS=(17,71),LENGTH=0001,ATTRB=(PROT),COLOR=TURQUOISE,  X
               HILIGHT=OFF
         DFHMDF POS=(17,73),LENGTH=0,ATTRB=(ASKIP,NORM)
* 'BUYER-FLAG-UT04'
ZFLD105  DFHMDF POS=(17,76),LENGTH=0001,ATTRB=(PROT),COLOR=TURQUOISE,  X
               HILIGHT=OFF
         DFHMDF POS=(17,78),LENGTH=0,ATTRB=(ASKIP,NORM)
* 'ACTN-CODE-UT04'
ZFLD106  DFHMDF POS=(18,02),LENGTH=0001,ATTRB=(UNPROT),COLOR=DEFAULT,  X
               HILIGHT=OFF
         DFHMDF POS=(18,04),LENGTH=0,ATTRB=(ASKIP,NORM)
* 'PRSN-ENTY-ID-LAST-NINE-UT04'
ZFLD107  DFHMDF POS=(18,08),LENGTH=0009,ATTRB=(PROT,ASKIP),            X
               COLOR=TURQUOISE,HILIGHT=OFF
         DFHMDF POS=(18,18),LENGTH=0,ATTRB=(ASKIP,NORM)
* 'NAME-KEY-4173-UT04'
ZFLD108  DFHMDF POS=(18,19),LENGTH=0035,ATTRB=(PROT,ASKIP),            X
               COLOR=TURQUOISE,HILIGHT=OFF
         DFHMDF POS=(18,55),LENGTH=0,ATTRB=(ASKIP,NORM)
* 'VNDR-FLAG-UT04'
ZFLD109  DFHMDF POS=(18,56),LENGTH=0001,ATTRB=(PROT),COLOR=TURQUOISE,  X
               HILIGHT=OFF
         DFHMDF POS=(18,58),LENGTH=0,ATTRB=(ASKIP,NORM)
* 'FNCL-MGR-FLAG-UT04'
ZFLD110  DFHMDF POS=(18,61),LENGTH=0001,ATTRB=(PROT),COLOR=TURQUOISE,  X
               HILIGHT=OFF
         DFHMDF POS=(18,63),LENGTH=0,ATTRB=(ASKIP,NORM)
* 'CUST-FLAG-UT04'
ZFLD113  DFHMDF POS=(18,66),LENGTH=0001,ATTRB=(PROT),COLOR=TURQUOISE,  X
               HILIGHT=OFF
         DFHMDF POS=(18,68),LENGTH=0,ATTRB=(ASKIP,NORM)
* 'TRVL-FLAG-UT04'
ZFLD114  DFHMDF POS=(18,71),LENGTH=0001,ATTRB=(PROT),COLOR=TURQUOISE,  X
               HILIGHT=OFF
         DFHMDF POS=(18,73),LENGTH=0,ATTRB=(ASKIP,NORM)
* 'BUYER-FLAG-UT04'
ZFLD115  DFHMDF POS=(18,76),LENGTH=0001,ATTRB=(PROT),COLOR=TURQUOISE,  X
               HILIGHT=OFF
         DFHMDF POS=(18,78),LENGTH=0,ATTRB=(ASKIP,NORM)
* 'ACTN-CODE-UT04'
ZFLD116  DFHMDF POS=(19,02),LENGTH=0001,ATTRB=(UNPROT),COLOR=DEFAULT,  X
               HILIGHT=OFF
         DFHMDF POS=(19,04),LENGTH=0,ATTRB=(ASKIP,NORM)
* 'PRSN-ENTY-ID-LAST-NINE-UT04'
ZFLD117  DFHMDF POS=(19,08),LENGTH=0009,ATTRB=(PROT,ASKIP),            X
               COLOR=TURQUOISE,HILIGHT=OFF
         DFHMDF POS=(19,18),LENGTH=0,ATTRB=(ASKIP,NORM)
* 'NAME-KEY-4173-UT04'
ZFLD118  DFHMDF POS=(19,19),LENGTH=0035,ATTRB=(PROT,ASKIP),            X
               COLOR=TURQUOISE,HILIGHT=OFF
         DFHMDF POS=(19,55),LENGTH=0,ATTRB=(ASKIP,NORM)
* 'VNDR-FLAG-UT04'
ZFLD119  DFHMDF POS=(19,56),LENGTH=0001,ATTRB=(PROT),COLOR=TURQUOISE,  X
               HILIGHT=OFF
         DFHMDF POS=(19,58),LENGTH=0,ATTRB=(ASKIP,NORM)
* 'FNCL-MGR-FLAG-UT04'
ZFLD120  DFHMDF POS=(19,61),LENGTH=0001,ATTRB=(PROT),COLOR=TURQUOISE,  X
               HILIGHT=OFF
         DFHMDF POS=(19,63),LENGTH=0,ATTRB=(ASKIP,NORM)
* 'CUST-FLAG-UT04'
ZFLD123  DFHMDF POS=(19,66),LENGTH=0001,ATTRB=(PROT),COLOR=TURQUOISE,  X
               HILIGHT=OFF
         DFHMDF POS=(19,68),LENGTH=0,ATTRB=(ASKIP,NORM)
* 'TRVL-FLAG-UT04'
ZFLD124  DFHMDF POS=(19,71),LENGTH=0001,ATTRB=(PROT),COLOR=TURQUOISE,  X
               HILIGHT=OFF
         DFHMDF POS=(19,73),LENGTH=0,ATTRB=(ASKIP,NORM)
* 'BUYER-FLAG-UT04'
ZFLD125  DFHMDF POS=(19,76),LENGTH=0001,ATTRB=(PROT),COLOR=TURQUOISE,  X
               HILIGHT=OFF
         DFHMDF POS=(19,78),LENGTH=0,ATTRB=(ASKIP,NORM)
* 'ACTN-CODE-UT04'
ZFLD126  DFHMDF POS=(20,02),LENGTH=0001,ATTRB=(UNPROT),COLOR=DEFAULT,  X
               HILIGHT=OFF
         DFHMDF POS=(20,04),LENGTH=0,ATTRB=(ASKIP,NORM)
* 'PRSN-ENTY-ID-LAST-NINE-UT04'
ZFLD127  DFHMDF POS=(20,08),LENGTH=0009,ATTRB=(PROT,ASKIP),            X
               COLOR=TURQUOISE,HILIGHT=OFF
         DFHMDF POS=(20,18),LENGTH=0,ATTRB=(ASKIP,NORM)
* 'NAME-KEY-4173-UT04'
ZFLD128  DFHMDF POS=(20,19),LENGTH=0035,ATTRB=(PROT,ASKIP),            X
               COLOR=TURQUOISE,HILIGHT=OFF
         DFHMDF POS=(20,55),LENGTH=0,ATTRB=(ASKIP,NORM)
* 'VNDR-FLAG-UT04'
ZFLD129  DFHMDF POS=(20,56),LENGTH=0001,ATTRB=(PROT),COLOR=TURQUOISE,  X
               HILIGHT=OFF
         DFHMDF POS=(20,58),LENGTH=0,ATTRB=(ASKIP,NORM)
* 'FNCL-MGR-FLAG-UT04'
ZFLD130  DFHMDF POS=(20,61),LENGTH=0001,ATTRB=(PROT),COLOR=TURQUOISE,  X
               HILIGHT=OFF
         DFHMDF POS=(20,63),LENGTH=0,ATTRB=(ASKIP,NORM)
* 'CUST-FLAG-UT04'
ZFLD133  DFHMDF POS=(20,66),LENGTH=0001,ATTRB=(PROT),COLOR=TURQUOISE,  X
               HILIGHT=OFF
         DFHMDF POS=(20,68),LENGTH=0,ATTRB=(ASKIP,NORM)
* 'TRVL-FLAG-UT04'
ZFLD134  DFHMDF POS=(20,71),LENGTH=0001,ATTRB=(PROT),COLOR=TURQUOISE,  X
               HILIGHT=OFF
         DFHMDF POS=(20,73),LENGTH=0,ATTRB=(ASKIP,NORM)
* 'BUYER-FLAG-UT04'
ZFLD135  DFHMDF POS=(20,76),LENGTH=0001,ATTRB=(PROT),COLOR=TURQUOISE,  X
               HILIGHT=OFF
         DFHMDF POS=(20,78),LENGTH=0,ATTRB=(ASKIP,NORM)
* 'DCLINK-MESSAGE'
ZFLD136  DFHMDF POS=(21,80),LENGTH=0160,ATTRB=(PROT,BRT),              X
               COLOR=DEFAULT,HILIGHT=OFF
         DFHMDF POS=(24,01),LENGTH=0012,ATTRB=(PROT,ASKIP,NUM),        X
               INITIAL='NEXT SCREEN:',COLOR=BLUE,HILIGHT=OFF
* 'AGR-PASSED-ONE'
ZFLD137  DFHMDF POS=(24,14),LENGTH=0030,ATTRB=(UNPROT),COLOR=DEFAULT,  X
               HILIGHT=UNDERLINE
         DFHMDF POS=(24,45),LENGTH=0009,ATTRB=(PROT,ASKIP),            X
               INITIAL='RESPONSE:',COLOR=BLUE,HILIGHT=OFF
* 'AGR-MAP-RESPONSE'
ZFLD138  DFHMDF POS=(24,55),LENGTH=0008,ATTRB=(UNPROT),COLOR=DEFAULT,  X
               HILIGHT=UNDERLINE
         DFHMDF POS=(24,64),LENGTH=0,ATTRB=(ASKIP,NORM)
* 'ERROR-TEXT-SY00'
ZFLD139  DFHMDF POS=(24,65),LENGTH=0014,ATTRB=(PROT,DRK),              X
               COLOR=DEFAULT,HILIGHT=OFF
         DFHMSD TYPE=FINAL
         END
